%!PS-Adobe-3.0 EPSF-3.0
%%Title: results/full_symmetry/rtt.eps
%%Creator: matplotlib version 3.3.0, http://matplotlib.org/
%%CreationDate: Fri Aug 14 02:43:43 2020
%%Orientation: portrait
%%BoundingBox: 95.69312500000001 234.99400000000003 516.306875 557.006
%%EndComments
%%BeginProlog
/mpldict 8 dict def
mpldict begin
/m { moveto } bind def
/l { lineto } bind def
/r { rlineto } bind def
/c { curveto } bind def
/cl { closepath } bind def
/box {
      m
      1 index 0 r
      0 exch r
      neg 0 r
      cl
    } bind def
/clipbox {
      box
      clip
      newpath
    } bind def
%!PS-Adobe-3.0 Resource-Font
%%Title: DejaVu Sans
%%Copyright: Copyright (c) 2003 by Bitstream, Inc. All Rights Reserved. Copyright (c) 2006 by Tavmjong Bah. All Rights Reserved. DejaVu changes are in public domain 
%%Creator: Converted from TrueType to type 3 by PPR
25 dict begin
/_d{bind def}bind def
/_m{moveto}_d
/_l{lineto}_d
/_cl{closepath eofill}_d
/_c{curveto}_d
/_sc{7 -1 roll{setcachedevice}{pop pop pop pop pop pop}ifelse}_d
/_e{exec}_d
/FontName /DejaVuSans def
/PaintType 0 def
/FontMatrix[.001 0 0 .001 0 0]def
/FontBBox[-1021 -463 1793 1232]def
/FontType 3 def
/Encoding [ /space /parenleft /parenright /zero /one /two /four /six /eight /R /T /c /e /i /m /s /minus ] def
/FontInfo 10 dict dup begin
/FamilyName (DejaVu Sans) def
/FullName (DejaVu Sans) def
/Notice (Copyright (c) 2003 by Bitstream, Inc. All Rights Reserved. Copyright (c) 2006 by Tavmjong Bah. All Rights Reserved. DejaVu changes are in public domain ) def
/Weight (Book) def
/Version (Version 2.35) def
/ItalicAngle 0.0 def
/isFixedPitch false def
/UnderlinePosition -130 def
/UnderlineThickness 90 def
end readonly def
/CharStrings 18 dict dup begin
/.notdef 0 def
/space{318 0 0 0 0 0 _sc
}_d
/parenleft{390 0 86 -131 310 759 _sc
310 759 _m
266 683 234 609 213 536 _c
191 463 181 389 181 314 _c
181 238 191 164 213 91 _c
234 17 266 -56 310 -131 _c
232 -131 _l
183 -54 146 20 122 94 _c
98 168 86 241 86 314 _c
86 386 98 459 122 533 _c
146 607 182 682 232 759 _c
310 759 _l
_cl}_d
/parenright{390 0 80 -131 304 759 _sc
80 759 _m
158 759 _l
206 682 243 607 267 533 _c
291 459 304 386 304 314 _c
304 241 291 168 267 94 _c
243 20 206 -54 158 -131 _c
80 -131 _l
123 -56 155 17 177 91 _c
198 164 209 238 209 314 _c
209 389 198 463 177 536 _c
155 609 123 683 80 759 _c
_cl}_d
/zero{636 0 66 -13 570 742 _sc
318 664 _m
267 664 229 639 203 589 _c
177 539 165 464 165 364 _c
165 264 177 189 203 139 _c
229 89 267 64 318 64 _c
369 64 407 89 433 139 _c
458 189 471 264 471 364 _c
471 464 458 539 433 589 _c
407 639 369 664 318 664 _c
318 742 _m
399 742 461 709 505 645 _c
548 580 570 486 570 364 _c
570 241 548 147 505 83 _c
461 19 399 -13 318 -13 _c
236 -13 173 19 130 83 _c
87 147 66 241 66 364 _c
66 486 87 580 130 645 _c
173 709 236 742 318 742 _c
_cl}_d
/one{636 0 110 0 544 729 _sc
124 83 _m
285 83 _l
285 639 _l
110 604 _l
110 694 _l
284 729 _l
383 729 _l
383 83 _l
544 83 _l
544 0 _l
124 0 _l
124 83 _l
_cl}_d
/two{{636 0 73 0 536 742 _sc
192 83 _m
536 83 _l
536 0 _l
73 0 _l
73 83 _l
110 121 161 173 226 239 _c
290 304 331 346 348 365 _c
380 400 402 430 414 455 _c
426 479 433 504 433 528 _c
433 566 419 598 392 622 _c
365 646 330 659 286 659 _c
255 659 222 653 188 643 _c
154 632 117 616 78 594 _c
78 694 _l
118 710 155 722 189 730 _c
223 738 255 742 284 742 _c
}_e{359 742 419 723 464 685 _c
509 647 532 597 532 534 _c
532 504 526 475 515 449 _c
504 422 484 390 454 354 _c
446 344 420 317 376 272 _c
332 227 271 164 192 83 _c
_cl}_e}_d
/four{636 0 49 0 580 729 _sc
378 643 _m
129 254 _l
378 254 _l
378 643 _l
352 729 _m
476 729 _l
476 254 _l
580 254 _l
580 172 _l
476 172 _l
476 0 _l
378 0 _l
378 172 _l
49 172 _l
49 267 _l
352 729 _l
_cl}_d
/six{{636 0 70 -13 573 742 _sc
330 404 _m
286 404 251 388 225 358 _c
199 328 186 286 186 234 _c
186 181 199 139 225 109 _c
251 79 286 64 330 64 _c
374 64 409 79 435 109 _c
461 139 474 181 474 234 _c
474 286 461 328 435 358 _c
409 388 374 404 330 404 _c
526 713 _m
526 623 _l
501 635 476 644 451 650 _c
425 656 400 659 376 659 _c
310 659 260 637 226 593 _c
}_e{192 549 172 482 168 394 _c
187 422 211 444 240 459 _c
269 474 301 482 336 482 _c
409 482 467 459 509 415 _c
551 371 573 310 573 234 _c
573 159 550 99 506 54 _c
462 9 403 -13 330 -13 _c
246 -13 181 19 137 83 _c
92 147 70 241 70 364 _c
70 479 97 571 152 639 _c
206 707 280 742 372 742 _c
396 742 421 739 447 735 _c
472 730 498 723 526 713 _c
_cl}_e}_d
/eight{{636 0 68 -13 568 742 _sc
318 346 _m
271 346 234 333 207 308 _c
180 283 167 249 167 205 _c
167 161 180 126 207 101 _c
234 76 271 64 318 64 _c
364 64 401 76 428 102 _c
455 127 469 161 469 205 _c
469 249 455 283 429 308 _c
402 333 365 346 318 346 _c
219 388 _m
177 398 144 418 120 447 _c
96 476 85 511 85 553 _c
85 611 105 657 147 691 _c
188 725 245 742 318 742 _c
}_e{390 742 447 725 489 691 _c
530 657 551 611 551 553 _c
551 511 539 476 515 447 _c
491 418 459 398 417 388 _c
464 377 501 355 528 323 _c
554 291 568 251 568 205 _c
568 134 546 80 503 43 _c
459 5 398 -13 318 -13 _c
237 -13 175 5 132 43 _c
89 80 68 134 68 205 _c
68 251 81 291 108 323 _c
134 355 171 377 219 388 _c
183 544 _m
183 506 194 476 218 455 _c
}_e{242 434 275 424 318 424 _c
360 424 393 434 417 455 _c
441 476 453 506 453 544 _c
453 582 441 611 417 632 _c
393 653 360 664 318 664 _c
275 664 242 653 218 632 _c
194 611 183 582 183 544 _c
_cl}_e}_d
/R{{695 0 98 0 666 729 _sc
444 342 _m
465 334 486 319 506 296 _c
526 272 546 240 566 199 _c
666 0 _l
560 0 _l
467 187 _l
443 235 419 268 397 284 _c
374 300 343 308 304 308 _c
197 308 _l
197 0 _l
98 0 _l
98 729 _l
321 729 _l
404 729 466 711 507 677 _c
548 642 569 589 569 519 _c
569 473 558 434 537 404 _c
515 374 484 353 444 342 _c
197 648 _m
197 389 _l
321 389 _l
}_e{368 389 404 400 428 422 _c
452 444 465 476 465 519 _c
465 561 452 593 428 615 _c
404 637 368 648 321 648 _c
197 648 _l
_cl}_e}_d
/T{611 0 -2 0 614 729 _sc
-2 729 _m
614 729 _l
614 646 _l
355 646 _l
355 0 _l
256 0 _l
256 646 _l
-2 646 _l
-2 729 _l
_cl}_d
/c{{550 0 55 -13 488 560 _sc
488 526 _m
488 442 _l
462 456 437 466 411 473 _c
385 480 360 484 334 484 _c
276 484 230 465 198 428 _c
166 391 150 339 150 273 _c
150 206 166 154 198 117 _c
230 80 276 62 334 62 _c
360 62 385 65 411 72 _c
437 79 462 90 488 104 _c
488 21 _l
462 9 436 0 410 -5 _c
383 -10 354 -13 324 -13 _c
242 -13 176 12 128 64 _c
}_e{79 115 55 185 55 273 _c
55 362 79 432 128 483 _c
177 534 244 560 330 560 _c
358 560 385 557 411 551 _c
437 545 463 537 488 526 _c
_cl}_e}_d
/e{{615 0 55 -13 562 560 _sc
562 296 _m
562 252 _l
149 252 _l
153 190 171 142 205 110 _c
238 78 284 62 344 62 _c
378 62 412 66 444 74 _c
476 82 509 95 541 113 _c
541 28 _l
509 14 476 3 442 -3 _c
408 -9 373 -13 339 -13 _c
251 -13 182 12 131 62 _c
80 112 55 181 55 268 _c
55 357 79 428 127 481 _c
175 533 241 560 323 560 _c
397 560 455 536 498 489 _c
}_e{540 441 562 377 562 296 _c
472 322 _m
471 371 457 410 431 440 _c
404 469 368 484 324 484 _c
274 484 234 469 204 441 _c
174 413 156 373 152 322 _c
472 322 _l
_cl}_e}_d
/i{278 0 94 0 184 760 _sc
94 547 _m
184 547 _l
184 0 _l
94 0 _l
94 547 _l
94 760 _m
184 760 _l
184 646 _l
94 646 _l
94 760 _l
_cl}_d
/m{{974 0 91 0 889 560 _sc
520 442 _m
542 482 569 511 600 531 _c
631 550 668 560 711 560 _c
767 560 811 540 842 500 _c
873 460 889 403 889 330 _c
889 0 _l
799 0 _l
799 327 _l
799 379 789 418 771 444 _c
752 469 724 482 686 482 _c
639 482 602 466 575 435 _c
548 404 535 362 535 309 _c
535 0 _l
445 0 _l
445 327 _l
445 379 435 418 417 444 _c
398 469 369 482 331 482 _c
}_e{285 482 248 466 221 435 _c
194 404 181 362 181 309 _c
181 0 _l
91 0 _l
91 547 _l
181 547 _l
181 462 _l
201 495 226 520 255 536 _c
283 552 317 560 357 560 _c
397 560 430 550 458 530 _c
486 510 506 480 520 442 _c
_cl}_e}_d
/s{{521 0 54 -13 472 560 _sc
443 531 _m
443 446 _l
417 458 391 468 364 475 _c
336 481 308 485 279 485 _c
234 485 200 478 178 464 _c
156 450 145 430 145 403 _c
145 382 153 366 169 354 _c
185 342 217 330 265 320 _c
296 313 _l
360 299 405 279 432 255 _c
458 230 472 195 472 151 _c
472 100 452 60 412 31 _c
372 1 316 -13 246 -13 _c
216 -13 186 -10 154 -5 _c
}_e{122 0 89 8 54 20 _c
54 113 _l
87 95 120 82 152 74 _c
184 65 216 61 248 61 _c
290 61 323 68 346 82 _c
368 96 380 117 380 144 _c
380 168 371 187 355 200 _c
339 213 303 226 247 238 _c
216 245 _l
160 257 119 275 95 299 _c
70 323 58 356 58 399 _c
58 450 76 490 112 518 _c
148 546 200 560 268 560 _c
301 560 332 557 362 552 _c
391 547 418 540 443 531 _c
}_e{_cl}_e}_d
/minus{838 0 106 272 732 355 _sc
106 355 _m
732 355 _l
732 272 _l
106 272 _l
106 355 _l
_cl}_d
end readonly def

/BuildGlyph
 {exch begin
 CharStrings exch
 2 copy known not{pop /.notdef}if
 true 3 1 roll get exec
 end}_d

/BuildChar {
 1 index /Encoding get exch get
 1 index /BuildGlyph get exec
}_d

FontName currentdict end definefont pop
end
%%EndProlog
mpldict begin
95.693 234.994 translate
420.614 322.012 0 0 clipbox
gsave
0 0 m
420.61375 0 l
420.61375 322.012 l
0 322.012 l
cl
1.000 setgray
fill
grestore
gsave
56.29375 48.7 m
413.41375 48.7 l
413.41375 314.812 l
56.29375 314.812 l
cl
1.000 setgray
fill
grestore
0.100 setlinewidth
1 setlinejoin
2 setlinecap
[] 0 setdash
0.000 setgray
gsave
357.1 266.1 56.29 48.7 clipbox
69.247138 48.7 m
69.247138 314.812 l
stroke
grestore
0 setlinecap
gsave
/o {
gsave
newpath
translate
0.1 setlinewidth
1 setlinejoin
0 setlinecap
0 0 m
0 -4 l

gsave
0.000 setgray
fill
grestore
stroke
grestore
} bind def
69.2471 48.7 o
grestore
/DejaVuSans findfont
15.000 scalefont
setfont
gsave
64.473701 29.809375 translate
0.000000 rotate
0.000000 0 m /zero glyphshow
grestore
2 setlinecap
gsave
357.1 266.1 56.29 48.7 clipbox
134.833915 48.7 m
134.833915 314.812 l
stroke
grestore
0 setlinecap
gsave
/o {
gsave
newpath
translate
0.1 setlinewidth
1 setlinejoin
0 setlinecap
0 0 m
0 -4 l

gsave
0.000 setgray
fill
grestore
stroke
grestore
} bind def
134.834 48.7 o
grestore
gsave
125.287040 29.809375 translate
0.000000 rotate
0.000000 0 m /two glyphshow
9.543457 0 m /zero glyphshow
grestore
2 setlinecap
gsave
357.1 266.1 56.29 48.7 clipbox
200.420692 48.7 m
200.420692 314.812 l
stroke
grestore
0 setlinecap
gsave
/o {
gsave
newpath
translate
0.1 setlinewidth
1 setlinejoin
0 setlinecap
0 0 m
0 -4 l

gsave
0.000 setgray
fill
grestore
stroke
grestore
} bind def
200.421 48.7 o
grestore
gsave
190.873817 29.809375 translate
0.000000 rotate
0.000000 0 m /four glyphshow
9.543457 0 m /zero glyphshow
grestore
2 setlinecap
gsave
357.1 266.1 56.29 48.7 clipbox
266.007469 48.7 m
266.007469 314.812 l
stroke
grestore
0 setlinecap
gsave
/o {
gsave
newpath
translate
0.1 setlinewidth
1 setlinejoin
0 setlinecap
0 0 m
0 -4 l

gsave
0.000 setgray
fill
grestore
stroke
grestore
} bind def
266.007 48.7 o
grestore
gsave
256.460594 29.809375 translate
0.000000 rotate
0.000000 0 m /six glyphshow
9.543457 0 m /zero glyphshow
grestore
2 setlinecap
gsave
357.1 266.1 56.29 48.7 clipbox
331.594246 48.7 m
331.594246 314.812 l
stroke
grestore
0 setlinecap
gsave
/o {
gsave
newpath
translate
0.1 setlinewidth
1 setlinejoin
0 setlinecap
0 0 m
0 -4 l

gsave
0.000 setgray
fill
grestore
stroke
grestore
} bind def
331.594 48.7 o
grestore
gsave
322.047371 29.809375 translate
0.000000 rotate
0.000000 0 m /eight glyphshow
9.543457 0 m /zero glyphshow
grestore
2 setlinecap
gsave
357.1 266.1 56.29 48.7 clipbox
397.181023 48.7 m
397.181023 314.812 l
stroke
grestore
0 setlinecap
gsave
/o {
gsave
newpath
translate
0.1 setlinewidth
1 setlinejoin
0 setlinecap
0 0 m
0 -4 l

gsave
0.000 setgray
fill
grestore
stroke
grestore
} bind def
397.181 48.7 o
grestore
gsave
382.860710 29.809375 translate
0.000000 rotate
0.000000 0 m /one glyphshow
9.543457 0 m /zero glyphshow
19.086914 0 m /zero glyphshow
grestore
/DejaVuSans findfont
16.000 scalefont
setfont
gsave
192.978750 10.528125 translate
0.000000 rotate
0.000000 0 m /T glyphshow
9.273438 0 m /i glyphshow
13.718750 0 m /m glyphshow
29.304688 0 m /e glyphshow
39.148438 0 m /space glyphshow
44.234375 0 m /parenleft glyphshow
50.476562 0 m /s glyphshow
58.812500 0 m /e glyphshow
68.656250 0 m /c glyphshow
77.453125 0 m /parenright glyphshow
grestore
2 setlinecap
gsave
357.1 266.1 56.29 48.7 clipbox
56.29375 62.393643 m
413.41375 62.393643 l
stroke
grestore
0 setlinecap
gsave
/o {
gsave
newpath
translate
0.1 setlinewidth
1 setlinejoin
0 setlinecap
-0 0 m
-4 0 l

gsave
0.000 setgray
fill
grestore
stroke
grestore
} bind def
56.2938 62.3936 o
grestore
/DejaVuSans findfont
15.000 scalefont
setfont
gsave
26.684375 56.698330 translate
0.000000 rotate
0.000000 0 m /minus glyphshow
12.568359 0 m /six glyphshow
grestore
2 setlinecap
gsave
357.1 266.1 56.29 48.7 clipbox
56.29375 99.422449 m
413.41375 99.422449 l
stroke
grestore
0 setlinecap
gsave
/o {
gsave
newpath
translate
0.1 setlinewidth
1 setlinejoin
0 setlinecap
-0 0 m
-4 0 l

gsave
0.000 setgray
fill
grestore
stroke
grestore
} bind def
56.2938 99.4224 o
grestore
gsave
26.684375 93.727137 translate
0.000000 rotate
0.000000 0 m /minus glyphshow
12.568359 0 m /four glyphshow
grestore
2 setlinecap
gsave
357.1 266.1 56.29 48.7 clipbox
56.29375 136.451255 m
413.41375 136.451255 l
stroke
grestore
0 setlinecap
gsave
/o {
gsave
newpath
translate
0.1 setlinewidth
1 setlinejoin
0 setlinecap
-0 0 m
-4 0 l

gsave
0.000 setgray
fill
grestore
stroke
grestore
} bind def
56.2938 136.451 o
grestore
gsave
26.684375 130.755943 translate
0.000000 rotate
0.000000 0 m /minus glyphshow
12.568359 0 m /two glyphshow
grestore
2 setlinecap
gsave
357.1 266.1 56.29 48.7 clipbox
56.29375 173.480062 m
413.41375 173.480062 l
stroke
grestore
0 setlinecap
gsave
/o {
gsave
newpath
translate
0.1 setlinewidth
1 setlinejoin
0 setlinecap
-0 0 m
-4 0 l

gsave
0.000 setgray
fill
grestore
stroke
grestore
} bind def
56.2938 173.48 o
grestore
gsave
39.246875 167.784749 translate
0.000000 rotate
0.000000 0 m /zero glyphshow
grestore
2 setlinecap
gsave
357.1 266.1 56.29 48.7 clipbox
56.29375 210.508868 m
413.41375 210.508868 l
stroke
grestore
0 setlinecap
gsave
/o {
gsave
newpath
translate
0.1 setlinewidth
1 setlinejoin
0 setlinecap
-0 0 m
-4 0 l

gsave
0.000 setgray
fill
grestore
stroke
grestore
} bind def
56.2938 210.509 o
grestore
gsave
39.246875 204.813556 translate
0.000000 rotate
0.000000 0 m /two glyphshow
grestore
2 setlinecap
gsave
357.1 266.1 56.29 48.7 clipbox
56.29375 247.537675 m
413.41375 247.537675 l
stroke
grestore
0 setlinecap
gsave
/o {
gsave
newpath
translate
0.1 setlinewidth
1 setlinejoin
0 setlinecap
-0 0 m
-4 0 l

gsave
0.000 setgray
fill
grestore
stroke
grestore
} bind def
56.2938 247.538 o
grestore
gsave
39.246875 241.842362 translate
0.000000 rotate
0.000000 0 m /four glyphshow
grestore
2 setlinecap
gsave
357.1 266.1 56.29 48.7 clipbox
56.29375 284.566481 m
413.41375 284.566481 l
stroke
grestore
0 setlinecap
gsave
/o {
gsave
newpath
translate
0.1 setlinewidth
1 setlinejoin
0 setlinecap
-0 0 m
-4 0 l

gsave
0.000 setgray
fill
grestore
stroke
grestore
} bind def
56.2938 284.566 o
grestore
gsave
39.246875 278.871168 translate
0.000000 rotate
0.000000 0 m /six glyphshow
grestore
/DejaVuSans findfont
16.000 scalefont
setfont
gsave
19.356250 144.810688 translate
90.000000 rotate
0.000000 0 m /R glyphshow
9.992188 0 m /T glyphshow
19.515625 0 m /T glyphshow
29.289062 0 m /space glyphshow
34.375000 0 m /parenleft glyphshow
40.617188 0 m /s glyphshow
48.953125 0 m /e glyphshow
58.796875 0 m /c glyphshow
67.593750 0 m /parenright glyphshow
grestore
1.500 setlinewidth
0.000 0.000 1.000 setrgbcolor
gsave
357.1 266.1 56.29 48.7 clipbox
72.526477 181.515016 m
72.526477 200.001447 l
stroke
grestore
gsave
357.1 266.1 56.29 48.7 clipbox
75.805816 166.287801 m
75.805816 188.33517 l
stroke
grestore
gsave
357.1 266.1 56.29 48.7 clipbox
79.085155 167.293853 m
79.085155 187.774521 l
stroke
grestore
gsave
357.1 266.1 56.29 48.7 clipbox
82.364494 162.296186 m
82.364494 191.64757 l
stroke
grestore
gsave
357.1 266.1 56.29 48.7 clipbox
85.643833 167.34217 m
85.643833 188.096492 l
stroke
grestore
gsave
357.1 266.1 56.29 48.7 clipbox
88.923171 161.526302 m
88.923171 193.812912 l
stroke
grestore
gsave
357.1 266.1 56.29 48.7 clipbox
92.20251 171.013657 m
92.20251 183.778588 l
stroke
grestore
gsave
357.1 266.1 56.29 48.7 clipbox
95.481849 164.268201 m
95.481849 190.701782 l
stroke
grestore
gsave
357.1 266.1 56.29 48.7 clipbox
98.761188 168.375381 m
98.761188 186.239125 l
stroke
grestore
gsave
357.1 266.1 56.29 48.7 clipbox
102.040527 123.467002 m
102.040527 234.137316 l
stroke
grestore
gsave
357.1 266.1 56.29 48.7 clipbox
105.319866 165.332255 m
105.319866 189.537222 l
stroke
grestore
gsave
357.1 266.1 56.29 48.7 clipbox
108.599205 162.44305 m
108.599205 192.314282 l
stroke
grestore
gsave
357.1 266.1 56.29 48.7 clipbox
111.878543 166.174682 m
111.878543 188.350956 l
stroke
grestore
gsave
357.1 266.1 56.29 48.7 clipbox
115.157882 165.007575 m
115.157882 189.312817 l
stroke
grestore
gsave
357.1 266.1 56.29 48.7 clipbox
118.437221 163.817753 m
118.437221 191.099332 l
stroke
grestore
gsave
357.1 266.1 56.29 48.7 clipbox
121.71656 164.768093 m
121.71656 189.70253 l
stroke
grestore
gsave
357.1 266.1 56.29 48.7 clipbox
124.995899 165.761585 m
124.995899 189.326891 l
stroke
grestore
gsave
357.1 266.1 56.29 48.7 clipbox
128.275238 166.083547 m
128.275238 188.543655 l
stroke
grestore
gsave
357.1 266.1 56.29 48.7 clipbox
131.554576 162.405213 m
131.554576 192.489655 l
stroke
grestore
gsave
357.1 266.1 56.29 48.7 clipbox
134.833915 167.456303 m
134.833915 186.029354 l
stroke
grestore
gsave
357.1 266.1 56.29 48.7 clipbox
138.113254 169.529431 m
138.113254 184.745468 l
stroke
grestore
gsave
357.1 266.1 56.29 48.7 clipbox
141.392593 167.061637 m
141.392593 187.780332 l
stroke
grestore
gsave
357.1 266.1 56.29 48.7 clipbox
144.671932 169.198788 m
144.671932 185.168155 l
stroke
grestore
gsave
357.1 266.1 56.29 48.7 clipbox
147.951271 166.926304 m
147.951271 187.939998 l
stroke
grestore
gsave
357.1 266.1 56.29 48.7 clipbox
151.23061 163.186917 m
151.23061 191.777777 l
stroke
grestore
gsave
357.1 266.1 56.29 48.7 clipbox
154.509948 166.569349 m
154.509948 187.501364 l
stroke
grestore
gsave
357.1 266.1 56.29 48.7 clipbox
157.789287 164.669394 m
157.789287 190.307995 l
stroke
grestore
gsave
357.1 266.1 56.29 48.7 clipbox
161.068626 160.585471 m
161.068626 194.493483 l
stroke
grestore
gsave
357.1 266.1 56.29 48.7 clipbox
164.347965 166.758828 m
164.347965 187.888476 l
stroke
grestore
gsave
357.1 266.1 56.29 48.7 clipbox
167.627304 166.163353 m
167.627304 188.117895 l
stroke
grestore
gsave
357.1 266.1 56.29 48.7 clipbox
170.906643 166.173042 m
170.906643 188.281712 l
stroke
grestore
gsave
357.1 266.1 56.29 48.7 clipbox
174.185981 165.281881 m
174.185981 189.459582 l
stroke
grestore
gsave
357.1 266.1 56.29 48.7 clipbox
177.46532 163.378473 m
177.46532 191.701538 l
stroke
grestore
gsave
357.1 266.1 56.29 48.7 clipbox
180.744659 165.988876 m
180.744659 187.933721 l
stroke
grestore
gsave
357.1 266.1 56.29 48.7 clipbox
184.023998 165.006289 m
184.023998 189.356422 l
stroke
grestore
gsave
357.1 266.1 56.29 48.7 clipbox
187.303337 165.801418 m
187.303337 187.951904 l
stroke
grestore
gsave
357.1 266.1 56.29 48.7 clipbox
190.582676 164.605824 m
190.582676 189.294555 l
stroke
grestore
gsave
357.1 266.1 56.29 48.7 clipbox
193.862014 164.022333 m
193.862014 190.227175 l
stroke
grestore
gsave
357.1 266.1 56.29 48.7 clipbox
197.141353 163.024507 m
197.141353 192.017418 l
stroke
grestore
gsave
357.1 266.1 56.29 48.7 clipbox
200.420692 166.717414 m
200.420692 188.099164 l
stroke
grestore
gsave
357.1 266.1 56.29 48.7 clipbox
203.700031 169.34518 m
203.700031 185.176226 l
stroke
grestore
gsave
357.1 266.1 56.29 48.7 clipbox
206.97937 162.832296 m
206.97937 192.576743 l
stroke
grestore
gsave
357.1 266.1 56.29 48.7 clipbox
210.258709 167.214554 m
210.258709 187.778705 l
stroke
grestore
gsave
357.1 266.1 56.29 48.7 clipbox
213.538048 159.259537 m
213.538048 196.237314 l
stroke
grestore
gsave
357.1 266.1 56.29 48.7 clipbox
216.817386 167.593211 m
216.817386 187.962886 l
stroke
grestore
gsave
357.1 266.1 56.29 48.7 clipbox
220.096725 165.20045 m
220.096725 190.094329 l
stroke
grestore
gsave
357.1 266.1 56.29 48.7 clipbox
223.376064 166.167038 m
223.376064 188.791308 l
stroke
grestore
gsave
357.1 266.1 56.29 48.7 clipbox
226.655403 166.944575 m
226.655403 187.694265 l
stroke
grestore
gsave
357.1 266.1 56.29 48.7 clipbox
229.934742 168.76725 m
229.934742 185.440998 l
stroke
grestore
gsave
357.1 266.1 56.29 48.7 clipbox
233.214081 168.065756 m
233.214081 186.511722 l
stroke
grestore
gsave
357.1 266.1 56.29 48.7 clipbox
236.493419 159.813535 m
236.493419 195.253782 l
stroke
grestore
gsave
357.1 266.1 56.29 48.7 clipbox
239.772758 166.046524 m
239.772758 188.654736 l
stroke
grestore
gsave
357.1 266.1 56.29 48.7 clipbox
243.052097 167.407176 m
243.052097 187.583967 l
stroke
grestore
gsave
357.1 266.1 56.29 48.7 clipbox
246.331436 158.399662 m
246.331436 196.355554 l
stroke
grestore
gsave
357.1 266.1 56.29 48.7 clipbox
249.610775 166.750585 m
249.610775 188.42147 l
stroke
grestore
gsave
357.1 266.1 56.29 48.7 clipbox
252.890114 164.926908 m
252.890114 189.410412 l
stroke
grestore
gsave
357.1 266.1 56.29 48.7 clipbox
256.169452 166.982719 m
256.169452 187.663527 l
stroke
grestore
gsave
357.1 266.1 56.29 48.7 clipbox
259.448791 163.376667 m
259.448791 191.708634 l
stroke
grestore
gsave
357.1 266.1 56.29 48.7 clipbox
262.72813 167.263999 m
262.72813 187.454189 l
stroke
grestore
gsave
357.1 266.1 56.29 48.7 clipbox
266.007469 167.095323 m
266.007469 187.875718 l
stroke
grestore
gsave
357.1 266.1 56.29 48.7 clipbox
269.286808 163.682568 m
269.286808 191.70108 l
stroke
grestore
gsave
357.1 266.1 56.29 48.7 clipbox
272.566147 167.580248 m
272.566147 187.124186 l
stroke
grestore
gsave
357.1 266.1 56.29 48.7 clipbox
275.845486 168.454042 m
275.845486 185.937234 l
stroke
grestore
gsave
357.1 266.1 56.29 48.7 clipbox
279.124824 169.531953 m
279.124824 185.242306 l
stroke
grestore
gsave
357.1 266.1 56.29 48.7 clipbox
282.404163 165.505492 m
282.404163 188.951378 l
stroke
grestore
gsave
357.1 266.1 56.29 48.7 clipbox
285.683502 166.73442 m
285.683502 187.956261 l
stroke
grestore
gsave
357.1 266.1 56.29 48.7 clipbox
288.962841 167.492841 m
288.962841 186.720697 l
stroke
grestore
gsave
357.1 266.1 56.29 48.7 clipbox
292.24218 60.796 m
292.24218 302.716 l
stroke
grestore
gsave
357.1 266.1 56.29 48.7 clipbox
295.521519 168.054734 m
295.521519 185.996935 l
stroke
grestore
gsave
357.1 266.1 56.29 48.7 clipbox
298.800857 166.969031 m
298.800857 187.702606 l
stroke
grestore
gsave
357.1 266.1 56.29 48.7 clipbox
302.080196 162.445242 m
302.080196 192.320554 l
stroke
grestore
gsave
357.1 266.1 56.29 48.7 clipbox
305.359535 167.956386 m
305.359535 186.092109 l
stroke
grestore
gsave
357.1 266.1 56.29 48.7 clipbox
308.638874 168.077811 m
308.638874 186.283842 l
stroke
grestore
gsave
357.1 266.1 56.29 48.7 clipbox
311.918213 166.879756 m
311.918213 187.905084 l
stroke
grestore
gsave
357.1 266.1 56.29 48.7 clipbox
315.197552 168.128932 m
315.197552 185.965056 l
stroke
grestore
gsave
357.1 266.1 56.29 48.7 clipbox
318.47689 166.496849 m
318.47689 187.821427 l
stroke
grestore
gsave
357.1 266.1 56.29 48.7 clipbox
321.756229 168.117884 m
321.756229 185.95177 l
stroke
grestore
gsave
357.1 266.1 56.29 48.7 clipbox
325.035568 169.122299 m
325.035568 185.115572 l
stroke
grestore
gsave
357.1 266.1 56.29 48.7 clipbox
328.314907 166.858891 m
328.314907 187.842369 l
stroke
grestore
gsave
357.1 266.1 56.29 48.7 clipbox
331.594246 164.391295 m
331.594246 189.392708 l
stroke
grestore
gsave
357.1 266.1 56.29 48.7 clipbox
334.873585 166.453579 m
334.873585 188.483608 l
stroke
grestore
gsave
357.1 266.1 56.29 48.7 clipbox
338.152924 165.071863 m
338.152924 189.827237 l
stroke
grestore
gsave
357.1 266.1 56.29 48.7 clipbox
341.432262 164.386262 m
341.432262 190.270564 l
stroke
grestore
gsave
357.1 266.1 56.29 48.7 clipbox
344.711601 167.787668 m
344.711601 186.203696 l
stroke
grestore
gsave
357.1 266.1 56.29 48.7 clipbox
347.99094 166.151013 m
347.99094 188.671913 l
stroke
grestore
gsave
357.1 266.1 56.29 48.7 clipbox
351.270279 166.322145 m
351.270279 187.967566 l
stroke
grestore
gsave
357.1 266.1 56.29 48.7 clipbox
354.549618 168.576313 m
354.549618 185.630876 l
stroke
grestore
gsave
357.1 266.1 56.29 48.7 clipbox
357.828957 163.917462 m
357.828957 190.256931 l
stroke
grestore
gsave
357.1 266.1 56.29 48.7 clipbox
361.108295 166.738984 m
361.108295 187.602568 l
stroke
grestore
gsave
357.1 266.1 56.29 48.7 clipbox
364.387634 166.026527 m
364.387634 187.863274 l
stroke
grestore
gsave
357.1 266.1 56.29 48.7 clipbox
367.666973 163.86033 m
367.666973 189.775558 l
stroke
grestore
gsave
357.1 266.1 56.29 48.7 clipbox
370.946312 164.981808 m
370.946312 189.27299 l
stroke
grestore
gsave
357.1 266.1 56.29 48.7 clipbox
374.225651 168.863981 m
374.225651 185.541048 l
stroke
grestore
gsave
357.1 266.1 56.29 48.7 clipbox
377.50499 165.930117 m
377.50499 187.769249 l
stroke
grestore
gsave
357.1 266.1 56.29 48.7 clipbox
380.784329 165.539123 m
380.784329 188.302011 l
stroke
grestore
gsave
357.1 266.1 56.29 48.7 clipbox
384.063667 166.474393 m
384.063667 187.425987 l
stroke
grestore
gsave
357.1 266.1 56.29 48.7 clipbox
387.343006 164.116676 m
387.343006 190.345484 l
stroke
grestore
gsave
357.1 266.1 56.29 48.7 clipbox
390.622345 167.504601 m
390.622345 187.005168 l
stroke
grestore
gsave
357.1 266.1 56.29 48.7 clipbox
393.901684 168.185395 m
393.901684 186.233388 l
stroke
grestore
gsave
357.1 266.1 56.29 48.7 clipbox
397.181023 166.912167 m
397.181023 187.655789 l
stroke
grestore
[5.55 2.4] 0 setdash
gsave
357.1 266.1 56.29 48.7 clipbox
72.526477 190.758232 m
75.805816 177.311485 l
79.085155 177.534187 l
82.364494 176.971878 l
85.643833 177.719331 l
88.923171 177.669607 l
92.20251 177.396123 l
95.481849 177.484992 l
98.761188 177.307253 l
102.040527 178.802159 l
105.319866 177.434738 l
108.599205 177.378666 l
111.878543 177.262819 l
115.157882 177.160196 l
118.437221 177.458543 l
121.71656 177.235312 l
124.995899 177.544238 l
128.275238 177.313601 l
131.554576 177.447434 l
134.833915 176.742829 l
138.113254 177.13745 l
141.392593 177.420985 l
144.671932 177.183471 l
147.951271 177.433151 l
151.23061 177.482347 l
154.509948 177.035356 l
157.789287 177.488695 l
161.068626 177.539477 l
164.347965 177.323652 l
167.627304 177.140624 l
170.906643 177.227377 l
174.185981 177.370731 l
177.46532 177.540006 l
180.744659 176.961299 l
184.023998 177.181355 l
187.303337 176.876661 l
190.582676 176.95019 l
193.862014 177.124754 l
197.141353 177.520963 l
200.420692 177.408289 l
203.700031 177.260703 l
206.97937 177.70452 l
210.258709 177.496629 l
213.538048 177.748425 l
216.817386 177.778048 l
220.096725 177.647389 l
223.376064 177.479173 l
226.655403 177.31942 l
229.934742 177.104124 l
233.214081 177.288739 l
236.493419 177.533658 l
239.772758 177.35063 l
243.052097 177.495571 l
246.331436 177.377608 l
249.610775 177.586027 l
252.890114 177.16866 l
256.169452 177.323123 l
259.448791 177.542651 l
262.72813 177.359094 l
266.007469 177.485521 l
269.286808 177.691824 l
272.566147 177.352217 l
275.845486 177.195638 l
279.124824 177.38713 l
282.404163 177.228435 l
285.683502 177.34534 l
288.962841 177.106769 l
292.24218 181.756 l
295.521519 177.025834 l
298.800857 177.335818 l
302.080196 177.382898 l
305.359535 177.024248 l
308.638874 177.180826 l
311.918213 177.39242 l
315.197552 177.046994 l
318.47689 177.159138 l
321.756229 177.034827 l
325.035568 177.118935 l
328.314907 177.35063 l
331.594246 176.892002 l
334.873585 177.468593 l
338.152924 177.44955 l
341.432262 177.328413 l
344.711601 176.995682 l
347.99094 177.411463 l
351.270279 177.144856 l
354.549618 177.103595 l
357.828957 177.087197 l
361.108295 177.170776 l
364.387634 176.9449 l
367.666973 176.817944 l
370.946312 177.127399 l
374.225651 177.202515 l
377.50499 176.849683 l
380.784329 176.920567 l
384.063667 176.95019 l
387.343006 177.23108 l
390.622345 177.254884 l
393.901684 177.209392 l
397.181023 177.283978 l
stroke
grestore
1.000 setlinewidth
0 setlinejoin
[] 0 setdash
gsave
357.1 266.1 56.29 48.7 clipbox
/o {
gsave
newpath
translate
1.0 setlinewidth
0 setlinejoin
0 setlinecap
-3 -3 m
3 -3 l
3 3 l
-3 3 l
cl

gsave
0.000 0.000 1.000 setrgbcolor
fill
grestore
stroke
grestore
} bind def
72.5265 190.758 o
75.8058 177.311 o
79.0852 177.534 o
82.3645 176.972 o
85.6438 177.719 o
88.9232 177.67 o
92.2025 177.396 o
95.4818 177.485 o
98.7612 177.307 o
102.041 178.802 o
105.32 177.435 o
108.599 177.379 o
111.879 177.263 o
115.158 177.16 o
118.437 177.459 o
121.717 177.235 o
124.996 177.544 o
128.275 177.314 o
131.555 177.447 o
134.834 176.743 o
138.113 177.137 o
141.393 177.421 o
144.672 177.183 o
147.951 177.433 o
151.231 177.482 o
154.51 177.035 o
157.789 177.489 o
161.069 177.539 o
164.348 177.324 o
167.627 177.141 o
170.907 177.227 o
174.186 177.371 o
177.465 177.54 o
180.745 176.961 o
184.024 177.181 o
187.303 176.877 o
190.583 176.95 o
193.862 177.125 o
197.141 177.521 o
200.421 177.408 o
203.7 177.261 o
206.979 177.705 o
210.259 177.497 o
213.538 177.748 o
216.817 177.778 o
220.097 177.647 o
223.376 177.479 o
226.655 177.319 o
229.935 177.104 o
233.214 177.289 o
236.493 177.534 o
239.773 177.351 o
243.052 177.496 o
246.331 177.378 o
249.611 177.586 o
252.89 177.169 o
256.169 177.323 o
259.449 177.543 o
262.728 177.359 o
266.007 177.486 o
269.287 177.692 o
272.566 177.352 o
275.845 177.196 o
279.125 177.387 o
282.404 177.228 o
285.684 177.345 o
288.963 177.107 o
292.242 181.756 o
295.522 177.026 o
298.801 177.336 o
302.08 177.383 o
305.36 177.024 o
308.639 177.181 o
311.918 177.392 o
315.198 177.047 o
318.477 177.159 o
321.756 177.035 o
325.036 177.119 o
328.315 177.351 o
331.594 176.892 o
334.874 177.469 o
338.153 177.45 o
341.432 177.328 o
344.712 176.996 o
347.991 177.411 o
351.27 177.145 o
354.55 177.104 o
357.829 177.087 o
361.108 177.171 o
364.388 176.945 o
367.667 176.818 o
370.946 177.127 o
374.226 177.203 o
377.505 176.85 o
380.784 176.921 o
384.064 176.95 o
387.343 177.231 o
390.622 177.255 o
393.902 177.209 o
397.181 177.284 o
grestore
0.800 setlinewidth
2 setlinecap
0.000 setgray
gsave
56.29375 48.7 m
56.29375 314.812 l
stroke
grestore
gsave
413.41375 48.7 m
413.41375 314.812 l
stroke
grestore
gsave
56.29375 48.7 m
413.41375 48.7 l
stroke
grestore
gsave
56.29375 314.812 m
413.41375 314.812 l
stroke
grestore

end
showpage
