-----------------------------------------------------------
Server listening on 5565
-----------------------------------------------------------
Accepted connection from 10.0.0.1, port 53466
[  6] local 10.0.0.5 port 5565 connected to 10.0.0.1 port 55803
[ ID] Interval           Transfer     Bandwidth       Total Datagrams
[  6]   0.00-1.00   sec  28.3 MBytes   238 Mbits/sec  21231  
[  6]   1.00-2.00   sec  31.9 MBytes   267 Mbits/sec  23873  
[  6]   2.00-3.00   sec  31.9 MBytes   267 Mbits/sec  23858  
[  6]   3.00-4.00   sec  30.5 MBytes   256 Mbits/sec  22856  
[  6]   4.00-5.00   sec  29.7 MBytes   249 Mbits/sec  22239  
[  6]   5.00-6.00   sec  23.2 MBytes   194 Mbits/sec  17378  
[  6]   6.00-7.00   sec  17.5 MBytes   148 Mbits/sec  13132  
[  6]   7.00-8.00   sec  28.6 MBytes   240 Mbits/sec  21458  
[  6]   8.00-9.00   sec  28.6 MBytes   240 Mbits/sec  21422  
[  6]   9.00-10.00  sec  31.0 MBytes   260 Mbits/sec  23255  
[  6]  10.00-11.00  sec  30.2 MBytes   254 Mbits/sec  22625  
[  6]  11.00-12.00  sec  32.2 MBytes   270 Mbits/sec  24131  
[  6]  12.00-13.00  sec  32.7 MBytes   274 Mbits/sec  24478  
[  6]  13.00-14.00  sec  31.3 MBytes   262 Mbits/sec  23430  
[  6]  14.00-15.00  sec  33.0 MBytes   276 Mbits/sec  24693  
[  6]  15.00-16.00  sec  32.3 MBytes   272 Mbits/sec  24209  
[  6]  16.00-17.00  sec  31.6 MBytes   265 Mbits/sec  23661  
[  6]  17.00-18.00  sec  32.6 MBytes   274 Mbits/sec  24424  
[  6]  18.00-19.00  sec  32.6 MBytes   274 Mbits/sec  24436  
[  6]  19.00-20.00  sec  32.8 MBytes   274 Mbits/sec  24551  
[  6]  20.00-21.00  sec  32.3 MBytes   271 Mbits/sec  24158  
[  6]  21.00-22.00  sec  32.6 MBytes   273 Mbits/sec  24381  
[  6]  22.00-23.00  sec  32.0 MBytes   268 Mbits/sec  23937  
[  6]  23.00-24.00  sec  28.7 MBytes   241 Mbits/sec  21493  
[  6]  24.00-25.00  sec  22.2 MBytes   186 Mbits/sec  16636  
[  6]  25.00-26.00  sec  27.3 MBytes   230 Mbits/sec  20439  
[  6]  26.00-27.00  sec  31.4 MBytes   263 Mbits/sec  23523  
[  6]  27.00-28.00  sec  32.6 MBytes   273 Mbits/sec  24390  
[  6]  28.00-29.00  sec  31.8 MBytes   267 Mbits/sec  23795  
[  6]  29.00-30.00  sec  31.7 MBytes   265 Mbits/sec  23711  
[  6]  30.00-31.00  sec  30.8 MBytes   259 Mbits/sec  23039  
[  6]  31.00-31.64  sec  20.5 MBytes   268 Mbits/sec  15371  
- - - - - - - - - - - - - - - - - - - - - - - - -
[ ID] Interval           Transfer     Bandwidth       Jitter    Lost/Total Datagrams
[  6]   0.00-31.64  sec   956 MBytes   254 Mbits/sec  0.000 ms  0/716213 (0%)  
-----------------------------------------------------------
Server listening on 5565
-----------------------------------------------------------
Accepted connection from 10.0.0.1, port 53468
[  6] local 10.0.0.5 port 5565 connected to 10.0.0.1 port 40226
[ ID] Interval           Transfer     Bandwidth       Total Datagrams
[  6]   0.00-1.00   sec  25.7 MBytes   215 Mbits/sec  19212  
[  6]   1.00-2.00   sec  30.3 MBytes   254 Mbits/sec  22710  
[  6]   2.00-3.00   sec  30.1 MBytes   252 Mbits/sec  22543  
[  6]   3.00-4.00   sec  30.3 MBytes   254 Mbits/sec  22703  
[  6]   4.00-5.00   sec  31.0 MBytes   260 Mbits/sec  23218  
[  6]   5.00-6.00   sec  30.8 MBytes   258 Mbits/sec  23074  
[  6]   6.00-7.00   sec  30.9 MBytes   260 Mbits/sec  23170  
[  6]   7.00-8.00   sec  29.6 MBytes   248 Mbits/sec  22159  
[  6]   8.00-9.00   sec  31.1 MBytes   261 Mbits/sec  23323  
[  6]   9.00-10.00  sec  30.6 MBytes   256 Mbits/sec  22884  
[  6]  10.00-11.00  sec  31.2 MBytes   262 Mbits/sec  23349  
[  6]  11.00-12.00  sec  31.0 MBytes   260 Mbits/sec  23236  
[  6]  12.00-13.00  sec  31.1 MBytes   261 Mbits/sec  23259  
[  6]  13.00-14.00  sec  32.0 MBytes   268 Mbits/sec  23943  
[  6]  14.00-15.00  sec  31.4 MBytes   264 Mbits/sec  23540  
[  6]  15.00-16.00  sec  31.3 MBytes   262 Mbits/sec  23437  
[  6]  16.00-17.00  sec  32.2 MBytes   270 Mbits/sec  24125  
[  6]  17.00-18.00  sec  31.7 MBytes   266 Mbits/sec  23738  
[  6]  18.00-19.00  sec  32.1 MBytes   270 Mbits/sec  24070  
[  6]  19.00-20.00  sec  30.3 MBytes   254 Mbits/sec  22663  
[  6]  20.00-21.00  sec  31.5 MBytes   264 Mbits/sec  23563  
[  6]  21.00-22.00  sec  32.7 MBytes   274 Mbits/sec  24488  
[  6]  22.00-23.00  sec  32.2 MBytes   270 Mbits/sec  24136  
[  6]  23.00-24.00  sec  33.1 MBytes   277 Mbits/sec  24758  
[  6]  24.00-25.00  sec  32.4 MBytes   272 Mbits/sec  24275  
[  6]  25.00-26.00  sec  32.6 MBytes   273 Mbits/sec  24414  
[  6]  26.00-27.00  sec  32.9 MBytes   276 Mbits/sec  24668  
[  6]  27.00-28.00  sec  21.7 MBytes   182 Mbits/sec  16288  
[  6]  28.00-29.00  sec  16.3 MBytes   137 Mbits/sec  12210  
[  6]  29.00-30.00  sec  22.9 MBytes   192 Mbits/sec  17139  
[  6]  30.00-31.00  sec  32.9 MBytes   276 Mbits/sec  24625  
[  6]  31.00-31.62  sec  20.2 MBytes   276 Mbits/sec  15146  
- - - - - - - - - - - - - - - - - - - - - - - - -
[ ID] Interval           Transfer     Bandwidth       Jitter    Lost/Total Datagrams
[  6]   0.00-31.62  sec   956 MBytes   254 Mbits/sec  0.000 ms  0/716066 (0%)  
-----------------------------------------------------------
Server listening on 5565
-----------------------------------------------------------
Accepted connection from 10.0.0.1, port 53472
[  6] local 10.0.0.5 port 5565 connected to 10.0.0.1 port 39233
[ ID] Interval           Transfer     Bandwidth       Total Datagrams
[  6]   0.00-1.01   sec  29.5 MBytes   246 Mbits/sec  22082  
[  6]   1.01-2.00   sec  32.0 MBytes   270 Mbits/sec  23989  
[  6]   2.00-3.00   sec  32.8 MBytes   275 Mbits/sec  24551  
[  6]   3.00-4.00   sec  32.9 MBytes   276 Mbits/sec  24645  
[  6]   4.00-5.00   sec  32.6 MBytes   274 Mbits/sec  24454  
[  6]   5.00-6.00   sec  30.4 MBytes   255 Mbits/sec  22769  
[  6]   6.00-7.00   sec  31.7 MBytes   266 Mbits/sec  23751  
[  6]   7.00-8.00   sec  31.7 MBytes   266 Mbits/sec  23757  
[  6]   8.00-9.00   sec  32.0 MBytes   268 Mbits/sec  23971  
[  6]   9.00-10.00  sec  32.4 MBytes   272 Mbits/sec  24262  
[  6]  10.00-11.00  sec  32.7 MBytes   274 Mbits/sec  24471  
[  6]  11.00-12.00  sec  32.8 MBytes   275 Mbits/sec  24553  
[  6]  12.00-13.00  sec  33.3 MBytes   280 Mbits/sec  24966  
[  6]  13.00-14.00  sec  32.6 MBytes   274 Mbits/sec  24449  
[  6]  14.00-15.00  sec  32.9 MBytes   276 Mbits/sec  24656  
[  6]  15.00-16.00  sec  33.3 MBytes   280 Mbits/sec  24978  
[  6]  16.00-17.00  sec  33.4 MBytes   280 Mbits/sec  25040  
[  6]  17.00-18.00  sec  32.0 MBytes   269 Mbits/sec  24002  
[  6]  18.00-19.00  sec  30.3 MBytes   254 Mbits/sec  22685  
[  6]  19.00-20.00  sec  29.9 MBytes   251 Mbits/sec  22401  
[  6]  20.00-21.00  sec  30.0 MBytes   251 Mbits/sec  22447  
[  6]  21.00-22.00  sec  30.1 MBytes   253 Mbits/sec  22575  
[  6]  22.00-23.00  sec  31.4 MBytes   264 Mbits/sec  23553  
[  6]  23.00-24.00  sec  33.0 MBytes   277 Mbits/sec  24706  
[  6]  24.00-25.00  sec  32.7 MBytes   274 Mbits/sec  24480  
[  6]  25.00-26.00  sec  33.4 MBytes   280 Mbits/sec  25000  
[  6]  26.00-27.00  sec  32.9 MBytes   276 Mbits/sec  24633  
[  6]  27.00-28.00  sec  30.8 MBytes   259 Mbits/sec  23083  
[  6]  28.00-29.00  sec  32.7 MBytes   274 Mbits/sec  24479  
[  6]  29.00-29.85  sec  27.4 MBytes   272 Mbits/sec  20540  
- - - - - - - - - - - - - - - - - - - - - - - - -
[ ID] Interval           Transfer     Bandwidth       Jitter    Lost/Total Datagrams
[  6]   0.00-29.85  sec   956 MBytes   269 Mbits/sec  0.000 ms  0/715928 (0%)  
-----------------------------------------------------------
Server listening on 5565
-----------------------------------------------------------
Accepted connection from 10.0.0.1, port 53474
[  6] local 10.0.0.5 port 5565 connected to 10.0.0.1 port 53297
[ ID] Interval           Transfer     Bandwidth       Total Datagrams
[  6]   0.00-1.00   sec  19.1 MBytes   160 Mbits/sec  14314  
[  6]   1.00-2.00   sec  30.5 MBytes   256 Mbits/sec  22810  
[  6]   2.00-3.00   sec  28.2 MBytes   236 Mbits/sec  21104  
[  6]   3.00-4.00   sec  31.5 MBytes   264 Mbits/sec  23597  
[  6]   4.00-5.00   sec  31.0 MBytes   260 Mbits/sec  23219  
[  6]   5.00-6.00   sec  28.6 MBytes   240 Mbits/sec  21392  
[  6]   6.00-7.00   sec  30.5 MBytes   256 Mbits/sec  22854  
[  6]   7.00-8.00   sec  29.3 MBytes   245 Mbits/sec  21913  
[  6]   8.00-9.00   sec  28.8 MBytes   242 Mbits/sec  21602  
[  6]   9.00-10.00  sec  29.0 MBytes   243 Mbits/sec  21726  
[  6]  10.00-11.00  sec  29.6 MBytes   249 Mbits/sec  22198  
[  6]  11.00-12.00  sec  29.9 MBytes   251 Mbits/sec  22391  
[  6]  12.00-13.00  sec  29.7 MBytes   249 Mbits/sec  22215  
[  6]  13.00-14.00  sec  29.6 MBytes   249 Mbits/sec  22202  
[  6]  14.00-15.00  sec  27.5 MBytes   231 Mbits/sec  20606  
[  6]  15.00-16.00  sec  29.2 MBytes   245 Mbits/sec  21860  
[  6]  16.00-17.00  sec  30.2 MBytes   254 Mbits/sec  22652  
[  6]  17.00-18.00  sec  24.3 MBytes   203 Mbits/sec  18167  
[  6]  18.00-19.00  sec  23.7 MBytes   199 Mbits/sec  17750  
[  6]  19.00-20.00  sec  24.2 MBytes   203 Mbits/sec  18144  
[  6]  20.00-21.00  sec  29.6 MBytes   248 Mbits/sec  22183  
[  6]  21.00-22.00  sec  30.2 MBytes   252 Mbits/sec  22599  
[  6]  22.00-23.00  sec  31.1 MBytes   262 Mbits/sec  23326  
[  6]  23.00-24.00  sec  29.0 MBytes   243 Mbits/sec  21727  
[  6]  24.00-25.00  sec  31.6 MBytes   265 Mbits/sec  23665  
[  6]  25.00-26.00  sec  31.8 MBytes   267 Mbits/sec  23843  
[  6]  26.00-27.00  sec  30.9 MBytes   259 Mbits/sec  23131  
[  6]  27.00-28.00  sec  30.6 MBytes   256 Mbits/sec  22900  
[  6]  28.00-29.00  sec  31.3 MBytes   262 Mbits/sec  23414  
[  6]  29.00-30.00  sec  31.1 MBytes   261 Mbits/sec  23305  
[  6]  30.00-31.00  sec  32.1 MBytes   269 Mbits/sec  24043  
[  6]  31.00-32.00  sec  31.8 MBytes   267 Mbits/sec  23852  
[  6]  32.00-32.64  sec  19.9 MBytes   259 Mbits/sec  14889  
- - - - - - - - - - - - - - - - - - - - - - - - -
[ ID] Interval           Transfer     Bandwidth       Jitter    Lost/Total Datagrams
[  6]   0.00-32.64  sec   955 MBytes   246 Mbits/sec  0.000 ms  0/715593 (0%)  
-----------------------------------------------------------
Server listening on 5565
-----------------------------------------------------------
Accepted connection from 10.0.0.1, port 53478
[  6] local 10.0.0.5 port 5565 connected to 10.0.0.1 port 49965
[ ID] Interval           Transfer     Bandwidth       Total Datagrams
[  6]   0.00-1.00   sec  18.5 MBytes   155 Mbits/sec  13832  
[  6]   1.00-2.00   sec  31.5 MBytes   265 Mbits/sec  23607  
[  6]   2.00-3.00   sec  29.9 MBytes   251 Mbits/sec  22372  
[  6]   3.00-4.00   sec  32.1 MBytes   269 Mbits/sec  24053  
[  6]   4.00-5.00   sec  28.7 MBytes   241 Mbits/sec  21478  
[  6]   5.00-6.00   sec  31.3 MBytes   263 Mbits/sec  23457  
[  6]   6.00-7.00   sec  31.4 MBytes   263 Mbits/sec  23494  
[  6]   7.00-8.00   sec  31.8 MBytes   266 Mbits/sec  23781  
[  6]   8.00-9.00   sec  31.4 MBytes   263 Mbits/sec  23527  
[  6]   9.00-10.00  sec  32.3 MBytes   271 Mbits/sec  24212  
[  6]  10.00-11.00  sec  31.8 MBytes   267 Mbits/sec  23800  
[  6]  11.00-12.00  sec  32.2 MBytes   270 Mbits/sec  24149  
[  6]  12.00-13.00  sec  30.4 MBytes   255 Mbits/sec  22783  
[  6]  13.00-14.00  sec  30.4 MBytes   255 Mbits/sec  22762  
[  6]  14.00-15.00  sec  30.8 MBytes   258 Mbits/sec  23045  
[  6]  15.00-16.00  sec  31.3 MBytes   262 Mbits/sec  23417  
[  6]  16.00-17.00  sec  31.9 MBytes   267 Mbits/sec  23862  
[  6]  17.00-18.00  sec  25.6 MBytes   215 Mbits/sec  19160  
[  6]  18.00-19.00  sec  32.6 MBytes   273 Mbits/sec  24411  
[  6]  19.00-20.00  sec  31.3 MBytes   263 Mbits/sec  23460  
[  6]  20.00-21.00  sec  31.5 MBytes   264 Mbits/sec  23595  
[  6]  21.00-22.00  sec  32.2 MBytes   270 Mbits/sec  24142  
[  6]  22.00-23.00  sec  32.8 MBytes   275 Mbits/sec  24532  
[  6]  23.00-24.00  sec  32.9 MBytes   276 Mbits/sec  24640  
[  6]  24.00-25.00  sec  33.6 MBytes   282 Mbits/sec  25162  
[  6]  25.00-26.00  sec  30.6 MBytes   256 Mbits/sec  22889  
[  6]  26.00-27.00  sec  32.0 MBytes   269 Mbits/sec  23978  
[  6]  27.00-28.00  sec  31.7 MBytes   266 Mbits/sec  23762  
[  6]  28.00-29.00  sec  23.6 MBytes   198 Mbits/sec  17668  
[  6]  29.00-30.00  sec  23.7 MBytes   199 Mbits/sec  17763  
[  6]  30.00-31.00  sec  30.9 MBytes   259 Mbits/sec  23165  
[  6]  31.00-31.36  sec  11.4 MBytes   265 Mbits/sec  8511  
- - - - - - - - - - - - - - - - - - - - - - - - -
[ ID] Interval           Transfer     Bandwidth       Jitter    Lost/Total Datagrams
[  6]   0.00-31.36  sec   954 MBytes   255 Mbits/sec  0.000 ms  0/714469 (0%)  
-----------------------------------------------------------
Server listening on 5565
-----------------------------------------------------------
Accepted connection from 10.0.0.1, port 53480
[  6] local 10.0.0.5 port 5565 connected to 10.0.0.1 port 41251
[ ID] Interval           Transfer     Bandwidth       Total Datagrams
[  6]   0.00-1.00   sec  23.4 MBytes   196 Mbits/sec  17521  
[  6]   1.00-2.00   sec  26.2 MBytes   220 Mbits/sec  19643  
[  6]   2.00-3.00   sec  26.3 MBytes   221 Mbits/sec  19731  
[  6]   3.00-4.00   sec  25.1 MBytes   210 Mbits/sec  18793  
[  6]   4.00-5.00   sec  27.7 MBytes   233 Mbits/sec  20762  
[  6]   5.00-6.00   sec  28.3 MBytes   238 Mbits/sec  21222  
[  6]   6.00-7.00   sec  27.6 MBytes   231 Mbits/sec  20663  
[  6]   7.00-8.00   sec  29.3 MBytes   245 Mbits/sec  21914  
[  6]   8.00-9.00   sec  23.8 MBytes   200 Mbits/sec  17857  
[  6]   9.00-10.00  sec  21.4 MBytes   179 Mbits/sec  16021  
[  6]  10.00-11.00  sec  23.5 MBytes   197 Mbits/sec  17585  
[  6]  11.00-12.00  sec  26.8 MBytes   225 Mbits/sec  20096  
[  6]  12.00-13.00  sec  26.1 MBytes   219 Mbits/sec  19550  
[  6]  13.00-14.00  sec  27.7 MBytes   232 Mbits/sec  20741  
[  6]  14.00-15.00  sec  26.1 MBytes   219 Mbits/sec  19550  
[  6]  15.00-16.00  sec  30.2 MBytes   254 Mbits/sec  22649  
[  6]  16.00-17.00  sec  30.3 MBytes   254 Mbits/sec  22681  
[  6]  17.00-18.00  sec  30.4 MBytes   255 Mbits/sec  22739  
[  6]  18.00-19.00  sec  29.3 MBytes   246 Mbits/sec  21940  
[  6]  19.00-20.00  sec  28.3 MBytes   237 Mbits/sec  21200  
[  6]  20.00-21.00  sec  25.8 MBytes   216 Mbits/sec  19319  
[  6]  21.00-22.00  sec  27.9 MBytes   234 Mbits/sec  20871  
[  6]  22.00-23.00  sec  27.4 MBytes   230 Mbits/sec  20506  
[  6]  23.00-24.00  sec  29.1 MBytes   244 Mbits/sec  21827  
[  6]  24.00-25.00  sec  29.4 MBytes   246 Mbits/sec  22001  
[  6]  25.00-26.00  sec  30.2 MBytes   253 Mbits/sec  22624  
[  6]  26.00-27.00  sec  28.5 MBytes   239 Mbits/sec  21342  
[  6]  27.00-28.00  sec  29.7 MBytes   249 Mbits/sec  22253  
[  6]  28.00-29.00  sec  29.4 MBytes   247 Mbits/sec  22055  
[  6]  29.00-30.00  sec  28.8 MBytes   241 Mbits/sec  21541  
[  6]  30.00-31.00  sec  28.4 MBytes   238 Mbits/sec  21284  
[  6]  31.00-32.00  sec  29.8 MBytes   250 Mbits/sec  22294  
[  6]  32.00-33.00  sec  27.3 MBytes   229 Mbits/sec  20453  
[  6]  33.00-34.00  sec  25.5 MBytes   214 Mbits/sec  19090  
[  6]  34.00-34.71  sec  19.1 MBytes   225 Mbits/sec  14302  
- - - - - - - - - - - - - - - - - - - - - - - - -
[ ID] Interval           Transfer     Bandwidth       Jitter    Lost/Total Datagrams
[  6]   0.00-34.71  sec   954 MBytes   231 Mbits/sec  0.000 ms  0/714620 (0%)  
-----------------------------------------------------------
Server listening on 5565
-----------------------------------------------------------
Accepted connection from 10.0.0.1, port 53484
[  6] local 10.0.0.5 port 5565 connected to 10.0.0.1 port 56761
[ ID] Interval           Transfer     Bandwidth       Total Datagrams
[  6]   0.00-1.00   sec  27.2 MBytes   228 Mbits/sec  20385  
[  6]   1.00-2.00   sec  30.1 MBytes   253 Mbits/sec  22558  
[  6]   2.00-3.00   sec  30.1 MBytes   253 Mbits/sec  22570  
[  6]   3.00-4.00   sec  30.4 MBytes   255 Mbits/sec  22779  
[  6]   4.00-5.00   sec  30.0 MBytes   252 Mbits/sec  22467  
[  6]   5.00-6.00   sec  29.8 MBytes   250 Mbits/sec  22334  
[  6]   6.00-7.00   sec  29.8 MBytes   250 Mbits/sec  22283  
[  6]   7.00-8.00   sec  29.7 MBytes   249 Mbits/sec  22256  
[  6]   8.00-9.00   sec  29.4 MBytes   246 Mbits/sec  21994  
[  6]   9.00-10.00  sec  29.6 MBytes   249 Mbits/sec  22206  
[  6]  10.00-11.00  sec  30.0 MBytes   252 Mbits/sec  22473  
[  6]  11.00-12.00  sec  31.2 MBytes   261 Mbits/sec  23345  
[  6]  12.00-13.00  sec  31.0 MBytes   260 Mbits/sec  23184  
[  6]  13.00-14.00  sec  31.1 MBytes   261 Mbits/sec  23291  
[  6]  14.00-15.00  sec  31.4 MBytes   263 Mbits/sec  23513  
[  6]  15.00-16.00  sec  31.8 MBytes   267 Mbits/sec  23819  
[  6]  16.00-17.00  sec  31.7 MBytes   266 Mbits/sec  23770  
[  6]  17.00-18.00  sec  31.9 MBytes   268 Mbits/sec  23902  
[  6]  18.00-19.00  sec  31.9 MBytes   268 Mbits/sec  23896  
[  6]  19.00-20.00  sec  31.8 MBytes   267 Mbits/sec  23850  
[  6]  20.00-21.00  sec  32.2 MBytes   270 Mbits/sec  24112  
[  6]  21.00-22.00  sec  31.4 MBytes   264 Mbits/sec  23529  
[  6]  22.00-23.00  sec  30.8 MBytes   259 Mbits/sec  23081  
[  6]  23.00-24.00  sec  27.1 MBytes   227 Mbits/sec  20286  
[  6]  24.00-25.00  sec  27.2 MBytes   228 Mbits/sec  20397  
[  6]  25.00-26.00  sec  31.5 MBytes   264 Mbits/sec  23575  
[  6]  26.00-27.00  sec  30.9 MBytes   259 Mbits/sec  23150  
[  6]  27.00-28.00  sec  31.3 MBytes   263 Mbits/sec  23479  
[  6]  28.00-29.00  sec  30.9 MBytes   259 Mbits/sec  23116  
[  6]  29.00-30.00  sec  30.7 MBytes   257 Mbits/sec  22981  
[  6]  30.00-31.00  sec  31.6 MBytes   265 Mbits/sec  23643  
[  6]  31.00-31.27  sec  8.49 MBytes   264 Mbits/sec  6359  
- - - - - - - - - - - - - - - - - - - - - - - - -
[ ID] Interval           Transfer     Bandwidth       Jitter    Lost/Total Datagrams
[  6]   0.00-31.27  sec   954 MBytes   256 Mbits/sec  0.000 ms  0/714583 (0%)  
-----------------------------------------------------------
Server listening on 5565
-----------------------------------------------------------
Accepted connection from 10.0.0.1, port 53500
[  6] local 10.0.0.5 port 5565 connected to 10.0.0.1 port 36196
[ ID] Interval           Transfer     Bandwidth       Total Datagrams
[  6]   0.00-1.00   sec  6.60 MBytes  55.3 Mbits/sec  4942  
[  6]   1.00-2.00   sec  9.34 MBytes  78.1 Mbits/sec  6993  
[  6]   2.00-3.00   sec  9.41 MBytes  79.2 Mbits/sec  7051  
[  6]   3.00-4.00   sec  10.1 MBytes  84.2 Mbits/sec  7535  
[  6]   4.00-5.00   sec  10.1 MBytes  84.8 Mbits/sec  7553  
[  6]   5.00-6.00   sec  11.2 MBytes  93.9 Mbits/sec  8386  
[  6]   6.00-7.00   sec  9.37 MBytes  78.3 Mbits/sec  7020  
[  6]   7.00-8.00   sec  10.2 MBytes  85.7 Mbits/sec  7627  
[  6]   8.00-9.00   sec  9.94 MBytes  83.3 Mbits/sec  7443  
[  6]   9.00-10.00  sec  9.81 MBytes  82.3 Mbits/sec  7346  
[  6]  10.00-11.00  sec  14.6 MBytes   122 Mbits/sec  10919  
[  6]  11.00-12.00  sec  25.9 MBytes   217 Mbits/sec  19412  
[  6]  12.00-13.00  sec  32.1 MBytes   269 Mbits/sec  24058  
[  6]  13.00-14.00  sec  29.0 MBytes   243 Mbits/sec  21688  
[  6]  14.00-15.00  sec  30.1 MBytes   253 Mbits/sec  22567  
[  6]  15.00-16.00  sec  31.2 MBytes   262 Mbits/sec  23394  
[  6]  16.00-17.00  sec  25.8 MBytes   216 Mbits/sec  19300  
[  6]  17.00-18.00  sec  24.3 MBytes   204 Mbits/sec  18206  
[  6]  18.00-19.00  sec  22.5 MBytes   189 Mbits/sec  16884  
[  6]  19.00-20.00  sec  19.3 MBytes   161 Mbits/sec  14426  
[  6]  20.00-21.00  sec  18.6 MBytes   157 Mbits/sec  13923  
[  6]  21.00-22.00  sec  22.5 MBytes   189 Mbits/sec  16832  
[  6]  22.00-23.00  sec  20.8 MBytes   175 Mbits/sec  15600  
[  6]  23.00-24.01  sec  18.9 MBytes   157 Mbits/sec  14178  
[  6]  24.01-25.02  sec  9.45 MBytes  78.6 Mbits/sec  7081  
[  6]  25.02-26.00  sec  10.3 MBytes  87.8 Mbits/sec  7700  
[  6]  26.00-27.01  sec  10.3 MBytes  85.3 Mbits/sec  7715  
[  6]  27.01-28.00  sec  9.93 MBytes  84.3 Mbits/sec  7440  
[  6]  28.00-29.00  sec  12.0 MBytes   101 Mbits/sec  9007  
[  6]  29.00-30.00  sec  9.83 MBytes  82.5 Mbits/sec  7366  
[  6]  30.00-31.00  sec  10.7 MBytes  89.6 Mbits/sec  8003  
[  6]  31.00-32.00  sec  10.3 MBytes  86.0 Mbits/sec  7678  
[  6]  32.00-33.00  sec  11.2 MBytes  94.2 Mbits/sec  8417  
[  6]  33.00-34.01  sec  10.2 MBytes  85.0 Mbits/sec  7674  
[  6]  34.01-35.00  sec  10.8 MBytes  91.9 Mbits/sec  8108  
[  6]  35.00-36.02  sec  10.3 MBytes  84.5 Mbits/sec  7687  
[  6]  36.02-37.00  sec  10.7 MBytes  91.8 Mbits/sec  8043  
[  6]  37.00-38.01  sec  10.8 MBytes  90.2 Mbits/sec  8120  
[  6]  38.01-39.52  sec  1.37 KBytes  7.41 Kbits/sec  1  
[  6]  39.52-40.00  sec  12.3 MBytes   216 Mbits/sec  9248  
[  6]  40.00-41.00  sec  29.7 MBytes   249 Mbits/sec  22252  
[  6]  41.00-42.00  sec  29.9 MBytes   251 Mbits/sec  22377  
[  6]  42.00-43.00  sec  29.8 MBytes   250 Mbits/sec  22299  
[  6]  43.00-44.00  sec  29.2 MBytes   245 Mbits/sec  21835  
[  6]  44.00-45.00  sec  30.0 MBytes   251 Mbits/sec  22438  
[  6]  45.00-46.00  sec  7.34 MBytes  61.6 Mbits/sec  5501  
[  6]  46.00-47.00  sec  30.4 MBytes   255 Mbits/sec  22749  
[  6]  47.00-48.00  sec  29.9 MBytes   251 Mbits/sec  22369  
[  6]  48.00-49.00  sec  30.8 MBytes   258 Mbits/sec  23039  
[  6]  49.00-50.00  sec  30.6 MBytes   257 Mbits/sec  22909  
[  6]  50.00-53.15  sec  1.37 KBytes  3.55 Kbits/sec  1  
[  6]  53.15-53.15  sec  0.00 Bytes  0.00 bits/sec  0  
[  6]  53.15-53.15  sec  0.00 Bytes  0.00 bits/sec  0  
[  6]  53.15-54.00  sec  15.9 MBytes   158 Mbits/sec  11908  
[  6]  54.00-55.00  sec  9.57 MBytes  80.3 Mbits/sec  7166  
[  6]  55.00-56.00  sec  14.7 MBytes   123 Mbits/sec  11000  
[  6]  56.00-57.00  sec  30.2 MBytes   254 Mbits/sec  22637  
[  6]  57.00-58.00  sec  31.2 MBytes   262 Mbits/sec  23381  
[  6]  58.00-58.42  sec  12.6 MBytes   250 Mbits/sec  9403  
- - - - - - - - - - - - - - - - - - - - - - - - -
[ ID] Interval           Transfer     Bandwidth       Jitter    Lost/Total Datagrams
[  6]   0.00-58.42  sec   982 MBytes   141 Mbits/sec  0.000 ms  0/735835 (0%)  
-----------------------------------------------------------
Server listening on 5565
-----------------------------------------------------------
Accepted connection from 10.0.0.1, port 53508
[  6] local 10.0.0.5 port 5565 connected to 10.0.0.1 port 45160
[ ID] Interval           Transfer     Bandwidth       Total Datagrams
[  6]   0.00-1.00   sec  28.4 MBytes   238 Mbits/sec  21268  
[  6]   1.00-2.00   sec  31.4 MBytes   264 Mbits/sec  23549  
[  6]   2.00-3.00   sec  31.1 MBytes   261 Mbits/sec  23282  
[  6]   3.00-4.00   sec  30.4 MBytes   255 Mbits/sec  22756  
[  6]   4.00-5.00   sec  31.4 MBytes   263 Mbits/sec  23498  
[  6]   5.00-6.00   sec  30.7 MBytes   257 Mbits/sec  22964  
[  6]   6.00-7.00   sec  30.5 MBytes   256 Mbits/sec  22875  
[  6]   7.00-8.00   sec  30.5 MBytes   255 Mbits/sec  22813  
[  6]   8.00-9.00   sec  30.5 MBytes   256 Mbits/sec  22825  
[  6]   9.00-10.00  sec  30.8 MBytes   258 Mbits/sec  23071  
[  6]  10.00-11.00  sec  31.2 MBytes   262 Mbits/sec  23366  
[  6]  11.00-12.00  sec  31.3 MBytes   262 Mbits/sec  23420  
[  6]  12.00-13.00  sec  31.4 MBytes   264 Mbits/sec  23545  
[  6]  13.00-14.00  sec  31.4 MBytes   263 Mbits/sec  23520  
[  6]  14.00-15.00  sec  31.4 MBytes   263 Mbits/sec  23519  
[  6]  15.00-16.00  sec  32.0 MBytes   269 Mbits/sec  24004  
[  6]  16.00-17.00  sec  32.2 MBytes   270 Mbits/sec  24125  
[  6]  17.00-18.00  sec  32.0 MBytes   268 Mbits/sec  23951  
[  6]  18.00-19.00  sec  32.0 MBytes   268 Mbits/sec  23950  
[  6]  19.00-20.00  sec  32.2 MBytes   270 Mbits/sec  24108  
[  6]  20.00-21.00  sec  32.3 MBytes   271 Mbits/sec  24175  
[  6]  21.00-22.00  sec  32.3 MBytes   271 Mbits/sec  24193  
[  6]  22.00-23.00  sec  31.0 MBytes   260 Mbits/sec  23207  
[  6]  23.00-24.00  sec  32.1 MBytes   269 Mbits/sec  24051  
[  6]  24.00-25.00  sec  32.2 MBytes   270 Mbits/sec  24132  
[  6]  25.00-26.00  sec  32.2 MBytes   270 Mbits/sec  24144  
[  6]  26.00-27.00  sec  31.7 MBytes   266 Mbits/sec  23743  
[  6]  27.00-28.00  sec  30.6 MBytes   256 Mbits/sec  22902  
[  6]  28.00-29.00  sec  28.5 MBytes   239 Mbits/sec  21316  
[  6]  29.00-30.00  sec  28.0 MBytes   235 Mbits/sec  20958  
[  6]  30.00-30.72  sec  20.5 MBytes   237 Mbits/sec  15328  
- - - - - - - - - - - - - - - - - - - - - - - - -
[ ID] Interval           Transfer     Bandwidth       Jitter    Lost/Total Datagrams
[  6]   0.00-30.72  sec   954 MBytes   260 Mbits/sec  0.000 ms  0/714558 (0%)  
-----------------------------------------------------------
Server listening on 5565
-----------------------------------------------------------
Accepted connection from 10.0.0.1, port 53510
[  6] local 10.0.0.5 port 5565 connected to 10.0.0.1 port 40075
[ ID] Interval           Transfer     Bandwidth       Total Datagrams
[  6]   0.00-1.00   sec  28.8 MBytes   241 Mbits/sec  21541  
[  6]   1.00-2.00   sec  29.4 MBytes   247 Mbits/sec  22051  
[  6]   2.00-3.00   sec  31.8 MBytes   267 Mbits/sec  23804  
[  6]   3.00-4.00   sec  29.4 MBytes   246 Mbits/sec  21983  
[  6]   4.00-5.00   sec  32.0 MBytes   268 Mbits/sec  23957  
[  6]   5.00-6.00   sec  29.7 MBytes   250 Mbits/sec  22282  
[  6]   6.00-7.00   sec  25.8 MBytes   216 Mbits/sec  19323  
[  6]   7.00-8.00   sec  28.1 MBytes   236 Mbits/sec  21029  
[  6]   8.00-9.00   sec  26.5 MBytes   222 Mbits/sec  19853  
[  6]   9.00-10.00  sec  24.6 MBytes   206 Mbits/sec  18400  
[  6]  10.00-11.00  sec  28.8 MBytes   242 Mbits/sec  21537  
[  6]  11.00-12.00  sec  32.1 MBytes   269 Mbits/sec  24032  
[  6]  12.00-13.00  sec  32.3 MBytes   271 Mbits/sec  24168  
[  6]  13.00-14.00  sec  31.9 MBytes   268 Mbits/sec  23897  
[  6]  14.00-15.00  sec  33.1 MBytes   278 Mbits/sec  24823  
[  6]  15.00-16.00  sec  31.7 MBytes   266 Mbits/sec  23733  
[  6]  16.00-17.00  sec  32.3 MBytes   271 Mbits/sec  24197  
[  6]  17.00-18.00  sec  30.6 MBytes   256 Mbits/sec  22898  
[  6]  18.00-19.00  sec  25.0 MBytes   210 Mbits/sec  18745  
[  6]  19.00-20.00  sec  21.8 MBytes   183 Mbits/sec  16349  
[  6]  20.00-21.00  sec  24.9 MBytes   209 Mbits/sec  18657  
[  6]  21.00-22.01  sec  24.6 MBytes   205 Mbits/sec  18436  
[  6]  22.01-23.00  sec  27.3 MBytes   230 Mbits/sec  20439  
[  6]  23.00-24.00  sec  27.9 MBytes   233 Mbits/sec  20862  
[  6]  24.00-25.00  sec  24.8 MBytes   209 Mbits/sec  18582  
[  6]  25.00-26.00  sec  27.3 MBytes   229 Mbits/sec  20466  
[  6]  26.00-27.00  sec  28.1 MBytes   235 Mbits/sec  21026  
[  6]  27.00-28.00  sec  25.0 MBytes   209 Mbits/sec  18689  
[  6]  28.00-29.00  sec  27.0 MBytes   226 Mbits/sec  20209  
[  6]  29.00-30.00  sec  27.6 MBytes   232 Mbits/sec  20674  
[  6]  30.00-31.00  sec  28.2 MBytes   237 Mbits/sec  21146  
[  6]  31.00-32.00  sec  27.7 MBytes   233 Mbits/sec  20777  
[  6]  32.00-33.00  sec  29.9 MBytes   251 Mbits/sec  22398  
[  6]  33.00-33.61  sec  18.3 MBytes   252 Mbits/sec  13721  
- - - - - - - - - - - - - - - - - - - - - - - - -
[ ID] Interval           Transfer     Bandwidth       Jitter    Lost/Total Datagrams
[  6]   0.00-33.61  sec   954 MBytes   238 Mbits/sec  0.000 ms  0/714684 (0%)  
-----------------------------------------------------------
Server listening on 5565
-----------------------------------------------------------
Accepted connection from 10.0.0.1, port 53514
[  6] local 10.0.0.5 port 5565 connected to 10.0.0.1 port 59045
[ ID] Interval           Transfer     Bandwidth       Total Datagrams
[  6]   0.00-1.00   sec  26.8 MBytes   225 Mbits/sec  20090  
[  6]   1.00-2.00   sec  30.1 MBytes   252 Mbits/sec  22521  
[  6]   2.00-3.00   sec  25.2 MBytes   211 Mbits/sec  18859  
[  6]   3.00-4.00   sec  26.1 MBytes   219 Mbits/sec  19534  
[  6]   4.00-5.00   sec  22.7 MBytes   190 Mbits/sec  16985  
[  6]   5.00-6.00   sec  21.5 MBytes   180 Mbits/sec  16075  
[  6]   6.00-7.00   sec  19.5 MBytes   164 Mbits/sec  14612  
[  6]   7.00-8.00   sec  20.7 MBytes   174 Mbits/sec  15525  
[  6]   8.00-9.00   sec  26.6 MBytes   223 Mbits/sec  19953  
[  6]   9.00-10.00  sec  25.0 MBytes   209 Mbits/sec  18693  
[  6]  10.00-11.00  sec  26.0 MBytes   218 Mbits/sec  19482  
[  6]  11.00-12.00  sec  27.1 MBytes   228 Mbits/sec  20318  
[  6]  12.00-13.00  sec  26.3 MBytes   220 Mbits/sec  19677  
[  6]  13.00-14.00  sec  31.3 MBytes   262 Mbits/sec  23423  
[  6]  14.00-15.00  sec  32.8 MBytes   275 Mbits/sec  24590  
[  6]  15.00-16.00  sec  32.8 MBytes   275 Mbits/sec  24568  
[  6]  16.00-17.00  sec  31.4 MBytes   263 Mbits/sec  23523  
[  6]  17.00-18.00  sec  30.6 MBytes   257 Mbits/sec  22943  
[  6]  18.00-19.00  sec  31.7 MBytes   266 Mbits/sec  23737  
[  6]  19.00-20.00  sec  31.7 MBytes   266 Mbits/sec  23747  
[  6]  20.00-21.00  sec  33.1 MBytes   278 Mbits/sec  24797  
[  6]  21.00-22.00  sec  33.5 MBytes   281 Mbits/sec  25128  
[  6]  22.00-23.00  sec  30.7 MBytes   257 Mbits/sec  22976  
[  6]  23.00-24.00  sec  27.8 MBytes   233 Mbits/sec  20820  
[  6]  24.00-25.00  sec  28.8 MBytes   242 Mbits/sec  21579  
[  6]  25.00-26.00  sec  31.8 MBytes   267 Mbits/sec  23826  
[  6]  26.00-27.00  sec  31.7 MBytes   266 Mbits/sec  23747  
[  6]  27.00-28.00  sec  31.0 MBytes   260 Mbits/sec  23239  
[  6]  28.00-29.00  sec  30.1 MBytes   252 Mbits/sec  22541  
[  6]  29.00-30.00  sec  30.5 MBytes   256 Mbits/sec  22841  
[  6]  30.00-31.00  sec  30.9 MBytes   259 Mbits/sec  23112  
[  6]  31.00-32.00  sec  33.0 MBytes   276 Mbits/sec  24687  
[  6]  32.00-33.00  sec  32.7 MBytes   275 Mbits/sec  24521  
[  6]  33.00-33.09  sec  2.71 MBytes   254 Mbits/sec  2032  
- - - - - - - - - - - - - - - - - - - - - - - - -
[ ID] Interval           Transfer     Bandwidth       Jitter    Lost/Total Datagrams
[  6]   0.00-33.09  sec   954 MBytes   242 Mbits/sec  0.000 ms  0/714701 (0%)  
-----------------------------------------------------------
Server listening on 5565
-----------------------------------------------------------
Accepted connection from 10.0.0.1, port 53516
[  6] local 10.0.0.5 port 5565 connected to 10.0.0.1 port 53644
[ ID] Interval           Transfer     Bandwidth       Total Datagrams
[  6]   0.00-1.00   sec  20.7 MBytes   174 Mbits/sec  15523  
[  6]   1.00-2.00   sec  22.6 MBytes   189 Mbits/sec  16899  
[  6]   2.00-3.00   sec  22.0 MBytes   185 Mbits/sec  16485  
[  6]   3.00-4.00   sec  28.4 MBytes   238 Mbits/sec  21261  
[  6]   4.00-5.00   sec  32.7 MBytes   274 Mbits/sec  24459  
[  6]   5.00-6.00   sec  31.2 MBytes   262 Mbits/sec  23396  
[  6]   6.00-7.00   sec  29.8 MBytes   250 Mbits/sec  22300  
[  6]   7.00-8.00   sec  31.0 MBytes   260 Mbits/sec  23227  
[  6]   8.00-9.00   sec  32.2 MBytes   270 Mbits/sec  24086  
[  6]   9.00-10.00  sec  30.4 MBytes   255 Mbits/sec  22765  
[  6]  10.00-11.00  sec  30.0 MBytes   252 Mbits/sec  22499  
[  6]  11.00-12.00  sec  27.8 MBytes   233 Mbits/sec  20817  
[  6]  12.00-13.00  sec  27.6 MBytes   231 Mbits/sec  20662  
[  6]  13.00-14.00  sec  25.0 MBytes   210 Mbits/sec  18713  
[  6]  14.00-15.00  sec  24.6 MBytes   207 Mbits/sec  18442  
[  6]  15.00-16.00  sec  21.7 MBytes   181 Mbits/sec  16224  
[  6]  16.00-17.00  sec  25.5 MBytes   214 Mbits/sec  19091  
[  6]  17.00-18.00  sec  26.7 MBytes   224 Mbits/sec  19972  
[  6]  18.00-19.01  sec  28.9 MBytes   241 Mbits/sec  21624  
[  6]  19.01-20.00  sec  30.8 MBytes   259 Mbits/sec  23038  
[  6]  20.00-21.00  sec  30.2 MBytes   253 Mbits/sec  22623  
[  6]  21.00-22.00  sec  27.3 MBytes   229 Mbits/sec  20476  
[  6]  22.00-23.00  sec  29.3 MBytes   246 Mbits/sec  21953  
[  6]  23.00-24.00  sec  24.9 MBytes   209 Mbits/sec  18631  
[  6]  24.00-25.00  sec  23.0 MBytes   193 Mbits/sec  17226  
[  6]  25.00-26.00  sec  22.5 MBytes   189 Mbits/sec  16877  
[  6]  26.00-27.00  sec  25.3 MBytes   212 Mbits/sec  18940  
[  6]  27.00-28.00  sec  26.4 MBytes   222 Mbits/sec  19794  
[  6]  28.00-29.00  sec  24.8 MBytes   208 Mbits/sec  18592  
[  6]  29.00-30.00  sec  20.7 MBytes   173 Mbits/sec  15467  
[  6]  30.00-31.00  sec  16.1 MBytes   135 Mbits/sec  12046  
[  6]  31.00-32.00  sec  16.8 MBytes   141 Mbits/sec  12608  
[  6]  32.00-33.00  sec  21.2 MBytes   178 Mbits/sec  15878  
[  6]  33.00-34.00  sec  24.0 MBytes   201 Mbits/sec  17971  
[  6]  34.00-35.00  sec  25.9 MBytes   218 Mbits/sec  19421  
[  6]  35.00-36.00  sec  29.0 MBytes   243 Mbits/sec  21710  
[  6]  36.00-36.60  sec  18.3 MBytes   253 Mbits/sec  13678  
- - - - - - - - - - - - - - - - - - - - - - - - -
[ ID] Interval           Transfer     Bandwidth       Jitter    Lost/Total Datagrams
[  6]   0.00-36.60  sec   955 MBytes   219 Mbits/sec  0.000 ms  0/715374 (0%)  
-----------------------------------------------------------
Server listening on 5565
-----------------------------------------------------------
Accepted connection from 10.0.0.1, port 53520
[  6] local 10.0.0.5 port 5565 connected to 10.0.0.1 port 60281
[ ID] Interval           Transfer     Bandwidth       Total Datagrams
[  6]   0.00-1.00   sec  27.4 MBytes   230 Mbits/sec  20508  
[  6]   1.00-2.00   sec  31.8 MBytes   267 Mbits/sec  23822  
[  6]   2.00-3.00   sec  31.4 MBytes   263 Mbits/sec  23496  
[  6]   3.00-4.00   sec  32.0 MBytes   269 Mbits/sec  23988  
[  6]   4.00-5.00   sec  29.6 MBytes   248 Mbits/sec  22154  
[  6]   5.00-6.00   sec  31.1 MBytes   261 Mbits/sec  23301  
[  6]   6.00-7.00   sec  31.6 MBytes   265 Mbits/sec  23639  
[  6]   7.00-8.00   sec  31.7 MBytes   266 Mbits/sec  23745  
[  6]   8.00-9.00   sec  31.6 MBytes   265 Mbits/sec  23654  
[  6]   9.00-10.00  sec  31.7 MBytes   266 Mbits/sec  23749  
[  6]  10.00-11.00  sec  30.9 MBytes   259 Mbits/sec  23142  
[  6]  11.00-12.00  sec  31.6 MBytes   265 Mbits/sec  23672  
[  6]  12.00-13.00  sec  31.8 MBytes   267 Mbits/sec  23855  
[  6]  13.00-14.00  sec  31.9 MBytes   268 Mbits/sec  23920  
[  6]  14.00-15.00  sec  32.3 MBytes   271 Mbits/sec  24157  
[  6]  15.00-16.00  sec  33.1 MBytes   277 Mbits/sec  24758  
[  6]  16.00-17.00  sec  33.0 MBytes   277 Mbits/sec  24713  
[  6]  17.00-18.00  sec  32.9 MBytes   276 Mbits/sec  24608  
[  6]  18.00-19.00  sec  31.9 MBytes   267 Mbits/sec  23871  
[  6]  19.00-20.00  sec  32.4 MBytes   272 Mbits/sec  24246  
[  6]  20.00-21.00  sec  33.0 MBytes   277 Mbits/sec  24709  
[  6]  21.00-22.00  sec  32.7 MBytes   274 Mbits/sec  24496  
[  6]  22.00-23.00  sec  32.8 MBytes   275 Mbits/sec  24584  
[  6]  23.00-24.00  sec  32.8 MBytes   275 Mbits/sec  24569  
[  6]  24.00-25.00  sec  33.2 MBytes   279 Mbits/sec  24874  
[  6]  25.00-26.00  sec  33.0 MBytes   276 Mbits/sec  24686  
[  6]  26.00-27.00  sec  32.1 MBytes   269 Mbits/sec  24049  
[  6]  27.00-28.00  sec  32.8 MBytes   275 Mbits/sec  24549  
[  6]  28.00-29.00  sec  32.9 MBytes   276 Mbits/sec  24608  
[  6]  29.00-29.86  sec  28.7 MBytes   278 Mbits/sec  21479  
- - - - - - - - - - - - - - - - - - - - - - - - -
[ ID] Interval           Transfer     Bandwidth       Jitter    Lost/Total Datagrams
[  6]   0.00-29.86  sec   955 MBytes   268 Mbits/sec  0.000 ms  0/715601 (0%)  
-----------------------------------------------------------
Server listening on 5565
-----------------------------------------------------------
Accepted connection from 10.0.0.1, port 53522
[  6] local 10.0.0.5 port 5565 connected to 10.0.0.1 port 37795
[ ID] Interval           Transfer     Bandwidth       Total Datagrams
[  6]   0.00-1.00   sec  28.9 MBytes   243 Mbits/sec  21676  
[  6]   1.00-2.00   sec  31.6 MBytes   265 Mbits/sec  23692  
[  6]   2.00-3.00   sec  31.9 MBytes   268 Mbits/sec  23900  
[  6]   3.00-4.00   sec  32.1 MBytes   269 Mbits/sec  24022  
[  6]   4.00-5.00   sec  31.9 MBytes   268 Mbits/sec  23904  
[  6]   5.00-6.00   sec  30.2 MBytes   253 Mbits/sec  22593  
[  6]   6.00-7.00   sec  30.9 MBytes   259 Mbits/sec  23145  
[  6]   7.00-8.00   sec  31.4 MBytes   264 Mbits/sec  23548  
[  6]   8.00-9.00   sec  31.7 MBytes   266 Mbits/sec  23772  
[  6]   9.00-10.00  sec  31.6 MBytes   265 Mbits/sec  23653  
[  6]  10.00-11.00  sec  31.8 MBytes   267 Mbits/sec  23837  
[  6]  11.00-12.00  sec  32.2 MBytes   270 Mbits/sec  24129  
[  6]  12.00-13.00  sec  31.0 MBytes   260 Mbits/sec  23227  
[  6]  13.00-14.00  sec  31.8 MBytes   266 Mbits/sec  23787  
[  6]  14.00-15.00  sec  31.4 MBytes   263 Mbits/sec  23505  
[  6]  15.00-16.00  sec  31.5 MBytes   264 Mbits/sec  23581  
[  6]  16.00-17.00  sec  32.3 MBytes   271 Mbits/sec  24182  
[  6]  17.00-18.00  sec  31.9 MBytes   268 Mbits/sec  23907  
[  6]  18.00-19.00  sec  32.4 MBytes   272 Mbits/sec  24265  
[  6]  19.00-20.00  sec  32.3 MBytes   271 Mbits/sec  24217  
[  6]  20.00-21.00  sec  32.2 MBytes   270 Mbits/sec  24108  
[  6]  21.00-22.00  sec  32.0 MBytes   269 Mbits/sec  23993  
[  6]  22.00-23.00  sec  32.4 MBytes   272 Mbits/sec  24249  
[  6]  23.00-24.00  sec  33.0 MBytes   277 Mbits/sec  24701  
[  6]  24.00-25.00  sec  31.9 MBytes   267 Mbits/sec  23858  
[  6]  25.00-26.00  sec  30.7 MBytes   258 Mbits/sec  23026  
[  6]  26.00-27.00  sec  27.8 MBytes   233 Mbits/sec  20789  
[  6]  27.00-28.00  sec  27.6 MBytes   231 Mbits/sec  20666  
[  6]  28.00-29.00  sec  27.6 MBytes   231 Mbits/sec  20653  
[  6]  29.00-30.00  sec  28.7 MBytes   241 Mbits/sec  21505  
[  6]  30.00-30.67  sec  19.3 MBytes   243 Mbits/sec  14487  
- - - - - - - - - - - - - - - - - - - - - - - - -
[ ID] Interval           Transfer     Bandwidth       Jitter    Lost/Total Datagrams
[  6]   0.00-30.67  sec   954 MBytes   261 Mbits/sec  0.000 ms  0/714577 (0%)  
-----------------------------------------------------------
Server listening on 5565
-----------------------------------------------------------
Accepted connection from 10.0.0.1, port 53526
[  6] local 10.0.0.5 port 5565 connected to 10.0.0.1 port 48448
[ ID] Interval           Transfer     Bandwidth       Total Datagrams
[  6]   0.00-1.00   sec  28.2 MBytes   237 Mbits/sec  21134  
[  6]   1.00-2.00   sec  32.0 MBytes   268 Mbits/sec  23960  
[  6]   2.00-3.00   sec  31.4 MBytes   263 Mbits/sec  23525  
[  6]   3.00-4.00   sec  29.8 MBytes   250 Mbits/sec  22296  
[  6]   4.00-5.00   sec  27.9 MBytes   234 Mbits/sec  20865  
[  6]   5.00-6.00   sec  28.1 MBytes   236 Mbits/sec  21046  
[  6]   6.00-7.00   sec  28.4 MBytes   238 Mbits/sec  21272  
[  6]   7.00-8.00   sec  28.9 MBytes   242 Mbits/sec  21610  
[  6]   8.00-9.00   sec  30.2 MBytes   254 Mbits/sec  22645  
[  6]   9.00-10.00  sec  31.9 MBytes   268 Mbits/sec  23913  
[  6]  10.00-11.00  sec  31.6 MBytes   265 Mbits/sec  23650  
[  6]  11.00-12.00  sec  32.2 MBytes   270 Mbits/sec  24086  
[  6]  12.00-13.00  sec  33.0 MBytes   277 Mbits/sec  24722  
[  6]  13.00-14.00  sec  31.3 MBytes   262 Mbits/sec  23427  
[  6]  14.00-15.00  sec  32.8 MBytes   275 Mbits/sec  24553  
[  6]  15.00-16.00  sec  33.0 MBytes   277 Mbits/sec  24719  
[  6]  16.00-17.00  sec  33.0 MBytes   277 Mbits/sec  24710  
[  6]  17.00-18.00  sec  33.0 MBytes   277 Mbits/sec  24736  
[  6]  18.00-19.00  sec  33.1 MBytes   278 Mbits/sec  24806  
[  6]  19.00-20.00  sec  32.8 MBytes   275 Mbits/sec  24584  
[  6]  20.00-21.00  sec  32.7 MBytes   274 Mbits/sec  24508  
[  6]  21.00-22.00  sec  32.0 MBytes   269 Mbits/sec  23980  
[  6]  22.00-23.00  sec  32.5 MBytes   273 Mbits/sec  24372  
[  6]  23.00-24.00  sec  32.4 MBytes   272 Mbits/sec  24270  
[  6]  24.00-25.00  sec  32.1 MBytes   269 Mbits/sec  24022  
[  6]  25.00-26.00  sec  32.1 MBytes   269 Mbits/sec  24041  
[  6]  26.00-27.00  sec  32.5 MBytes   273 Mbits/sec  24347  
[  6]  27.00-28.00  sec  32.6 MBytes   274 Mbits/sec  24423  
[  6]  28.00-29.00  sec  32.3 MBytes   271 Mbits/sec  24177  
[  6]  29.00-30.00  sec  32.2 MBytes   270 Mbits/sec  24093  
[  6]  30.00-30.25  sec  7.77 MBytes   259 Mbits/sec  5821  
- - - - - - - - - - - - - - - - - - - - - - - - -
[ ID] Interval           Transfer     Bandwidth       Jitter    Lost/Total Datagrams
[  6]   0.00-30.25  sec   954 MBytes   264 Mbits/sec  0.000 ms  0/714313 (0%)  
-----------------------------------------------------------
Server listening on 5565
-----------------------------------------------------------
Accepted connection from 10.0.0.1, port 53528
[  6] local 10.0.0.5 port 5565 connected to 10.0.0.1 port 57760
[ ID] Interval           Transfer     Bandwidth       Total Datagrams
[  6]   0.00-1.00   sec  29.3 MBytes   246 Mbits/sec  21925  
[  6]   1.00-2.00   sec  32.2 MBytes   270 Mbits/sec  24084  
[  6]   2.00-3.00   sec  32.4 MBytes   272 Mbits/sec  24245  
[  6]   3.00-4.00   sec  32.7 MBytes   274 Mbits/sec  24509  
[  6]   4.00-5.00   sec  32.4 MBytes   272 Mbits/sec  24276  
[  6]   5.00-6.00   sec  32.1 MBytes   269 Mbits/sec  24006  
[  6]   6.00-7.00   sec  31.8 MBytes   267 Mbits/sec  23817  
[  6]   7.00-8.00   sec  30.9 MBytes   259 Mbits/sec  23120  
[  6]   8.00-9.00   sec  31.8 MBytes   267 Mbits/sec  23853  
[  6]   9.00-10.00  sec  31.7 MBytes   266 Mbits/sec  23710  
[  6]  10.00-11.00  sec  32.5 MBytes   273 Mbits/sec  24369  
[  6]  11.00-12.00  sec  32.5 MBytes   273 Mbits/sec  24361  
[  6]  12.00-13.00  sec  32.4 MBytes   272 Mbits/sec  24300  
[  6]  13.00-14.00  sec  32.7 MBytes   274 Mbits/sec  24455  
[  6]  14.00-15.00  sec  32.5 MBytes   273 Mbits/sec  24346  
[  6]  15.00-16.00  sec  32.9 MBytes   276 Mbits/sec  24650  
[  6]  16.00-17.00  sec  33.4 MBytes   280 Mbits/sec  25004  
[  6]  17.00-18.00  sec  32.8 MBytes   275 Mbits/sec  24591  
[  6]  18.00-19.00  sec  33.2 MBytes   279 Mbits/sec  24867  
[  6]  19.00-20.00  sec  33.2 MBytes   279 Mbits/sec  24878  
[  6]  20.00-21.00  sec  32.1 MBytes   269 Mbits/sec  24027  
[  6]  21.00-22.00  sec  31.9 MBytes   267 Mbits/sec  23882  
[  6]  22.00-23.00  sec  32.6 MBytes   273 Mbits/sec  24385  
[  6]  23.00-24.00  sec  32.6 MBytes   273 Mbits/sec  24401  
[  6]  24.00-25.00  sec  32.6 MBytes   273 Mbits/sec  24414  
[  6]  25.00-26.00  sec  32.8 MBytes   275 Mbits/sec  24587  
[  6]  26.00-27.00  sec  32.8 MBytes   275 Mbits/sec  24590  
[  6]  27.00-28.00  sec  32.5 MBytes   273 Mbits/sec  24374  
[  6]  28.00-29.00  sec  32.8 MBytes   275 Mbits/sec  24538  
[  6]  29.00-29.49  sec  15.8 MBytes   272 Mbits/sec  11842  
- - - - - - - - - - - - - - - - - - - - - - - - -
[ ID] Interval           Transfer     Bandwidth       Jitter    Lost/Total Datagrams
[  6]   0.00-29.49  sec   954 MBytes   271 Mbits/sec  0.000 ms  0/714406 (0%)  
-----------------------------------------------------------
Server listening on 5565
-----------------------------------------------------------
Accepted connection from 10.0.0.1, port 53530
[  6] local 10.0.0.5 port 5565 connected to 10.0.0.1 port 40174
[ ID] Interval           Transfer     Bandwidth       Total Datagrams
[  6]   0.00-1.00   sec  28.9 MBytes   242 Mbits/sec  21648  
[  6]   1.00-2.00   sec  31.6 MBytes   265 Mbits/sec  23671  
[  6]   2.00-3.00   sec  32.1 MBytes   269 Mbits/sec  24028  
[  6]   3.00-4.00   sec  32.1 MBytes   269 Mbits/sec  24046  
[  6]   4.00-5.00   sec  32.1 MBytes   269 Mbits/sec  24019  
[  6]   5.00-6.00   sec  32.1 MBytes   270 Mbits/sec  24073  
[  6]   6.00-7.00   sec  31.8 MBytes   266 Mbits/sec  23788  
[  6]   7.00-8.00   sec  31.9 MBytes   267 Mbits/sec  23860  
[  6]   8.00-9.00   sec  32.0 MBytes   268 Mbits/sec  23944  
[  6]   9.00-10.00  sec  31.7 MBytes   266 Mbits/sec  23764  
[  6]  10.00-11.00  sec  32.7 MBytes   274 Mbits/sec  24488  
[  6]  11.00-12.00  sec  32.5 MBytes   273 Mbits/sec  24365  
[  6]  12.00-13.00  sec  32.6 MBytes   273 Mbits/sec  24416  
[  6]  13.00-14.00  sec  32.5 MBytes   272 Mbits/sec  24319  
[  6]  14.00-15.00  sec  32.4 MBytes   271 Mbits/sec  24239  
[  6]  15.00-16.00  sec  33.4 MBytes   280 Mbits/sec  25003  
[  6]  16.00-17.00  sec  33.1 MBytes   277 Mbits/sec  24767  
[  6]  17.00-18.00  sec  33.3 MBytes   279 Mbits/sec  24935  
[  6]  18.00-19.00  sec  33.5 MBytes   281 Mbits/sec  25080  
[  6]  19.00-20.00  sec  32.5 MBytes   273 Mbits/sec  24349  
[  6]  20.00-21.00  sec  30.6 MBytes   256 Mbits/sec  22912  
[  6]  21.00-22.00  sec  28.3 MBytes   237 Mbits/sec  21176  
[  6]  22.00-23.00  sec  28.7 MBytes   241 Mbits/sec  21517  
[  6]  23.00-24.00  sec  29.6 MBytes   248 Mbits/sec  22157  
[  6]  24.00-25.00  sec  29.1 MBytes   244 Mbits/sec  21797  
[  6]  25.00-26.00  sec  30.1 MBytes   252 Mbits/sec  22537  
[  6]  26.00-27.00  sec  32.3 MBytes   271 Mbits/sec  24172  
[  6]  27.00-28.00  sec  32.0 MBytes   268 Mbits/sec  23972  
[  6]  28.00-29.00  sec  31.6 MBytes   265 Mbits/sec  23657  
[  6]  29.00-30.00  sec  32.1 MBytes   269 Mbits/sec  24057  
[  6]  30.00-30.19  sec  5.04 MBytes   229 Mbits/sec  3778  
- - - - - - - - - - - - - - - - - - - - - - - - -
[ ID] Interval           Transfer     Bandwidth       Jitter    Lost/Total Datagrams
[  6]   0.00-30.19  sec   954 MBytes   265 Mbits/sec  0.000 ms  0/714534 (0%)  
-----------------------------------------------------------
Server listening on 5565
-----------------------------------------------------------
Accepted connection from 10.0.0.1, port 53534
[  6] local 10.0.0.5 port 5565 connected to 10.0.0.1 port 56015
[ ID] Interval           Transfer     Bandwidth       Total Datagrams
[  6]   0.00-1.00   sec  24.7 MBytes   207 Mbits/sec  18475  
[  6]   1.00-2.00   sec  28.2 MBytes   236 Mbits/sec  21106  
[  6]   2.00-3.00   sec  28.9 MBytes   242 Mbits/sec  21632  
[  6]   3.00-4.00   sec  30.9 MBytes   259 Mbits/sec  23119  
[  6]   4.00-5.00   sec  32.0 MBytes   269 Mbits/sec  23979  
[  6]   5.00-6.00   sec  31.8 MBytes   267 Mbits/sec  23854  
[  6]   6.00-7.00   sec  31.8 MBytes   266 Mbits/sec  23782  
[  6]   7.00-8.00   sec  30.6 MBytes   257 Mbits/sec  22921  
[  6]   8.00-9.00   sec  31.1 MBytes   261 Mbits/sec  23280  
[  6]   9.00-10.00  sec  31.8 MBytes   267 Mbits/sec  23813  
[  6]  10.00-11.00  sec  31.3 MBytes   262 Mbits/sec  23435  
[  6]  11.00-12.00  sec  32.2 MBytes   270 Mbits/sec  24141  
[  6]  12.00-13.00  sec  32.3 MBytes   271 Mbits/sec  24225  
[  6]  13.00-14.00  sec  32.6 MBytes   273 Mbits/sec  24398  
[  6]  14.00-15.00  sec  32.5 MBytes   273 Mbits/sec  24341  
[  6]  15.00-16.00  sec  32.9 MBytes   276 Mbits/sec  24613  
[  6]  16.00-17.00  sec  33.3 MBytes   280 Mbits/sec  24958  
[  6]  17.00-18.00  sec  33.1 MBytes   278 Mbits/sec  24800  
[  6]  18.00-19.00  sec  32.9 MBytes   276 Mbits/sec  24627  
[  6]  19.00-20.00  sec  33.4 MBytes   280 Mbits/sec  25017  
[  6]  20.00-21.00  sec  33.1 MBytes   278 Mbits/sec  24782  
[  6]  21.00-22.00  sec  33.3 MBytes   279 Mbits/sec  24914  
[  6]  22.00-23.00  sec  33.3 MBytes   279 Mbits/sec  24936  
[  6]  23.00-24.00  sec  33.0 MBytes   276 Mbits/sec  24680  
[  6]  24.00-25.00  sec  29.3 MBytes   245 Mbits/sec  21911  
[  6]  25.00-26.00  sec  31.2 MBytes   262 Mbits/sec  23378  
[  6]  26.00-27.00  sec  32.7 MBytes   274 Mbits/sec  24497  
[  6]  27.00-28.00  sec  32.4 MBytes   272 Mbits/sec  24262  
[  6]  28.00-29.00  sec  32.8 MBytes   275 Mbits/sec  24582  
[  6]  29.00-30.00  sec  32.4 MBytes   272 Mbits/sec  24270  
[  6]  30.00-30.07  sec  2.33 MBytes   267 Mbits/sec  1742  
- - - - - - - - - - - - - - - - - - - - - - - - -
[ ID] Interval           Transfer     Bandwidth       Jitter    Lost/Total Datagrams
[  6]   0.00-30.07  sec   954 MBytes   266 Mbits/sec  0.000 ms  0/714470 (0%)  
-----------------------------------------------------------
Server listening on 5565
-----------------------------------------------------------
Accepted connection from 10.0.0.1, port 53536
[  6] local 10.0.0.5 port 5565 connected to 10.0.0.1 port 48689
[ ID] Interval           Transfer     Bandwidth       Total Datagrams
[  6]   0.00-1.00   sec  28.6 MBytes   240 Mbits/sec  21438  
[  6]   1.00-2.00   sec  32.2 MBytes   270 Mbits/sec  24118  
[  6]   2.00-3.00   sec  32.6 MBytes   273 Mbits/sec  24389  
[  6]   3.00-4.00   sec  32.3 MBytes   271 Mbits/sec  24160  
[  6]   4.00-5.00   sec  32.5 MBytes   272 Mbits/sec  24314  
[  6]   5.00-6.00   sec  32.0 MBytes   268 Mbits/sec  23970  
[  6]   6.00-7.00   sec  31.9 MBytes   267 Mbits/sec  23859  
[  6]   7.00-8.00   sec  31.4 MBytes   263 Mbits/sec  23488  
[  6]   8.00-9.00   sec  31.9 MBytes   267 Mbits/sec  23873  
[  6]   9.00-10.00  sec  32.0 MBytes   268 Mbits/sec  23971  
[  6]  10.00-11.00  sec  32.5 MBytes   273 Mbits/sec  24370  
[  6]  11.00-12.00  sec  32.7 MBytes   275 Mbits/sec  24527  
[  6]  12.00-13.00  sec  32.5 MBytes   272 Mbits/sec  24313  
[  6]  13.00-14.00  sec  32.7 MBytes   274 Mbits/sec  24501  
[  6]  14.00-15.00  sec  32.5 MBytes   273 Mbits/sec  24334  
[  6]  15.00-16.00  sec  33.3 MBytes   279 Mbits/sec  24940  
[  6]  16.00-17.00  sec  32.3 MBytes   271 Mbits/sec  24156  
[  6]  17.00-18.00  sec  33.2 MBytes   278 Mbits/sec  24830  
[  6]  18.00-19.00  sec  33.3 MBytes   279 Mbits/sec  24945  
[  6]  19.00-20.00  sec  33.3 MBytes   278 Mbits/sec  24933  
[  6]  20.00-21.00  sec  33.6 MBytes   282 Mbits/sec  25138  
[  6]  21.00-22.00  sec  33.1 MBytes   278 Mbits/sec  24820  
[  6]  22.00-23.00  sec  32.4 MBytes   272 Mbits/sec  24288  
[  6]  23.00-24.00  sec  32.2 MBytes   270 Mbits/sec  24136  
[  6]  24.00-25.00  sec  31.1 MBytes   260 Mbits/sec  23257  
[  6]  25.00-26.00  sec  32.0 MBytes   269 Mbits/sec  23996  
[  6]  26.00-27.00  sec  33.0 MBytes   277 Mbits/sec  24713  
[  6]  27.00-28.00  sec  33.1 MBytes   278 Mbits/sec  24816  
[  6]  28.00-29.00  sec  33.4 MBytes   280 Mbits/sec  25024  
[  6]  29.00-29.44  sec  14.8 MBytes   281 Mbits/sec  11060  
- - - - - - - - - - - - - - - - - - - - - - - - -
[ ID] Interval           Transfer     Bandwidth       Jitter    Lost/Total Datagrams
[  6]   0.00-29.44  sec   954 MBytes   272 Mbits/sec  0.000 ms  0/714677 (0%)  
-----------------------------------------------------------
Server listening on 5565
-----------------------------------------------------------
Accepted connection from 10.0.0.1, port 53542
[  6] local 10.0.0.5 port 5565 connected to 10.0.0.1 port 57821
[ ID] Interval           Transfer     Bandwidth       Total Datagrams
[  6]   0.00-1.00   sec  28.8 MBytes   241 Mbits/sec  21545  
[  6]   1.00-2.00   sec  31.9 MBytes   268 Mbits/sec  23908  
[  6]   2.00-3.00   sec  31.5 MBytes   264 Mbits/sec  23586  
[  6]   3.00-4.00   sec  32.3 MBytes   271 Mbits/sec  24229  
[  6]   4.00-5.00   sec  32.6 MBytes   274 Mbits/sec  24443  
[  6]   5.00-6.00   sec  32.4 MBytes   272 Mbits/sec  24262  
[  6]   6.00-7.00   sec  32.4 MBytes   271 Mbits/sec  24234  
[  6]   7.00-8.00   sec  32.4 MBytes   271 Mbits/sec  24242  
[  6]   8.00-9.00   sec  32.5 MBytes   273 Mbits/sec  24364  
[  6]   9.00-10.00  sec  32.5 MBytes   273 Mbits/sec  24362  
[  6]  10.00-11.00  sec  32.9 MBytes   276 Mbits/sec  24648  
[  6]  11.00-12.00  sec  33.1 MBytes   278 Mbits/sec  24821  
[  6]  12.00-13.00  sec  33.2 MBytes   279 Mbits/sec  24866  
[  6]  13.00-14.00  sec  32.9 MBytes   276 Mbits/sec  24642  
[  6]  14.00-15.00  sec  33.4 MBytes   280 Mbits/sec  24993  
[  6]  15.00-16.00  sec  32.4 MBytes   272 Mbits/sec  24279  
[  6]  16.00-17.00  sec  29.0 MBytes   243 Mbits/sec  21710  
[  6]  17.00-18.00  sec  28.7 MBytes   241 Mbits/sec  21488  
[  6]  18.00-19.00  sec  29.3 MBytes   246 Mbits/sec  21981  
[  6]  19.00-20.00  sec  29.0 MBytes   243 Mbits/sec  21693  
[  6]  20.00-21.00  sec  28.9 MBytes   242 Mbits/sec  21612  
[  6]  21.00-22.00  sec  32.1 MBytes   269 Mbits/sec  24054  
[  6]  22.00-23.00  sec  33.2 MBytes   279 Mbits/sec  24871  
[  6]  23.00-24.00  sec  33.2 MBytes   279 Mbits/sec  24885  
[  6]  24.00-25.00  sec  32.8 MBytes   275 Mbits/sec  24594  
[  6]  25.00-26.00  sec  30.6 MBytes   257 Mbits/sec  22921  
[  6]  26.00-27.00  sec  33.3 MBytes   280 Mbits/sec  24977  
[  6]  27.00-28.00  sec  33.3 MBytes   279 Mbits/sec  24944  
[  6]  28.00-29.00  sec  32.2 MBytes   270 Mbits/sec  24127  
[  6]  29.00-29.94  sec  30.8 MBytes   276 Mbits/sec  23082  
- - - - - - - - - - - - - - - - - - - - - - - - -
[ ID] Interval           Transfer     Bandwidth       Jitter    Lost/Total Datagrams
[  6]   0.00-29.94  sec   954 MBytes   267 Mbits/sec  0.000 ms  0/714363 (0%)  
-----------------------------------------------------------
Server listening on 5565
-----------------------------------------------------------
Accepted connection from 10.0.0.1, port 53544
[  6] local 10.0.0.5 port 5565 connected to 10.0.0.1 port 36287
[ ID] Interval           Transfer     Bandwidth       Total Datagrams
[  6]   0.00-1.00   sec  28.3 MBytes   238 Mbits/sec  21233  
[  6]   1.00-2.00   sec  32.4 MBytes   272 Mbits/sec  24279  
[  6]   2.00-3.00   sec  32.5 MBytes   273 Mbits/sec  24337  
[  6]   3.00-4.00   sec  30.9 MBytes   260 Mbits/sec  23180  
[  6]   4.00-5.00   sec  32.1 MBytes   269 Mbits/sec  24011  
[  6]   5.00-6.00   sec  31.9 MBytes   268 Mbits/sec  23911  
[  6]   6.00-7.00   sec  32.1 MBytes   269 Mbits/sec  24029  
[  6]   7.00-8.00   sec  31.9 MBytes   268 Mbits/sec  23927  
[  6]   8.00-9.00   sec  32.1 MBytes   270 Mbits/sec  24061  
[  6]   9.00-10.00  sec  31.6 MBytes   265 Mbits/sec  23681  
[  6]  10.00-11.00  sec  24.1 MBytes   202 Mbits/sec  18032  
[  6]  11.00-12.00  sec  26.9 MBytes   226 Mbits/sec  20174  
[  6]  12.00-13.00  sec  28.1 MBytes   236 Mbits/sec  21044  
[  6]  13.00-14.00  sec  28.8 MBytes   241 Mbits/sec  21549  
[  6]  14.00-15.00  sec  20.9 MBytes   175 Mbits/sec  15637  
[  6]  15.00-16.00  sec  19.1 MBytes   160 Mbits/sec  14326  
[  6]  16.00-17.00  sec  33.3 MBytes   280 Mbits/sec  24977  
[  6]  17.00-18.00  sec  32.2 MBytes   269 Mbits/sec  24102  
[  6]  18.00-19.00  sec  32.8 MBytes   276 Mbits/sec  24567  
[  6]  19.00-20.00  sec  30.8 MBytes   258 Mbits/sec  23046  
[  6]  20.00-21.00  sec  15.7 MBytes   132 Mbits/sec  11780  
[  6]  21.00-22.01  sec  13.8 MBytes   115 Mbits/sec  10302  
[  6]  22.01-23.00  sec  8.06 MBytes  67.9 Mbits/sec  6039  
[  6]  23.00-24.00  sec  13.0 MBytes   109 Mbits/sec  9726  
[  6]  24.00-25.00  sec  12.5 MBytes   105 Mbits/sec  9352  
[  6]  25.00-26.00  sec  15.3 MBytes   129 Mbits/sec  11492  
[  6]  26.00-27.00  sec  16.6 MBytes   139 Mbits/sec  12447  
[  6]  27.00-28.00  sec  24.1 MBytes   203 Mbits/sec  18087  
[  6]  28.00-29.00  sec  31.6 MBytes   265 Mbits/sec  23634  
[  6]  29.00-30.00  sec  28.0 MBytes   234 Mbits/sec  20939  
[  6]  30.00-31.00  sec  28.0 MBytes   236 Mbits/sec  20995  
[  6]  31.00-32.00  sec  30.9 MBytes   259 Mbits/sec  23137  
[  6]  32.00-33.00  sec  29.5 MBytes   248 Mbits/sec  22132  
[  6]  33.00-34.00  sec  29.7 MBytes   249 Mbits/sec  22242  
[  6]  34.00-35.00  sec  31.1 MBytes   261 Mbits/sec  23281  
[  6]  35.00-36.00  sec  31.7 MBytes   266 Mbits/sec  23729  
[  6]  36.00-36.04  sec  1.28 MBytes   275 Mbits/sec  961  
- - - - - - - - - - - - - - - - - - - - - - - - -
[ ID] Interval           Transfer     Bandwidth       Jitter    Lost/Total Datagrams
[  6]   0.00-36.04  sec   954 MBytes   222 Mbits/sec  0.000 ms  0/714378 (0%)  
-----------------------------------------------------------
Server listening on 5565
-----------------------------------------------------------
Accepted connection from 10.0.0.1, port 53548
[  6] local 10.0.0.5 port 5565 connected to 10.0.0.1 port 49962
[ ID] Interval           Transfer     Bandwidth       Total Datagrams
[  6]   0.00-1.00   sec  26.1 MBytes   219 Mbits/sec  19529  
[  6]   1.00-2.00   sec  31.8 MBytes   266 Mbits/sec  23789  
[  6]   2.00-3.00   sec  31.4 MBytes   263 Mbits/sec  23514  
[  6]   3.00-4.00   sec  32.0 MBytes   269 Mbits/sec  23983  
[  6]   4.00-5.00   sec  31.7 MBytes   266 Mbits/sec  23765  
[  6]   5.00-6.00   sec  30.8 MBytes   259 Mbits/sec  23106  
[  6]   6.00-7.00   sec  31.1 MBytes   261 Mbits/sec  23298  
[  6]   7.00-8.00   sec  30.7 MBytes   257 Mbits/sec  22979  
[  6]   8.00-9.00   sec  31.1 MBytes   261 Mbits/sec  23301  
[  6]   9.00-10.00  sec  31.1 MBytes   261 Mbits/sec  23305  
[  6]  10.00-11.00  sec  31.6 MBytes   265 Mbits/sec  23633  
[  6]  11.00-12.00  sec  31.7 MBytes   266 Mbits/sec  23773  
[  6]  12.00-13.00  sec  31.2 MBytes   262 Mbits/sec  23405  
[  6]  13.00-14.00  sec  31.8 MBytes   267 Mbits/sec  23823  
[  6]  14.00-15.00  sec  31.9 MBytes   268 Mbits/sec  23903  
[  6]  15.00-16.00  sec  32.2 MBytes   271 Mbits/sec  24154  
[  6]  16.00-17.00  sec  32.5 MBytes   273 Mbits/sec  24336  
[  6]  17.00-18.00  sec  32.1 MBytes   269 Mbits/sec  24055  
[  6]  18.00-19.00  sec  32.4 MBytes   272 Mbits/sec  24292  
[  6]  19.00-20.00  sec  32.2 MBytes   270 Mbits/sec  24134  
[  6]  20.00-21.00  sec  32.6 MBytes   273 Mbits/sec  24403  
[  6]  21.00-22.00  sec  32.7 MBytes   274 Mbits/sec  24491  
[  6]  22.00-23.00  sec  32.2 MBytes   270 Mbits/sec  24114  
[  6]  23.00-24.00  sec  32.5 MBytes   272 Mbits/sec  24328  
[  6]  24.00-25.00  sec  32.5 MBytes   273 Mbits/sec  24339  
[  6]  25.00-26.00  sec  31.8 MBytes   266 Mbits/sec  23786  
[  6]  26.00-27.00  sec  31.1 MBytes   261 Mbits/sec  23325  
[  6]  27.00-28.00  sec  27.8 MBytes   233 Mbits/sec  20834  
[  6]  28.00-29.00  sec  27.7 MBytes   232 Mbits/sec  20717  
[  6]  29.00-30.00  sec  27.5 MBytes   231 Mbits/sec  20613  
[  6]  30.00-30.67  sec  18.2 MBytes   226 Mbits/sec  13598  
- - - - - - - - - - - - - - - - - - - - - - - - -
[ ID] Interval           Transfer     Bandwidth       Jitter    Lost/Total Datagrams
[  6]   0.00-30.67  sec   954 MBytes   261 Mbits/sec  0.000 ms  0/714625 (0%)  
-----------------------------------------------------------
Server listening on 5565
-----------------------------------------------------------
Accepted connection from 10.0.0.1, port 53550
[  6] local 10.0.0.5 port 5565 connected to 10.0.0.1 port 43669
[ ID] Interval           Transfer     Bandwidth       Total Datagrams
[  6]   0.00-1.00   sec  26.6 MBytes   223 Mbits/sec  19900  
[  6]   1.00-2.00   sec  31.5 MBytes   264 Mbits/sec  23615  
[  6]   2.00-3.00   sec  31.7 MBytes   266 Mbits/sec  23776  
[  6]   3.00-4.00   sec  31.1 MBytes   261 Mbits/sec  23259  
[  6]   4.00-5.00   sec  28.1 MBytes   235 Mbits/sec  21023  
[  6]   5.00-6.00   sec  26.5 MBytes   223 Mbits/sec  19859  
[  6]   6.00-7.00   sec  26.4 MBytes   221 Mbits/sec  19754  
[  6]   7.00-8.00   sec  27.0 MBytes   227 Mbits/sec  20254  
[  6]   8.00-9.00   sec  27.1 MBytes   227 Mbits/sec  20280  
[  6]   9.00-10.00  sec  27.7 MBytes   232 Mbits/sec  20711  
[  6]  10.00-11.00  sec  30.7 MBytes   258 Mbits/sec  22994  
[  6]  11.00-12.00  sec  31.3 MBytes   263 Mbits/sec  23440  
[  6]  12.00-13.00  sec  31.7 MBytes   266 Mbits/sec  23766  
[  6]  13.00-14.00  sec  31.6 MBytes   265 Mbits/sec  23663  
[  6]  14.00-15.00  sec  29.7 MBytes   249 Mbits/sec  22234  
[  6]  15.00-16.00  sec  31.7 MBytes   266 Mbits/sec  23715  
[  6]  16.00-17.00  sec  32.4 MBytes   272 Mbits/sec  24252  
[  6]  17.00-18.00  sec  32.4 MBytes   272 Mbits/sec  24298  
[  6]  18.00-19.00  sec  32.7 MBytes   274 Mbits/sec  24468  
[  6]  19.00-20.00  sec  32.6 MBytes   274 Mbits/sec  24422  
[  6]  20.00-21.00  sec  31.7 MBytes   266 Mbits/sec  23759  
[  6]  21.00-22.00  sec  32.6 MBytes   273 Mbits/sec  24419  
[  6]  22.00-23.00  sec  32.3 MBytes   271 Mbits/sec  24212  
[  6]  23.00-24.00  sec  32.4 MBytes   272 Mbits/sec  24287  
[  6]  24.00-25.00  sec  33.3 MBytes   279 Mbits/sec  24908  
[  6]  25.00-26.00  sec  32.1 MBytes   269 Mbits/sec  24057  
[  6]  26.00-27.00  sec  32.6 MBytes   273 Mbits/sec  24390  
[  6]  27.00-28.00  sec  32.5 MBytes   272 Mbits/sec  24312  
[  6]  28.00-29.00  sec  32.3 MBytes   271 Mbits/sec  24178  
[  6]  29.00-30.00  sec  32.5 MBytes   272 Mbits/sec  24325  
[  6]  30.00-30.92  sec  29.1 MBytes   267 Mbits/sec  21815  
- - - - - - - - - - - - - - - - - - - - - - - - -
[ ID] Interval           Transfer     Bandwidth       Jitter    Lost/Total Datagrams
[  6]   0.00-30.92  sec   954 MBytes   259 Mbits/sec  0.000 ms  0/714345 (0%)  
-----------------------------------------------------------
Server listening on 5565
-----------------------------------------------------------
Accepted connection from 10.0.0.1, port 53554
[  6] local 10.0.0.5 port 5565 connected to 10.0.0.1 port 32931
[ ID] Interval           Transfer     Bandwidth       Total Datagrams
[  6]   0.00-1.00   sec  19.7 MBytes   165 Mbits/sec  14738  
[  6]   1.00-2.00   sec  24.7 MBytes   208 Mbits/sec  18533  
[  6]   2.00-3.00   sec  21.5 MBytes   180 Mbits/sec  16067  
[  6]   3.00-4.00   sec  23.0 MBytes   193 Mbits/sec  17207  
[  6]   4.00-5.00   sec  27.0 MBytes   226 Mbits/sec  20204  
[  6]   5.00-6.00   sec  25.5 MBytes   214 Mbits/sec  19084  
[  6]   6.00-7.00   sec  27.4 MBytes   230 Mbits/sec  20517  
[  6]   7.00-8.00   sec  28.1 MBytes   236 Mbits/sec  21049  
[  6]   8.00-9.00   sec  28.9 MBytes   243 Mbits/sec  21654  
[  6]   9.00-10.00  sec  29.0 MBytes   244 Mbits/sec  21755  
[  6]  10.00-11.00  sec  28.9 MBytes   243 Mbits/sec  21671  
[  6]  11.00-12.00  sec  29.9 MBytes   250 Mbits/sec  22363  
[  6]  12.00-13.00  sec  28.1 MBytes   236 Mbits/sec  21065  
[  6]  13.00-14.00  sec  28.3 MBytes   237 Mbits/sec  21175  
[  6]  14.00-15.00  sec  29.6 MBytes   248 Mbits/sec  22152  
[  6]  15.00-16.00  sec  29.9 MBytes   251 Mbits/sec  22393  
[  6]  16.00-17.00  sec  29.2 MBytes   245 Mbits/sec  21834  
[  6]  17.00-18.00  sec  30.5 MBytes   256 Mbits/sec  22870  
[  6]  18.00-19.00  sec  30.3 MBytes   255 Mbits/sec  22724  
[  6]  19.00-20.00  sec  28.9 MBytes   243 Mbits/sec  21669  
[  6]  20.00-21.00  sec  29.1 MBytes   244 Mbits/sec  21776  
[  6]  21.00-22.00  sec  30.1 MBytes   252 Mbits/sec  22508  
[  6]  22.00-23.00  sec  28.3 MBytes   238 Mbits/sec  21215  
[  6]  23.00-24.00  sec  30.0 MBytes   252 Mbits/sec  22497  
[  6]  24.00-25.00  sec  30.5 MBytes   256 Mbits/sec  22855  
[  6]  25.00-26.00  sec  30.9 MBytes   259 Mbits/sec  23110  
[  6]  26.00-27.00  sec  32.4 MBytes   272 Mbits/sec  24238  
[  6]  27.00-28.00  sec  32.4 MBytes   272 Mbits/sec  24271  
[  6]  28.00-29.00  sec  31.1 MBytes   261 Mbits/sec  23327  
[  6]  29.00-30.00  sec  32.0 MBytes   269 Mbits/sec  23986  
[  6]  30.00-31.00  sec  32.1 MBytes   270 Mbits/sec  24066  
[  6]  31.00-32.00  sec  32.8 MBytes   275 Mbits/sec  24584  
[  6]  32.00-33.00  sec  31.8 MBytes   267 Mbits/sec  23825  
[  6]  33.00-33.07  sec  2.32 MBytes   269 Mbits/sec  1741  
- - - - - - - - - - - - - - - - - - - - - - - - -
[ ID] Interval           Transfer     Bandwidth       Jitter    Lost/Total Datagrams
[  6]   0.00-33.07  sec   954 MBytes   242 Mbits/sec  0.000 ms  0/714723 (0%)  
-----------------------------------------------------------
Server listening on 5565
-----------------------------------------------------------
Accepted connection from 10.0.0.1, port 53556
[  6] local 10.0.0.5 port 5565 connected to 10.0.0.1 port 35366
[ ID] Interval           Transfer     Bandwidth       Total Datagrams
[  6]   0.00-1.00   sec  23.4 MBytes   196 Mbits/sec  17528  
[  6]   1.00-2.00   sec  29.9 MBytes   251 Mbits/sec  22387  
[  6]   2.00-3.00   sec  29.5 MBytes   248 Mbits/sec  22116  
[  6]   3.00-4.00   sec  27.8 MBytes   233 Mbits/sec  20829  
[  6]   4.00-5.00   sec  30.2 MBytes   254 Mbits/sec  22641  
[  6]   5.00-6.00   sec  28.9 MBytes   242 Mbits/sec  21639  
[  6]   6.00-7.00   sec  29.0 MBytes   243 Mbits/sec  21691  
[  6]   7.00-8.00   sec  28.2 MBytes   237 Mbits/sec  21158  
[  6]   8.00-9.00   sec  27.6 MBytes   231 Mbits/sec  20665  
[  6]   9.00-10.00  sec  27.0 MBytes   227 Mbits/sec  20240  
[  6]  10.00-11.00  sec  30.0 MBytes   252 Mbits/sec  22470  
[  6]  11.00-12.00  sec  28.3 MBytes   237 Mbits/sec  21161  
[  6]  12.00-13.00  sec  29.6 MBytes   248 Mbits/sec  22172  
[  6]  13.00-14.00  sec  30.2 MBytes   253 Mbits/sec  22630  
[  6]  14.00-15.00  sec  28.3 MBytes   237 Mbits/sec  21172  
[  6]  15.00-16.00  sec  28.4 MBytes   238 Mbits/sec  21248  
[  6]  16.00-17.00  sec  29.9 MBytes   250 Mbits/sec  22363  
[  6]  17.00-18.00  sec  26.9 MBytes   226 Mbits/sec  20161  
[  6]  18.00-19.00  sec  25.7 MBytes   216 Mbits/sec  19258  
[  6]  19.00-20.00  sec  25.6 MBytes   214 Mbits/sec  19150  
[  6]  20.00-21.00  sec  26.6 MBytes   223 Mbits/sec  19936  
[  6]  21.00-22.00  sec  26.5 MBytes   223 Mbits/sec  19879  
[  6]  22.00-23.00  sec  28.2 MBytes   237 Mbits/sec  21156  
[  6]  23.00-24.00  sec  30.1 MBytes   252 Mbits/sec  22532  
[  6]  24.00-25.00  sec  30.9 MBytes   260 Mbits/sec  23175  
[  6]  25.00-26.00  sec  30.7 MBytes   257 Mbits/sec  22959  
[  6]  26.00-27.00  sec  30.1 MBytes   253 Mbits/sec  22556  
[  6]  27.00-28.00  sec  28.5 MBytes   239 Mbits/sec  21346  
[  6]  28.00-29.00  sec  30.9 MBytes   259 Mbits/sec  23132  
[  6]  29.00-30.00  sec  29.1 MBytes   244 Mbits/sec  21794  
[  6]  30.00-31.00  sec  30.4 MBytes   255 Mbits/sec  22779  
[  6]  31.00-32.00  sec  30.0 MBytes   252 Mbits/sec  22460  
[  6]  32.00-33.00  sec  30.8 MBytes   258 Mbits/sec  23032  
[  6]  33.00-33.25  sec  6.75 MBytes   230 Mbits/sec  5053  
- - - - - - - - - - - - - - - - - - - - - - - - -
[ ID] Interval           Transfer     Bandwidth       Jitter    Lost/Total Datagrams
[  6]   0.00-33.25  sec   954 MBytes   241 Mbits/sec  0.000 ms  0/714468 (0%)  
-----------------------------------------------------------
Server listening on 5565
-----------------------------------------------------------
Accepted connection from 10.0.0.1, port 53560
[  6] local 10.0.0.5 port 5565 connected to 10.0.0.1 port 36006
[ ID] Interval           Transfer     Bandwidth       Total Datagrams
[  6]   0.00-1.00   sec  29.0 MBytes   243 Mbits/sec  21699  
[  6]   1.00-2.00   sec  30.6 MBytes   256 Mbits/sec  22894  
[  6]   2.00-3.00   sec  32.4 MBytes   271 Mbits/sec  24239  
[  6]   3.00-4.00   sec  32.6 MBytes   273 Mbits/sec  24391  
[  6]   4.00-5.00   sec  32.3 MBytes   271 Mbits/sec  24162  
[  6]   5.00-6.00   sec  32.0 MBytes   269 Mbits/sec  23997  
[  6]   6.00-7.00   sec  31.1 MBytes   261 Mbits/sec  23310  
[  6]   7.00-8.00   sec  31.9 MBytes   268 Mbits/sec  23906  
[  6]   8.00-9.00   sec  31.8 MBytes   267 Mbits/sec  23845  
[  6]   9.00-10.00  sec  32.0 MBytes   268 Mbits/sec  23961  
[  6]  10.00-11.00  sec  32.5 MBytes   273 Mbits/sec  24347  
[  6]  11.00-12.00  sec  28.4 MBytes   238 Mbits/sec  21287  
[  6]  12.00-13.00  sec  22.4 MBytes   188 Mbits/sec  16777  
[  6]  13.00-14.00  sec  28.1 MBytes   235 Mbits/sec  21018  
[  6]  14.00-15.00  sec  30.9 MBytes   258 Mbits/sec  23111  
[  6]  15.00-16.00  sec  33.1 MBytes   278 Mbits/sec  24801  
[  6]  16.00-17.00  sec  33.7 MBytes   283 Mbits/sec  25235  
[  6]  17.00-18.00  sec  33.2 MBytes   278 Mbits/sec  24844  
[  6]  18.00-19.00  sec  33.4 MBytes   280 Mbits/sec  25029  
[  6]  19.00-20.00  sec  33.4 MBytes   280 Mbits/sec  25024  
[  6]  20.00-21.00  sec  33.4 MBytes   280 Mbits/sec  25036  
[  6]  21.00-22.00  sec  33.7 MBytes   283 Mbits/sec  25232  
[  6]  22.00-23.00  sec  33.2 MBytes   279 Mbits/sec  24879  
[  6]  23.00-24.00  sec  33.4 MBytes   280 Mbits/sec  25013  
[  6]  24.00-25.00  sec  33.6 MBytes   282 Mbits/sec  25149  
[  6]  25.00-26.00  sec  33.4 MBytes   280 Mbits/sec  25007  
[  6]  26.00-27.00  sec  33.1 MBytes   277 Mbits/sec  24759  
[  6]  27.00-28.00  sec  33.1 MBytes   278 Mbits/sec  24796  
[  6]  28.00-29.00  sec  33.4 MBytes   280 Mbits/sec  25020  
[  6]  29.00-29.87  sec  29.0 MBytes   279 Mbits/sec  21695  
- - - - - - - - - - - - - - - - - - - - - - - - -
[ ID] Interval           Transfer     Bandwidth       Jitter    Lost/Total Datagrams
[  6]   0.00-29.87  sec   954 MBytes   268 Mbits/sec  0.000 ms  0/714463 (0%)  
-----------------------------------------------------------
Server listening on 5565
-----------------------------------------------------------
Accepted connection from 10.0.0.1, port 53562
[  6] local 10.0.0.5 port 5565 connected to 10.0.0.1 port 35625
[ ID] Interval           Transfer     Bandwidth       Total Datagrams
[  6]   0.00-1.00   sec  27.0 MBytes   227 Mbits/sec  20241  
[  6]   1.00-2.00   sec  31.1 MBytes   261 Mbits/sec  23280  
[  6]   2.00-3.00   sec  32.3 MBytes   271 Mbits/sec  24212  
[  6]   3.00-4.00   sec  32.6 MBytes   274 Mbits/sec  24442  
[  6]   4.00-5.00   sec  32.2 MBytes   270 Mbits/sec  24142  
[  6]   5.00-6.00   sec  31.8 MBytes   267 Mbits/sec  23813  
[  6]   6.00-7.00   sec  31.5 MBytes   264 Mbits/sec  23571  
[  6]   7.00-8.00   sec  31.3 MBytes   263 Mbits/sec  23465  
[  6]   8.00-9.00   sec  31.5 MBytes   264 Mbits/sec  23611  
[  6]   9.00-10.00  sec  32.1 MBytes   269 Mbits/sec  24014  
[  6]  10.00-11.00  sec  32.6 MBytes   274 Mbits/sec  24438  
[  6]  11.00-12.00  sec  32.8 MBytes   275 Mbits/sec  24576  
[  6]  12.00-13.00  sec  33.0 MBytes   277 Mbits/sec  24718  
[  6]  13.00-14.00  sec  32.7 MBytes   274 Mbits/sec  24466  
[  6]  14.00-15.00  sec  32.9 MBytes   276 Mbits/sec  24663  
[  6]  15.00-16.00  sec  33.3 MBytes   279 Mbits/sec  24918  
[  6]  16.00-17.00  sec  32.9 MBytes   276 Mbits/sec  24642  
[  6]  17.00-18.00  sec  33.7 MBytes   283 Mbits/sec  25233  
[  6]  18.00-19.00  sec  33.1 MBytes   278 Mbits/sec  24823  
[  6]  19.00-20.00  sec  33.4 MBytes   280 Mbits/sec  24989  
[  6]  20.00-21.00  sec  33.5 MBytes   281 Mbits/sec  25111  
[  6]  21.00-22.00  sec  33.2 MBytes   278 Mbits/sec  24840  
[  6]  22.00-23.00  sec  33.6 MBytes   282 Mbits/sec  25149  
[  6]  23.00-24.00  sec  33.2 MBytes   278 Mbits/sec  24832  
[  6]  24.00-25.00  sec  33.0 MBytes   277 Mbits/sec  24693  
[  6]  25.00-26.00  sec  32.6 MBytes   273 Mbits/sec  24411  
[  6]  26.00-27.00  sec  33.2 MBytes   279 Mbits/sec  24883  
[  6]  27.00-28.00  sec  33.7 MBytes   283 Mbits/sec  25226  
[  6]  28.00-29.00  sec  33.3 MBytes   280 Mbits/sec  24974  
[  6]  29.00-29.32  sec  10.9 MBytes   283 Mbits/sec  8132  
- - - - - - - - - - - - - - - - - - - - - - - - -
[ ID] Interval           Transfer     Bandwidth       Jitter    Lost/Total Datagrams
[  6]   0.00-29.32  sec   954 MBytes   273 Mbits/sec  0.000 ms  0/714508 (0%)  
-----------------------------------------------------------
Server listening on 5565
-----------------------------------------------------------
Accepted connection from 10.0.0.1, port 53566
[  6] local 10.0.0.5 port 5565 connected to 10.0.0.1 port 60912
[ ID] Interval           Transfer     Bandwidth       Total Datagrams
[  6]   0.00-1.00   sec  25.0 MBytes   210 Mbits/sec  18713  
[  6]   1.00-2.00   sec  26.5 MBytes   222 Mbits/sec  19817  
[  6]   2.00-3.00   sec  31.5 MBytes   264 Mbits/sec  23576  
[  6]   3.00-4.00   sec  31.7 MBytes   266 Mbits/sec  23776  
[  6]   4.00-5.00   sec  31.3 MBytes   263 Mbits/sec  23444  
[  6]   5.00-6.00   sec  30.1 MBytes   252 Mbits/sec  22529  
[  6]   6.00-7.00   sec  29.5 MBytes   247 Mbits/sec  22089  
[  6]   7.00-8.00   sec  29.2 MBytes   245 Mbits/sec  21841  
[  6]   8.00-9.00   sec  28.8 MBytes   242 Mbits/sec  21588  
[  6]   9.00-10.00  sec  25.3 MBytes   213 Mbits/sec  18977  
[  6]  10.00-11.00  sec  24.3 MBytes   204 Mbits/sec  18177  
[  6]  11.00-12.00  sec  25.7 MBytes   216 Mbits/sec  19247  
[  6]  12.00-13.00  sec  24.3 MBytes   203 Mbits/sec  18169  
[  6]  13.00-14.00  sec  23.9 MBytes   200 Mbits/sec  17897  
[  6]  14.00-15.00  sec  24.6 MBytes   206 Mbits/sec  18420  
[  6]  15.00-16.00  sec  22.7 MBytes   190 Mbits/sec  16969  
[  6]  16.00-17.00  sec  27.9 MBytes   234 Mbits/sec  20909  
[  6]  17.00-18.00  sec  28.0 MBytes   235 Mbits/sec  21001  
[  6]  18.00-19.00  sec  31.0 MBytes   260 Mbits/sec  23194  
[  6]  19.00-20.00  sec  26.0 MBytes   218 Mbits/sec  19487  
[  6]  20.00-21.00  sec  29.3 MBytes   246 Mbits/sec  21937  
[  6]  21.00-22.00  sec  31.6 MBytes   265 Mbits/sec  23663  
[  6]  22.00-23.00  sec  31.1 MBytes   261 Mbits/sec  23282  
[  6]  23.00-24.00  sec  31.2 MBytes   262 Mbits/sec  23388  
[  6]  24.00-25.00  sec  30.5 MBytes   256 Mbits/sec  22836  
[  6]  25.00-26.00  sec  30.1 MBytes   252 Mbits/sec  22541  
[  6]  26.00-27.00  sec  32.4 MBytes   272 Mbits/sec  24288  
[  6]  27.00-28.00  sec  32.8 MBytes   275 Mbits/sec  24557  
[  6]  28.00-29.00  sec  31.8 MBytes   267 Mbits/sec  23843  
[  6]  29.00-30.00  sec  32.2 MBytes   271 Mbits/sec  24152  
[  6]  30.00-31.00  sec  30.1 MBytes   252 Mbits/sec  22532  
[  6]  31.00-32.00  sec  32.0 MBytes   268 Mbits/sec  23963  
[  6]  32.00-33.00  sec  30.7 MBytes   258 Mbits/sec  22998  
[  6]  33.00-33.02  sec   749 KBytes   260 Mbits/sec  548  
- - - - - - - - - - - - - - - - - - - - - - - - -
[ ID] Interval           Transfer     Bandwidth       Jitter    Lost/Total Datagrams
[  6]   0.00-33.02  sec   954 MBytes   242 Mbits/sec  0.000 ms  0/714348 (0%)  
-----------------------------------------------------------
Server listening on 5565
-----------------------------------------------------------
Accepted connection from 10.0.0.1, port 53568
[  6] local 10.0.0.5 port 5565 connected to 10.0.0.1 port 36892
[ ID] Interval           Transfer     Bandwidth       Total Datagrams
[  6]   0.00-1.00   sec  28.3 MBytes   237 Mbits/sec  21195  
[  6]   1.00-2.00   sec  31.3 MBytes   262 Mbits/sec  23430  
[  6]   2.00-3.00   sec  32.3 MBytes   271 Mbits/sec  24225  
[  6]   3.00-4.00   sec  32.7 MBytes   274 Mbits/sec  24456  
[  6]   4.00-5.00   sec  32.4 MBytes   272 Mbits/sec  24276  
[  6]   5.00-6.00   sec  31.4 MBytes   263 Mbits/sec  23481  
[  6]   6.00-7.00   sec  31.7 MBytes   266 Mbits/sec  23760  
[  6]   7.00-8.00   sec  31.9 MBytes   268 Mbits/sec  23923  
[  6]   8.00-9.00   sec  32.5 MBytes   272 Mbits/sec  24306  
[  6]   9.00-10.00  sec  31.5 MBytes   264 Mbits/sec  23570  
[  6]  10.00-11.00  sec  32.0 MBytes   269 Mbits/sec  23996  
[  6]  11.00-12.00  sec  32.2 MBytes   270 Mbits/sec  24102  
[  6]  12.00-13.00  sec  33.0 MBytes   277 Mbits/sec  24698  
[  6]  13.00-14.00  sec  32.6 MBytes   274 Mbits/sec  24436  
[  6]  14.00-15.00  sec  32.6 MBytes   273 Mbits/sec  24410  
[  6]  15.00-16.00  sec  33.0 MBytes   277 Mbits/sec  24735  
[  6]  16.00-17.00  sec  34.0 MBytes   285 Mbits/sec  25449  
[  6]  17.00-18.00  sec  33.2 MBytes   278 Mbits/sec  24838  
[  6]  18.00-19.00  sec  32.7 MBytes   274 Mbits/sec  24497  
[  6]  19.00-20.00  sec  33.0 MBytes   277 Mbits/sec  24702  
[  6]  20.00-21.00  sec  33.7 MBytes   283 Mbits/sec  25239  
[  6]  21.00-22.00  sec  31.8 MBytes   267 Mbits/sec  23825  
[  6]  22.00-23.00  sec  32.7 MBytes   274 Mbits/sec  24456  
[  6]  23.00-24.00  sec  32.5 MBytes   273 Mbits/sec  24364  
[  6]  24.00-25.00  sec  32.4 MBytes   272 Mbits/sec  24265  
[  6]  25.00-26.00  sec  32.7 MBytes   274 Mbits/sec  24471  
[  6]  26.00-27.00  sec  32.3 MBytes   271 Mbits/sec  24221  
[  6]  27.00-28.00  sec  32.2 MBytes   271 Mbits/sec  24144  
[  6]  28.00-29.00  sec  32.8 MBytes   275 Mbits/sec  24579  
[  6]  29.00-29.54  sec  17.5 MBytes   270 Mbits/sec  13100  
- - - - - - - - - - - - - - - - - - - - - - - - -
[ ID] Interval           Transfer     Bandwidth       Jitter    Lost/Total Datagrams
[  6]   0.00-29.54  sec   955 MBytes   271 Mbits/sec  0.000 ms  0/715149 (0%)  
-----------------------------------------------------------
Server listening on 5565
-----------------------------------------------------------
Accepted connection from 10.0.0.1, port 53572
[  6] local 10.0.0.5 port 5565 connected to 10.0.0.1 port 38981
[ ID] Interval           Transfer     Bandwidth       Total Datagrams
[  6]   0.00-1.00   sec  28.7 MBytes   241 Mbits/sec  21527  
[  6]   1.00-2.00   sec  32.1 MBytes   270 Mbits/sec  24066  
[  6]   2.00-3.00   sec  31.7 MBytes   266 Mbits/sec  23779  
[  6]   3.00-4.00   sec  32.4 MBytes   272 Mbits/sec  24256  
[  6]   4.00-5.00   sec  32.2 MBytes   270 Mbits/sec  24134  
[  6]   5.00-6.00   sec  32.0 MBytes   269 Mbits/sec  23999  
[  6]   6.00-7.00   sec  32.0 MBytes   269 Mbits/sec  24003  
[  6]   7.00-8.00   sec  32.1 MBytes   270 Mbits/sec  24063  
[  6]   8.00-9.00   sec  31.7 MBytes   266 Mbits/sec  23762  
[  6]   9.00-10.00  sec  31.8 MBytes   266 Mbits/sec  23782  
[  6]  10.00-11.00  sec  32.6 MBytes   274 Mbits/sec  24430  
[  6]  11.00-12.00  sec  32.8 MBytes   275 Mbits/sec  24549  
[  6]  12.00-13.00  sec  32.8 MBytes   275 Mbits/sec  24547  
[  6]  13.00-14.00  sec  32.5 MBytes   273 Mbits/sec  24367  
[  6]  14.00-15.00  sec  32.4 MBytes   272 Mbits/sec  24245  
[  6]  15.00-16.00  sec  33.2 MBytes   279 Mbits/sec  24869  
[  6]  16.00-17.00  sec  33.2 MBytes   279 Mbits/sec  24899  
[  6]  17.00-18.00  sec  33.7 MBytes   283 Mbits/sec  25231  
[  6]  18.00-19.00  sec  33.4 MBytes   280 Mbits/sec  24989  
[  6]  19.00-20.00  sec  33.3 MBytes   279 Mbits/sec  24946  
[  6]  20.00-21.00  sec  33.3 MBytes   279 Mbits/sec  24963  
[  6]  21.00-22.00  sec  33.2 MBytes   280 Mbits/sec  24885  
[  6]  22.00-23.00  sec  33.4 MBytes   280 Mbits/sec  24980  
[  6]  23.00-24.00  sec  32.3 MBytes   271 Mbits/sec  24186  
[  6]  24.00-25.00  sec  28.7 MBytes   240 Mbits/sec  21466  
[  6]  25.00-26.00  sec  29.0 MBytes   243 Mbits/sec  21705  
[  6]  26.00-27.00  sec  28.7 MBytes   241 Mbits/sec  21494  
[  6]  27.00-28.00  sec  29.1 MBytes   243 Mbits/sec  21758  
[  6]  28.00-29.00  sec  29.1 MBytes   245 Mbits/sec  21779  
[  6]  29.00-29.95  sec  30.7 MBytes   272 Mbits/sec  22987  
- - - - - - - - - - - - - - - - - - - - - - - - -
[ ID] Interval           Transfer     Bandwidth       Jitter    Lost/Total Datagrams
[  6]   0.00-29.95  sec   954 MBytes   267 Mbits/sec  0.000 ms  0/714646 (0%)  
-----------------------------------------------------------
Server listening on 5565
-----------------------------------------------------------
Accepted connection from 10.0.0.1, port 53574
[  6] local 10.0.0.5 port 5565 connected to 10.0.0.1 port 52715
[ ID] Interval           Transfer     Bandwidth       Total Datagrams
[  6]   0.00-1.00   sec  29.1 MBytes   244 Mbits/sec  21811  
[  6]   1.00-2.00   sec  31.8 MBytes   267 Mbits/sec  23806  
[  6]   2.00-3.00   sec  29.7 MBytes   249 Mbits/sec  22265  
[  6]   3.00-4.00   sec  28.1 MBytes   236 Mbits/sec  21049  
[  6]   4.00-5.00   sec  28.4 MBytes   238 Mbits/sec  21248  
[  6]   5.00-6.00   sec  28.0 MBytes   235 Mbits/sec  20974  
[  6]   6.00-7.00   sec  27.9 MBytes   234 Mbits/sec  20881  
[  6]   7.00-8.00   sec  29.6 MBytes   248 Mbits/sec  22142  
[  6]   8.00-9.00   sec  31.7 MBytes   266 Mbits/sec  23772  
[  6]   9.00-10.00  sec  31.0 MBytes   260 Mbits/sec  23199  
[  6]  10.00-11.00  sec  32.3 MBytes   271 Mbits/sec  24218  
[  6]  11.00-12.00  sec  32.7 MBytes   275 Mbits/sec  24529  
[  6]  12.00-13.00  sec  31.3 MBytes   262 Mbits/sec  23431  
[  6]  13.00-14.00  sec  32.7 MBytes   275 Mbits/sec  24511  
[  6]  14.00-15.00  sec  32.7 MBytes   274 Mbits/sec  24468  
[  6]  15.00-16.00  sec  33.3 MBytes   279 Mbits/sec  24905  
[  6]  16.00-17.00  sec  33.5 MBytes   281 Mbits/sec  25089  
[  6]  17.00-18.00  sec  33.0 MBytes   277 Mbits/sec  24738  
[  6]  18.00-19.00  sec  33.2 MBytes   279 Mbits/sec  24902  
[  6]  19.00-20.00  sec  33.0 MBytes   277 Mbits/sec  24729  
[  6]  20.00-21.00  sec  32.6 MBytes   272 Mbits/sec  24383  
[  6]  21.00-22.00  sec  32.0 MBytes   269 Mbits/sec  23950  
[  6]  22.00-23.00  sec  31.9 MBytes   268 Mbits/sec  23924  
[  6]  23.00-24.01  sec  32.0 MBytes   267 Mbits/sec  23989  
[  6]  24.01-25.00  sec  32.0 MBytes   270 Mbits/sec  23942  
[  6]  25.00-26.00  sec  32.2 MBytes   270 Mbits/sec  24092  
[  6]  26.00-27.00  sec  32.1 MBytes   269 Mbits/sec  24018  
[  6]  27.00-28.00  sec  32.0 MBytes   268 Mbits/sec  23974  
[  6]  28.00-29.00  sec  31.8 MBytes   267 Mbits/sec  23838  
[  6]  29.00-30.00  sec  32.1 MBytes   269 Mbits/sec  24032  
[  6]  30.00-30.35  sec  11.4 MBytes   269 Mbits/sec  8531  
- - - - - - - - - - - - - - - - - - - - - - - - -
[ ID] Interval           Transfer     Bandwidth       Jitter    Lost/Total Datagrams
[  6]   0.00-30.35  sec   955 MBytes   264 Mbits/sec  0.000 ms  0/715340 (0%)  
-----------------------------------------------------------
Server listening on 5565
-----------------------------------------------------------
Accepted connection from 10.0.0.1, port 53578
[  6] local 10.0.0.5 port 5565 connected to 10.0.0.1 port 52713
[ ID] Interval           Transfer     Bandwidth       Total Datagrams
[  6]   0.00-1.00   sec  28.6 MBytes   240 Mbits/sec  21416  
[  6]   1.00-2.00   sec  32.1 MBytes   269 Mbits/sec  24040  
[  6]   2.00-3.00   sec  32.2 MBytes   271 Mbits/sec  24154  
[  6]   3.00-4.00   sec  32.4 MBytes   272 Mbits/sec  24265  
[  6]   4.00-5.00   sec  32.7 MBytes   274 Mbits/sec  24470  
[  6]   5.00-6.00   sec  31.9 MBytes   267 Mbits/sec  23863  
[  6]   6.00-7.00   sec  32.3 MBytes   271 Mbits/sec  24192  
[  6]   7.00-8.00   sec  32.3 MBytes   271 Mbits/sec  24176  
[  6]   8.00-9.00   sec  32.3 MBytes   271 Mbits/sec  24208  
[  6]   9.00-10.00  sec  32.4 MBytes   271 Mbits/sec  24236  
[  6]  10.00-11.00  sec  32.5 MBytes   273 Mbits/sec  24361  
[  6]  11.00-12.00  sec  32.9 MBytes   276 Mbits/sec  24633  
[  6]  12.00-13.00  sec  33.0 MBytes   276 Mbits/sec  24684  
[  6]  13.00-14.00  sec  33.0 MBytes   277 Mbits/sec  24746  
[  6]  14.00-15.00  sec  32.5 MBytes   273 Mbits/sec  24336  
[  6]  15.00-16.00  sec  32.9 MBytes   276 Mbits/sec  24643  
[  6]  16.00-17.00  sec  33.9 MBytes   284 Mbits/sec  25378  
[  6]  17.00-18.00  sec  33.5 MBytes   281 Mbits/sec  25127  
[  6]  18.00-19.00  sec  33.7 MBytes   283 Mbits/sec  25272  
[  6]  19.00-20.00  sec  32.6 MBytes   273 Mbits/sec  24400  
[  6]  20.00-21.00  sec  32.7 MBytes   274 Mbits/sec  24475  
[  6]  21.00-22.00  sec  32.1 MBytes   270 Mbits/sec  24072  
[  6]  22.00-23.00  sec  32.0 MBytes   269 Mbits/sec  24003  
[  6]  23.00-24.00  sec  31.4 MBytes   263 Mbits/sec  23512  
[  6]  24.00-25.00  sec  32.6 MBytes   273 Mbits/sec  24416  
[  6]  25.00-26.00  sec  32.4 MBytes   272 Mbits/sec  24300  
[  6]  26.00-27.00  sec  31.8 MBytes   266 Mbits/sec  23789  
[  6]  27.00-28.00  sec  31.7 MBytes   266 Mbits/sec  23743  
[  6]  28.00-29.00  sec  31.2 MBytes   262 Mbits/sec  23366  
[  6]  29.00-29.54  sec  16.9 MBytes   265 Mbits/sec  12687  
- - - - - - - - - - - - - - - - - - - - - - - - -
[ ID] Interval           Transfer     Bandwidth       Jitter    Lost/Total Datagrams
[  6]   0.00-29.54  sec   955 MBytes   271 Mbits/sec  0.000 ms  0/714963 (0%)  
-----------------------------------------------------------
Server listening on 5565
-----------------------------------------------------------
Accepted connection from 10.0.0.1, port 53580
[  6] local 10.0.0.5 port 5565 connected to 10.0.0.1 port 47184
[ ID] Interval           Transfer     Bandwidth       Total Datagrams
[  6]   0.00-1.00   sec  29.6 MBytes   248 Mbits/sec  22152  
[  6]   1.00-2.00   sec  32.4 MBytes   272 Mbits/sec  24303  
[  6]   2.00-3.00   sec  32.3 MBytes   271 Mbits/sec  24220  
[  6]   3.00-4.00   sec  32.8 MBytes   275 Mbits/sec  24540  
[  6]   4.00-5.00   sec  32.3 MBytes   271 Mbits/sec  24204  
[  6]   5.00-6.00   sec  32.0 MBytes   268 Mbits/sec  23946  
[  6]   6.00-7.00   sec  32.2 MBytes   270 Mbits/sec  24147  
[  6]   7.00-8.00   sec  32.1 MBytes   270 Mbits/sec  24073  
[  6]   8.00-9.00   sec  31.9 MBytes   268 Mbits/sec  23883  
[  6]   9.00-10.00  sec  31.2 MBytes   262 Mbits/sec  23391  
[  6]  10.00-11.00  sec  31.8 MBytes   266 Mbits/sec  23784  
[  6]  11.00-12.00  sec  32.2 MBytes   270 Mbits/sec  24134  
[  6]  12.00-13.00  sec  30.1 MBytes   253 Mbits/sec  22547  
[  6]  13.00-14.00  sec  31.8 MBytes   267 Mbits/sec  23851  
[  6]  14.00-15.00  sec  32.0 MBytes   269 Mbits/sec  23990  
[  6]  15.00-16.00  sec  32.6 MBytes   274 Mbits/sec  24433  
[  6]  16.00-17.00  sec  32.8 MBytes   275 Mbits/sec  24542  
[  6]  17.00-18.00  sec  30.0 MBytes   252 Mbits/sec  22470  
[  6]  18.00-19.00  sec  31.9 MBytes   268 Mbits/sec  23884  
[  6]  19.00-20.00  sec  28.8 MBytes   241 Mbits/sec  21552  
[  6]  20.00-21.00  sec  28.0 MBytes   235 Mbits/sec  20949  
[  6]  21.00-22.00  sec  29.5 MBytes   247 Mbits/sec  22096  
[  6]  22.00-23.00  sec  29.7 MBytes   249 Mbits/sec  22253  
[  6]  23.00-24.00  sec  30.0 MBytes   252 Mbits/sec  22502  
[  6]  24.00-25.00  sec  31.9 MBytes   268 Mbits/sec  23916  
[  6]  25.00-26.00  sec  33.5 MBytes   281 Mbits/sec  25125  
[  6]  26.00-27.00  sec  33.7 MBytes   283 Mbits/sec  25245  
[  6]  27.00-28.00  sec  33.1 MBytes   278 Mbits/sec  24816  
[  6]  28.00-29.00  sec  32.0 MBytes   268 Mbits/sec  23950  
[  6]  29.00-30.00  sec  32.3 MBytes   271 Mbits/sec  24197  
[  6]  30.00-30.22  sec  7.01 MBytes   270 Mbits/sec  5251  
- - - - - - - - - - - - - - - - - - - - - - - - -
[ ID] Interval           Transfer     Bandwidth       Jitter    Lost/Total Datagrams
[  6]   0.00-30.22  sec   954 MBytes   265 Mbits/sec  0.000 ms  0/714346 (0%)  
-----------------------------------------------------------
Server listening on 5565
-----------------------------------------------------------
Accepted connection from 10.0.0.1, port 53584
[  6] local 10.0.0.5 port 5565 connected to 10.0.0.1 port 43815
[ ID] Interval           Transfer     Bandwidth       Total Datagrams
[  6]   0.00-1.00   sec  25.5 MBytes   214 Mbits/sec  19112  
[  6]   1.00-2.00   sec  29.2 MBytes   245 Mbits/sec  21870  
[  6]   2.00-3.00   sec  32.1 MBytes   269 Mbits/sec  24046  
[  6]   3.00-4.00   sec  31.5 MBytes   264 Mbits/sec  23608  
[  6]   4.00-5.00   sec  32.0 MBytes   268 Mbits/sec  23939  
[  6]   5.00-6.00   sec  31.6 MBytes   265 Mbits/sec  23658  
[  6]   6.00-7.00   sec  30.0 MBytes   252 Mbits/sec  22480  
[  6]   7.00-8.00   sec  31.5 MBytes   264 Mbits/sec  23557  
[  6]   8.00-9.00   sec  31.7 MBytes   266 Mbits/sec  23753  
[  6]   9.00-10.00  sec  31.8 MBytes   267 Mbits/sec  23841  
[  6]  10.00-11.00  sec  32.5 MBytes   272 Mbits/sec  24328  
[  6]  11.00-12.00  sec  32.8 MBytes   276 Mbits/sec  24603  
[  6]  12.00-13.00  sec  32.5 MBytes   273 Mbits/sec  24345  
[  6]  13.00-14.00  sec  32.5 MBytes   273 Mbits/sec  24354  
[  6]  14.00-15.00  sec  32.6 MBytes   274 Mbits/sec  24439  
[  6]  15.00-16.00  sec  33.0 MBytes   277 Mbits/sec  24714  
[  6]  16.00-17.00  sec  33.3 MBytes   280 Mbits/sec  24962  
[  6]  17.00-18.00  sec  33.3 MBytes   279 Mbits/sec  24931  
[  6]  18.00-19.00  sec  33.3 MBytes   279 Mbits/sec  24919  
[  6]  19.00-20.00  sec  33.4 MBytes   280 Mbits/sec  24997  
[  6]  20.00-21.00  sec  33.5 MBytes   280 Mbits/sec  25066  
[  6]  21.00-22.00  sec  32.6 MBytes   275 Mbits/sec  24431  
[  6]  22.00-23.00  sec  33.0 MBytes   276 Mbits/sec  24684  
[  6]  23.00-24.00  sec  32.4 MBytes   272 Mbits/sec  24260  
[  6]  24.00-25.00  sec  33.1 MBytes   277 Mbits/sec  24765  
[  6]  25.00-26.00  sec  32.4 MBytes   272 Mbits/sec  24287  
[  6]  26.00-27.00  sec  33.0 MBytes   277 Mbits/sec  24692  
[  6]  27.00-28.00  sec  32.5 MBytes   273 Mbits/sec  24334  
[  6]  28.00-29.00  sec  33.0 MBytes   277 Mbits/sec  24744  
[  6]  29.00-29.70  sec  22.9 MBytes   273 Mbits/sec  17138  
- - - - - - - - - - - - - - - - - - - - - - - - -
[ ID] Interval           Transfer     Bandwidth       Jitter    Lost/Total Datagrams
[  6]   0.00-29.70  sec   954 MBytes   270 Mbits/sec  0.000 ms  0/714857 (0%)  
-----------------------------------------------------------
Server listening on 5565
-----------------------------------------------------------
Accepted connection from 10.0.0.1, port 53588
[  6] local 10.0.0.5 port 5565 connected to 10.0.0.1 port 46770
[ ID] Interval           Transfer     Bandwidth       Total Datagrams
[  6]   0.00-1.00   sec  28.8 MBytes   241 Mbits/sec  21558  
[  6]   1.00-2.00   sec  31.8 MBytes   267 Mbits/sec  23783  
[  6]   2.00-3.00   sec  31.7 MBytes   266 Mbits/sec  23732  
[  6]   3.00-4.00   sec  31.9 MBytes   268 Mbits/sec  23900  
[  6]   4.00-5.00   sec  30.3 MBytes   254 Mbits/sec  22694  
[  6]   5.00-6.00   sec  28.4 MBytes   238 Mbits/sec  21261  
[  6]   6.00-7.00   sec  30.3 MBytes   254 Mbits/sec  22709  
[  6]   7.00-8.00   sec  31.4 MBytes   263 Mbits/sec  23491  
[  6]   8.00-9.00   sec  31.2 MBytes   262 Mbits/sec  23361  
[  6]   9.00-10.00  sec  31.6 MBytes   265 Mbits/sec  23692  
[  6]  10.00-11.00  sec  31.8 MBytes   267 Mbits/sec  23847  
[  6]  11.00-12.00  sec  31.6 MBytes   265 Mbits/sec  23704  
[  6]  12.00-13.00  sec  32.2 MBytes   270 Mbits/sec  24115  
[  6]  13.00-14.00  sec  32.6 MBytes   273 Mbits/sec  24419  
[  6]  14.00-15.00  sec  31.8 MBytes   267 Mbits/sec  23853  
[  6]  15.00-16.00  sec  31.9 MBytes   267 Mbits/sec  23884  
[  6]  16.00-17.00  sec  33.3 MBytes   279 Mbits/sec  24912  
[  6]  17.00-18.00  sec  33.4 MBytes   280 Mbits/sec  24987  
[  6]  18.00-19.00  sec  33.4 MBytes   280 Mbits/sec  24982  
[  6]  19.00-20.00  sec  33.0 MBytes   277 Mbits/sec  24738  
[  6]  20.00-21.00  sec  32.9 MBytes   275 Mbits/sec  24630  
[  6]  21.00-22.00  sec  32.7 MBytes   275 Mbits/sec  24472  
[  6]  22.00-23.00  sec  33.0 MBytes   277 Mbits/sec  24722  
[  6]  23.00-24.00  sec  33.3 MBytes   279 Mbits/sec  24916  
[  6]  24.00-25.00  sec  33.3 MBytes   280 Mbits/sec  24975  
[  6]  25.00-26.00  sec  32.9 MBytes   276 Mbits/sec  24650  
[  6]  26.00-27.00  sec  33.2 MBytes   279 Mbits/sec  24896  
[  6]  27.00-28.00  sec  30.8 MBytes   258 Mbits/sec  23065  
[  6]  28.00-29.00  sec  32.5 MBytes   272 Mbits/sec  24305  
[  6]  29.00-29.93  sec  28.7 MBytes   259 Mbits/sec  21486  
- - - - - - - - - - - - - - - - - - - - - - - - -
[ ID] Interval           Transfer     Bandwidth       Jitter    Lost/Total Datagrams
[  6]   0.00-29.93  sec   956 MBytes   268 Mbits/sec  0.000 ms  0/715739 (0%)  
