%!PS-Adobe-3.0 EPSF-3.0
%%Title: results/full_symmetry/throughput_full.eps
%%Creator: matplotlib version 3.3.0, http://matplotlib.org/
%%CreationDate: Fri Aug 14 02:43:42 2020
%%Orientation: portrait
%%BoundingBox: 92.42750000000002 234.99399999999991 519.5725 557.0060000000001
%%EndComments
%%BeginProlog
/mpldict 8 dict def
mpldict begin
/m { moveto } bind def
/l { lineto } bind def
/r { rlineto } bind def
/c { curveto } bind def
/cl { closepath } bind def
/box {
      m
      1 index 0 r
      0 exch r
      neg 0 r
      cl
    } bind def
/clipbox {
      box
      clip
      newpath
    } bind def
%!PS-Adobe-3.0 Resource-Font
%%Title: DejaVu Sans
%%Copyright: Copyright (c) 2003 by Bitstream, Inc. All Rights Reserved. Copyright (c) 2006 by Tavmjong Bah. All Rights Reserved. DejaVu changes are in public domain 
%%Creator: Converted from TrueType to type 3 by PPR
25 dict begin
/_d{bind def}bind def
/_m{moveto}_d
/_l{lineto}_d
/_cl{closepath eofill}_d
/_c{curveto}_d
/_sc{7 -1 roll{setcachedevice}{pop pop pop pop pop pop}ifelse}_d
/_e{exec}_d
/FontName /DejaVuSans def
/PaintType 0 def
/FontMatrix[.001 0 0 .001 0 0]def
/FontBBox[-1021 -463 1793 1232]def
/FontType 3 def
/Encoding [ /space /parenleft /parenright /slash /zero /one /two /three /four /five /six /M /T /b /c /e /g /h /i /m /o /p /r /s /t /u ] def
/FontInfo 10 dict dup begin
/FamilyName (DejaVu Sans) def
/FullName (DejaVu Sans) def
/Notice (Copyright (c) 2003 by Bitstream, Inc. All Rights Reserved. Copyright (c) 2006 by Tavmjong Bah. All Rights Reserved. DejaVu changes are in public domain ) def
/Weight (Book) def
/Version (Version 2.35) def
/ItalicAngle 0.0 def
/isFixedPitch false def
/UnderlinePosition -130 def
/UnderlineThickness 90 def
end readonly def
/CharStrings 27 dict dup begin
/.notdef 0 def
/space{318 0 0 0 0 0 _sc
}_d
/parenleft{390 0 86 -131 310 759 _sc
310 759 _m
266 683 234 609 213 536 _c
191 463 181 389 181 314 _c
181 238 191 164 213 91 _c
234 17 266 -56 310 -131 _c
232 -131 _l
183 -54 146 20 122 94 _c
98 168 86 241 86 314 _c
86 386 98 459 122 533 _c
146 607 182 682 232 759 _c
310 759 _l
_cl}_d
/parenright{390 0 80 -131 304 759 _sc
80 759 _m
158 759 _l
206 682 243 607 267 533 _c
291 459 304 386 304 314 _c
304 241 291 168 267 94 _c
243 20 206 -54 158 -131 _c
80 -131 _l
123 -56 155 17 177 91 _c
198 164 209 238 209 314 _c
209 389 198 463 177 536 _c
155 609 123 683 80 759 _c
_cl}_d
/slash{337 0 0 -92 337 729 _sc
254 729 _m
337 729 _l
83 -92 _l
0 -92 _l
254 729 _l
_cl}_d
/zero{636 0 66 -13 570 742 _sc
318 664 _m
267 664 229 639 203 589 _c
177 539 165 464 165 364 _c
165 264 177 189 203 139 _c
229 89 267 64 318 64 _c
369 64 407 89 433 139 _c
458 189 471 264 471 364 _c
471 464 458 539 433 589 _c
407 639 369 664 318 664 _c
318 742 _m
399 742 461 709 505 645 _c
548 580 570 486 570 364 _c
570 241 548 147 505 83 _c
461 19 399 -13 318 -13 _c
236 -13 173 19 130 83 _c
87 147 66 241 66 364 _c
66 486 87 580 130 645 _c
173 709 236 742 318 742 _c
_cl}_d
/one{636 0 110 0 544 729 _sc
124 83 _m
285 83 _l
285 639 _l
110 604 _l
110 694 _l
284 729 _l
383 729 _l
383 83 _l
544 83 _l
544 0 _l
124 0 _l
124 83 _l
_cl}_d
/two{{636 0 73 0 536 742 _sc
192 83 _m
536 83 _l
536 0 _l
73 0 _l
73 83 _l
110 121 161 173 226 239 _c
290 304 331 346 348 365 _c
380 400 402 430 414 455 _c
426 479 433 504 433 528 _c
433 566 419 598 392 622 _c
365 646 330 659 286 659 _c
255 659 222 653 188 643 _c
154 632 117 616 78 594 _c
78 694 _l
118 710 155 722 189 730 _c
223 738 255 742 284 742 _c
}_e{359 742 419 723 464 685 _c
509 647 532 597 532 534 _c
532 504 526 475 515 449 _c
504 422 484 390 454 354 _c
446 344 420 317 376 272 _c
332 227 271 164 192 83 _c
_cl}_e}_d
/three{{636 0 76 -13 556 742 _sc
406 393 _m
453 383 490 362 516 330 _c
542 298 556 258 556 212 _c
556 140 531 84 482 45 _c
432 6 362 -13 271 -13 _c
240 -13 208 -10 176 -4 _c
144 1 110 10 76 22 _c
76 117 _l
103 101 133 89 166 81 _c
198 73 232 69 268 69 _c
330 69 377 81 409 105 _c
441 129 458 165 458 212 _c
458 254 443 288 413 312 _c
383 336 341 349 287 349 _c
}_e{202 349 _l
202 430 _l
291 430 _l
339 430 376 439 402 459 _c
428 478 441 506 441 543 _c
441 580 427 609 401 629 _c
374 649 336 659 287 659 _c
260 659 231 656 200 650 _c
169 644 135 635 98 623 _c
98 711 _l
135 721 170 729 203 734 _c
235 739 266 742 296 742 _c
370 742 429 725 473 691 _c
517 657 539 611 539 553 _c
539 513 527 479 504 451 _c
481 423 448 403 406 393 _c
_cl}_e}_d
/four{636 0 49 0 580 729 _sc
378 643 _m
129 254 _l
378 254 _l
378 643 _l
352 729 _m
476 729 _l
476 254 _l
580 254 _l
580 172 _l
476 172 _l
476 0 _l
378 0 _l
378 172 _l
49 172 _l
49 267 _l
352 729 _l
_cl}_d
/five{{636 0 77 -13 549 729 _sc
108 729 _m
495 729 _l
495 646 _l
198 646 _l
198 467 _l
212 472 227 476 241 478 _c
255 480 270 482 284 482 _c
365 482 429 459 477 415 _c
525 370 549 310 549 234 _c
549 155 524 94 475 51 _c
426 8 357 -13 269 -13 _c
238 -13 207 -10 175 -6 _c
143 -1 111 6 77 17 _c
77 116 _l
106 100 136 88 168 80 _c
199 72 232 69 267 69 _c
}_e{323 69 368 83 401 113 _c
433 143 450 183 450 234 _c
450 284 433 324 401 354 _c
368 384 323 399 267 399 _c
241 399 214 396 188 390 _c
162 384 135 375 108 363 _c
108 729 _l
_cl}_e}_d
/six{{636 0 70 -13 573 742 _sc
330 404 _m
286 404 251 388 225 358 _c
199 328 186 286 186 234 _c
186 181 199 139 225 109 _c
251 79 286 64 330 64 _c
374 64 409 79 435 109 _c
461 139 474 181 474 234 _c
474 286 461 328 435 358 _c
409 388 374 404 330 404 _c
526 713 _m
526 623 _l
501 635 476 644 451 650 _c
425 656 400 659 376 659 _c
310 659 260 637 226 593 _c
}_e{192 549 172 482 168 394 _c
187 422 211 444 240 459 _c
269 474 301 482 336 482 _c
409 482 467 459 509 415 _c
551 371 573 310 573 234 _c
573 159 550 99 506 54 _c
462 9 403 -13 330 -13 _c
246 -13 181 19 137 83 _c
92 147 70 241 70 364 _c
70 479 97 571 152 639 _c
206 707 280 742 372 742 _c
396 742 421 739 447 735 _c
472 730 498 723 526 713 _c
_cl}_e}_d
/M{863 0 98 0 765 729 _sc
98 729 _m
245 729 _l
431 233 _l
618 729 _l
765 729 _l
765 0 _l
669 0 _l
669 640 _l
481 140 _l
382 140 _l
194 640 _l
194 0 _l
98 0 _l
98 729 _l
_cl}_d
/T{611 0 -2 0 614 729 _sc
-2 729 _m
614 729 _l
614 646 _l
355 646 _l
355 0 _l
256 0 _l
256 646 _l
-2 646 _l
-2 729 _l
_cl}_d
/b{{635 0 91 -13 580 760 _sc
487 273 _m
487 339 473 390 446 428 _c
418 466 381 485 334 485 _c
286 485 249 466 222 428 _c
194 390 181 339 181 273 _c
181 207 194 155 222 117 _c
249 79 286 61 334 61 _c
381 61 418 79 446 117 _c
473 155 487 207 487 273 _c
181 464 _m
199 496 223 520 252 536 _c
281 552 316 560 356 560 _c
422 560 476 533 518 481 _c
559 428 580 359 580 273 _c
}_e{580 187 559 117 518 65 _c
476 13 422 -13 356 -13 _c
316 -13 281 -5 252 10 _c
223 25 199 49 181 82 _c
181 0 _l
91 0 _l
91 760 _l
181 760 _l
181 464 _l
_cl}_e}_d
/c{{550 0 55 -13 488 560 _sc
488 526 _m
488 442 _l
462 456 437 466 411 473 _c
385 480 360 484 334 484 _c
276 484 230 465 198 428 _c
166 391 150 339 150 273 _c
150 206 166 154 198 117 _c
230 80 276 62 334 62 _c
360 62 385 65 411 72 _c
437 79 462 90 488 104 _c
488 21 _l
462 9 436 0 410 -5 _c
383 -10 354 -13 324 -13 _c
242 -13 176 12 128 64 _c
}_e{79 115 55 185 55 273 _c
55 362 79 432 128 483 _c
177 534 244 560 330 560 _c
358 560 385 557 411 551 _c
437 545 463 537 488 526 _c
_cl}_e}_d
/e{{615 0 55 -13 562 560 _sc
562 296 _m
562 252 _l
149 252 _l
153 190 171 142 205 110 _c
238 78 284 62 344 62 _c
378 62 412 66 444 74 _c
476 82 509 95 541 113 _c
541 28 _l
509 14 476 3 442 -3 _c
408 -9 373 -13 339 -13 _c
251 -13 182 12 131 62 _c
80 112 55 181 55 268 _c
55 357 79 428 127 481 _c
175 533 241 560 323 560 _c
397 560 455 536 498 489 _c
}_e{540 441 562 377 562 296 _c
472 322 _m
471 371 457 410 431 440 _c
404 469 368 484 324 484 _c
274 484 234 469 204 441 _c
174 413 156 373 152 322 _c
472 322 _l
_cl}_e}_d
/g{{635 0 55 -207 544 560 _sc
454 280 _m
454 344 440 395 414 431 _c
387 467 349 485 301 485 _c
253 485 215 467 188 431 _c
161 395 148 344 148 280 _c
148 215 161 165 188 129 _c
215 93 253 75 301 75 _c
349 75 387 93 414 129 _c
440 165 454 215 454 280 _c
544 68 _m
544 -24 523 -93 482 -139 _c
440 -184 377 -207 292 -207 _c
260 -207 231 -204 203 -200 _c
175 -195 147 -188 121 -178 _c
}_e{121 -91 _l
147 -105 173 -115 199 -122 _c
225 -129 251 -133 278 -133 _c
336 -133 380 -117 410 -87 _c
439 -56 454 -10 454 52 _c
454 96 _l
435 64 411 40 382 24 _c
353 8 319 0 279 0 _c
211 0 157 25 116 76 _c
75 127 55 195 55 280 _c
55 364 75 432 116 483 _c
157 534 211 560 279 560 _c
319 560 353 552 382 536 _c
411 520 435 496 454 464 _c
454 547 _l
544 547 _l
}_e{544 68 _l
_cl}_e}_d
/h{634 0 91 0 549 760 _sc
549 330 _m
549 0 _l
459 0 _l
459 327 _l
459 379 448 417 428 443 _c
408 469 378 482 338 482 _c
289 482 251 466 223 435 _c
195 404 181 362 181 309 _c
181 0 _l
91 0 _l
91 760 _l
181 760 _l
181 462 _l
202 494 227 519 257 535 _c
286 551 320 560 358 560 _c
420 560 468 540 500 501 _c
532 462 549 405 549 330 _c
_cl}_d
/i{278 0 94 0 184 760 _sc
94 547 _m
184 547 _l
184 0 _l
94 0 _l
94 547 _l
94 760 _m
184 760 _l
184 646 _l
94 646 _l
94 760 _l
_cl}_d
/m{{974 0 91 0 889 560 _sc
520 442 _m
542 482 569 511 600 531 _c
631 550 668 560 711 560 _c
767 560 811 540 842 500 _c
873 460 889 403 889 330 _c
889 0 _l
799 0 _l
799 327 _l
799 379 789 418 771 444 _c
752 469 724 482 686 482 _c
639 482 602 466 575 435 _c
548 404 535 362 535 309 _c
535 0 _l
445 0 _l
445 327 _l
445 379 435 418 417 444 _c
398 469 369 482 331 482 _c
}_e{285 482 248 466 221 435 _c
194 404 181 362 181 309 _c
181 0 _l
91 0 _l
91 547 _l
181 547 _l
181 462 _l
201 495 226 520 255 536 _c
283 552 317 560 357 560 _c
397 560 430 550 458 530 _c
486 510 506 480 520 442 _c
_cl}_e}_d
/o{612 0 55 -13 557 560 _sc
306 484 _m
258 484 220 465 192 427 _c
164 389 150 338 150 273 _c
150 207 163 156 191 118 _c
219 80 257 62 306 62 _c
354 62 392 80 420 118 _c
448 156 462 207 462 273 _c
462 337 448 389 420 427 _c
392 465 354 484 306 484 _c
306 560 _m
384 560 445 534 490 484 _c
534 433 557 363 557 273 _c
557 183 534 113 490 63 _c
445 12 384 -13 306 -13 _c
227 -13 165 12 121 63 _c
77 113 55 183 55 273 _c
55 363 77 433 121 484 _c
165 534 227 560 306 560 _c
_cl}_d
/p{{635 0 91 -207 580 560 _sc
181 82 _m
181 -207 _l
91 -207 _l
91 547 _l
181 547 _l
181 464 _l
199 496 223 520 252 536 _c
281 552 316 560 356 560 _c
422 560 476 533 518 481 _c
559 428 580 359 580 273 _c
580 187 559 117 518 65 _c
476 13 422 -13 356 -13 _c
316 -13 281 -5 252 10 _c
223 25 199 49 181 82 _c
487 273 _m
487 339 473 390 446 428 _c
418 466 381 485 334 485 _c
}_e{286 485 249 466 222 428 _c
194 390 181 339 181 273 _c
181 207 194 155 222 117 _c
249 79 286 61 334 61 _c
381 61 418 79 446 117 _c
473 155 487 207 487 273 _c
_cl}_e}_d
/r{411 0 91 0 411 560 _sc
411 463 _m
401 469 390 473 378 476 _c
366 478 353 480 339 480 _c
288 480 249 463 222 430 _c
194 397 181 350 181 288 _c
181 0 _l
91 0 _l
91 547 _l
181 547 _l
181 462 _l
199 495 224 520 254 536 _c
284 552 321 560 365 560 _c
371 560 378 559 386 559 _c
393 558 401 557 411 555 _c
411 463 _l
_cl}_d
/s{{521 0 54 -13 472 560 _sc
443 531 _m
443 446 _l
417 458 391 468 364 475 _c
336 481 308 485 279 485 _c
234 485 200 478 178 464 _c
156 450 145 430 145 403 _c
145 382 153 366 169 354 _c
185 342 217 330 265 320 _c
296 313 _l
360 299 405 279 432 255 _c
458 230 472 195 472 151 _c
472 100 452 60 412 31 _c
372 1 316 -13 246 -13 _c
216 -13 186 -10 154 -5 _c
}_e{122 0 89 8 54 20 _c
54 113 _l
87 95 120 82 152 74 _c
184 65 216 61 248 61 _c
290 61 323 68 346 82 _c
368 96 380 117 380 144 _c
380 168 371 187 355 200 _c
339 213 303 226 247 238 _c
216 245 _l
160 257 119 275 95 299 _c
70 323 58 356 58 399 _c
58 450 76 490 112 518 _c
148 546 200 560 268 560 _c
301 560 332 557 362 552 _c
391 547 418 540 443 531 _c
}_e{_cl}_e}_d
/t{392 0 27 0 368 702 _sc
183 702 _m
183 547 _l
368 547 _l
368 477 _l
183 477 _l
183 180 _l
183 135 189 106 201 94 _c
213 81 238 75 276 75 _c
368 75 _l
368 0 _l
276 0 _l
206 0 158 13 132 39 _c
106 65 93 112 93 180 _c
93 477 _l
27 477 _l
27 547 _l
93 547 _l
93 702 _l
183 702 _l
_cl}_d
/u{634 0 85 -13 543 560 _sc
85 216 _m
85 547 _l
175 547 _l
175 219 _l
175 167 185 129 205 103 _c
225 77 255 64 296 64 _c
344 64 383 79 411 110 _c
439 141 453 183 453 237 _c
453 547 _l
543 547 _l
543 0 _l
453 0 _l
453 84 _l
431 50 405 26 377 10 _c
348 -5 315 -13 277 -13 _c
214 -13 166 6 134 45 _c
101 83 85 140 85 216 _c
311 560 _m
311 560 _l
_cl}_d
end readonly def

/BuildGlyph
 {exch begin
 CharStrings exch
 2 copy known not{pop /.notdef}if
 true 3 1 roll get exec
 end}_d

/BuildChar {
 1 index /Encoding get exch get
 1 index /BuildGlyph get exec
}_d

FontName currentdict end definefont pop
end
%%EndProlog
mpldict begin
92.428 234.994 translate
427.145 322.012 0 0 clipbox
gsave
0 0 m
427.145 0 l
427.145 322.012 l
0 322.012 l
cl
1.000 setgray
fill
grestore
gsave
62.825 48.7 m
419.945 48.7 l
419.945 314.812 l
62.825 314.812 l
cl
1.000 setgray
fill
grestore
0.100 setlinewidth
1 setlinejoin
2 setlinecap
[] 0 setdash
0.000 setgray
gsave
357.1 266.1 62.83 48.7 clipbox
68.235909 48.7 m
68.235909 314.812 l
stroke
grestore
0 setlinecap
gsave
/o {
gsave
newpath
translate
0.1 setlinewidth
1 setlinejoin
0 setlinecap
0 0 m
0 -4 l

gsave
0.000 setgray
fill
grestore
stroke
grestore
} bind def
68.2359 48.7 o
grestore
/DejaVuSans findfont
15.000 scalefont
setfont
gsave
63.462472 29.809375 translate
0.000000 rotate
0.000000 0 m /zero glyphshow
grestore
2 setlinecap
gsave
357.1 266.1 62.83 48.7 clipbox
122.345 48.7 m
122.345 314.812 l
stroke
grestore
0 setlinecap
gsave
/o {
gsave
newpath
translate
0.1 setlinewidth
1 setlinejoin
0 setlinecap
0 0 m
0 -4 l

gsave
0.000 setgray
fill
grestore
stroke
grestore
} bind def
122.345 48.7 o
grestore
gsave
117.571563 29.809375 translate
0.000000 rotate
0.000000 0 m /five glyphshow
grestore
2 setlinecap
gsave
357.1 266.1 62.83 48.7 clipbox
176.454091 48.7 m
176.454091 314.812 l
stroke
grestore
0 setlinecap
gsave
/o {
gsave
newpath
translate
0.1 setlinewidth
1 setlinejoin
0 setlinecap
0 0 m
0 -4 l

gsave
0.000 setgray
fill
grestore
stroke
grestore
} bind def
176.454 48.7 o
grestore
gsave
166.907216 29.809375 translate
0.000000 rotate
0.000000 0 m /one glyphshow
9.543457 0 m /zero glyphshow
grestore
2 setlinecap
gsave
357.1 266.1 62.83 48.7 clipbox
230.563182 48.7 m
230.563182 314.812 l
stroke
grestore
0 setlinecap
gsave
/o {
gsave
newpath
translate
0.1 setlinewidth
1 setlinejoin
0 setlinecap
0 0 m
0 -4 l

gsave
0.000 setgray
fill
grestore
stroke
grestore
} bind def
230.563 48.7 o
grestore
gsave
221.016307 29.809375 translate
0.000000 rotate
0.000000 0 m /one glyphshow
9.543457 0 m /five glyphshow
grestore
2 setlinecap
gsave
357.1 266.1 62.83 48.7 clipbox
284.672273 48.7 m
284.672273 314.812 l
stroke
grestore
0 setlinecap
gsave
/o {
gsave
newpath
translate
0.1 setlinewidth
1 setlinejoin
0 setlinecap
0 0 m
0 -4 l

gsave
0.000 setgray
fill
grestore
stroke
grestore
} bind def
284.672 48.7 o
grestore
gsave
275.125398 29.809375 translate
0.000000 rotate
0.000000 0 m /two glyphshow
9.543457 0 m /zero glyphshow
grestore
2 setlinecap
gsave
357.1 266.1 62.83 48.7 clipbox
338.781364 48.7 m
338.781364 314.812 l
stroke
grestore
0 setlinecap
gsave
/o {
gsave
newpath
translate
0.1 setlinewidth
1 setlinejoin
0 setlinecap
0 0 m
0 -4 l

gsave
0.000 setgray
fill
grestore
stroke
grestore
} bind def
338.781 48.7 o
grestore
gsave
329.234489 29.809375 translate
0.000000 rotate
0.000000 0 m /two glyphshow
9.543457 0 m /five glyphshow
grestore
2 setlinecap
gsave
357.1 266.1 62.83 48.7 clipbox
392.890455 48.7 m
392.890455 314.812 l
stroke
grestore
0 setlinecap
gsave
/o {
gsave
newpath
translate
0.1 setlinewidth
1 setlinejoin
0 setlinecap
0 0 m
0 -4 l

gsave
0.000 setgray
fill
grestore
stroke
grestore
} bind def
392.89 48.7 o
grestore
gsave
383.343580 29.809375 translate
0.000000 rotate
0.000000 0 m /three glyphshow
9.543457 0 m /zero glyphshow
grestore
/DejaVuSans findfont
16.000 scalefont
setfont
gsave
199.510000 10.528125 translate
0.000000 rotate
0.000000 0 m /T glyphshow
9.273438 0 m /i glyphshow
13.718750 0 m /m glyphshow
29.304688 0 m /e glyphshow
39.148438 0 m /space glyphshow
44.234375 0 m /parenleft glyphshow
50.476562 0 m /s glyphshow
58.812500 0 m /e glyphshow
68.656250 0 m /c glyphshow
77.453125 0 m /parenright glyphshow
grestore
2 setlinecap
gsave
357.1 266.1 62.83 48.7 clipbox
62.825 68.387939 m
419.945 68.387939 l
stroke
grestore
0 setlinecap
gsave
/o {
gsave
newpath
translate
0.1 setlinewidth
1 setlinejoin
0 setlinecap
-0 0 m
-4 0 l

gsave
0.000 setgray
fill
grestore
stroke
grestore
} bind def
62.825 68.3879 o
grestore
/DejaVuSans findfont
15.000 scalefont
setfont
gsave
26.684375 62.692626 translate
0.000000 rotate
0.000000 0 m /two glyphshow
9.543457 0 m /two glyphshow
19.086914 0 m /zero glyphshow
grestore
2 setlinecap
gsave
357.1 266.1 62.83 48.7 clipbox
62.825 118.320394 m
419.945 118.320394 l
stroke
grestore
0 setlinecap
gsave
/o {
gsave
newpath
translate
0.1 setlinewidth
1 setlinejoin
0 setlinecap
-0 0 m
-4 0 l

gsave
0.000 setgray
fill
grestore
stroke
grestore
} bind def
62.825 118.32 o
grestore
gsave
26.684375 112.625081 translate
0.000000 rotate
0.000000 0 m /two glyphshow
9.543457 0 m /three glyphshow
19.086914 0 m /zero glyphshow
grestore
2 setlinecap
gsave
357.1 266.1 62.83 48.7 clipbox
62.825 168.252848 m
419.945 168.252848 l
stroke
grestore
0 setlinecap
gsave
/o {
gsave
newpath
translate
0.1 setlinewidth
1 setlinejoin
0 setlinecap
-0 0 m
-4 0 l

gsave
0.000 setgray
fill
grestore
stroke
grestore
} bind def
62.825 168.253 o
grestore
gsave
26.684375 162.557536 translate
0.000000 rotate
0.000000 0 m /two glyphshow
9.543457 0 m /four glyphshow
19.086914 0 m /zero glyphshow
grestore
2 setlinecap
gsave
357.1 266.1 62.83 48.7 clipbox
62.825 218.185303 m
419.945 218.185303 l
stroke
grestore
0 setlinecap
gsave
/o {
gsave
newpath
translate
0.1 setlinewidth
1 setlinejoin
0 setlinecap
-0 0 m
-4 0 l

gsave
0.000 setgray
fill
grestore
stroke
grestore
} bind def
62.825 218.185 o
grestore
gsave
26.684375 212.489991 translate
0.000000 rotate
0.000000 0 m /two glyphshow
9.543457 0 m /five glyphshow
19.086914 0 m /zero glyphshow
grestore
2 setlinecap
gsave
357.1 266.1 62.83 48.7 clipbox
62.825 268.117758 m
419.945 268.117758 l
stroke
grestore
0 setlinecap
gsave
/o {
gsave
newpath
translate
0.1 setlinewidth
1 setlinejoin
0 setlinecap
-0 0 m
-4 0 l

gsave
0.000 setgray
fill
grestore
stroke
grestore
} bind def
62.825 268.118 o
grestore
gsave
26.684375 262.422446 translate
0.000000 rotate
0.000000 0 m /two glyphshow
9.543457 0 m /six glyphshow
19.086914 0 m /zero glyphshow
grestore
/DejaVuSans findfont
16.000 scalefont
setfont
gsave
19.356250 88.779438 translate
90.000000 rotate
0.000000 0 m /T glyphshow
9.773438 0 m /h glyphshow
19.914062 0 m /r glyphshow
26.117188 0 m /o glyphshow
35.906250 0 m /u glyphshow
46.046875 0 m /g glyphshow
56.203125 0 m /h glyphshow
66.343750 0 m /p glyphshow
76.500000 0 m /u glyphshow
86.640625 0 m /t glyphshow
92.914062 0 m /space glyphshow
98.000000 0 m /parenleft glyphshow
104.242188 0 m /M glyphshow
118.046875 0 m /b glyphshow
128.203125 0 m /i glyphshow
132.648438 0 m /t glyphshow
138.921875 0 m /s glyphshow
147.257812 0 m /slash glyphshow
152.648438 0 m /s glyphshow
160.984375 0 m /e glyphshow
170.828125 0 m /c glyphshow
179.625000 0 m /parenright glyphshow
grestore
1.500 setlinewidth
0.000 0.000 1.000 setrgbcolor
gsave
357.1 266.1 62.83 48.7 clipbox
79.057727 60.796 m
79.057727 64.167286 l
stroke
grestore
gsave
357.1 266.1 62.83 48.7 clipbox
89.879545 220.560105 m
89.879545 223.314636 l
stroke
grestore
gsave
357.1 266.1 62.83 48.7 clipbox
100.701364 219.178025 m
100.701364 222.100228 l
stroke
grestore
gsave
357.1 266.1 62.83 48.7 clipbox
111.523182 230.921912 m
111.523182 233.610599 l
stroke
grestore
gsave
357.1 266.1 62.83 48.7 clipbox
122.345 230.051562 m
122.345 232.683381 l
stroke
grestore
gsave
357.1 266.1 62.83 48.7 clipbox
133.166818 199.851709 m
133.166818 202.536295 l
stroke
grestore
gsave
357.1 266.1 62.83 48.7 clipbox
143.988636 187.727007 m
143.988636 190.864616 l
stroke
grestore
gsave
357.1 266.1 62.83 48.7 clipbox
154.810455 210.575453 m
154.810455 213.183643 l
stroke
grestore
gsave
357.1 266.1 62.83 48.7 clipbox
165.632273 219.529078 m
165.632273 222.148635 l
stroke
grestore
gsave
357.1 266.1 62.83 48.7 clipbox
176.454091 211.144081 m
176.454091 213.98459 l
stroke
grestore
gsave
357.1 266.1 62.83 48.7 clipbox
187.275909 232.41647 m
187.275909 234.769594 l
stroke
grestore
gsave
357.1 266.1 62.83 48.7 clipbox
198.097727 262.412241 m
198.097727 263.836784 l
stroke
grestore
gsave
357.1 266.1 62.83 48.7 clipbox
208.919545 221.453495 m
208.919545 224.875069 l
stroke
grestore
gsave
357.1 266.1 62.83 48.7 clipbox
219.741364 265.703829 m
219.741364 267.107748 l
stroke
grestore
gsave
357.1 266.1 62.83 48.7 clipbox
230.563182 259.221736 m
230.563182 261.035395 l
stroke
grestore
gsave
357.1 266.1 62.83 48.7 clipbox
241.385 274.91726 m
241.385 277.011314 l
stroke
grestore
gsave
357.1 266.1 62.83 48.7 clipbox
252.206818 301.427655 m
252.206818 302.716 l
stroke
grestore
gsave
357.1 266.1 62.83 48.7 clipbox
263.028636 274.264442 m
263.028636 275.952161 l
stroke
grestore
gsave
357.1 266.1 62.83 48.7 clipbox
273.850455 279.199596 m
273.850455 281.003499 l
stroke
grestore
gsave
357.1 266.1 62.83 48.7 clipbox
284.672273 251.302733 m
284.672273 253.546669 l
stroke
grestore
gsave
357.1 266.1 62.83 48.7 clipbox
295.494091 244.607876 m
295.494091 247.116423 l
stroke
grestore
gsave
357.1 266.1 62.83 48.7 clipbox
306.315909 249.180734 m
306.315909 251.674071 l
stroke
grestore
gsave
357.1 266.1 62.83 48.7 clipbox
317.137727 245.823393 m
317.137727 248.754189 l
stroke
grestore
gsave
357.1 266.1 62.83 48.7 clipbox
327.959545 238.672123 m
327.959545 241.353715 l
stroke
grestore
gsave
357.1 266.1 62.83 48.7 clipbox
338.781364 211.658615 m
338.781364 215.239092 l
stroke
grestore
gsave
357.1 266.1 62.83 48.7 clipbox
349.603182 232.549549 m
349.603182 235.635164 l
stroke
grestore
gsave
357.1 266.1 62.83 48.7 clipbox
360.425 246.60779 m
360.425 249.596164 l
stroke
grestore
gsave
357.1 266.1 62.83 48.7 clipbox
371.246818 228.159018 m
371.246818 231.037854 l
stroke
grestore
gsave
357.1 266.1 62.83 48.7 clipbox
382.068636 222.395773 m
382.068636 225.387966 l
stroke
grestore
gsave
357.1 266.1 62.83 48.7 clipbox
392.890455 221.132687 m
392.890455 224.168696 l
stroke
grestore
gsave
357.1 266.1 62.83 48.7 clipbox
403.712273 226.256141 m
403.712273 229.145864 l
stroke
grestore
gsave
357.1 266.1 62.83 48.7 clipbox
0 0 m
stroke
grestore
gsave
357.1 266.1 62.83 48.7 clipbox
0 0 m
stroke
grestore
[5.55 2.4] 0 setdash
gsave
357.1 266.1 62.83 48.7 clipbox
79.057727 62.481643 m
89.879545 221.937371 l
100.701364 220.639127 l
111.523182 232.266256 l
122.345 231.367471 l
133.166818 201.194002 l
143.988636 189.295812 l
154.810455 211.879548 l
165.632273 220.838857 l
176.454091 212.564336 l
187.275909 233.593032 l
198.097727 263.124513 l
208.919545 223.164282 l
219.741364 266.405788 l
230.563182 260.128565 l
241.385 275.964287 l
252.206818 302.071827 l
263.028636 275.108302 l
273.850455 280.101547 l
284.672273 252.424701 l
295.494091 245.86215 l
306.315909 250.427403 l
317.137727 247.288791 l
327.959545 240.012919 l
338.781364 213.448853 l
349.603182 234.092357 l
360.425 248.101977 l
371.246818 229.598436 l
382.068636 223.89187 l
392.890455 222.650691 l
403.712273 227.701003 l
stroke
grestore
1.000 setlinewidth
0 setlinejoin
[] 0 setdash
gsave
357.1 266.1 62.83 48.7 clipbox
/o {
gsave
newpath
translate
1.0 setlinewidth
0 setlinejoin
0 setlinecap
-3 -3 m
3 -3 l
3 3 l
-3 3 l
cl

gsave
0.000 0.000 1.000 setrgbcolor
fill
grestore
stroke
grestore
} bind def
79.0577 62.4816 o
89.8795 221.937 o
100.701 220.639 o
111.523 232.266 o
122.345 231.367 o
133.167 201.194 o
143.989 189.296 o
154.81 211.88 o
165.632 220.839 o
176.454 212.564 o
187.276 233.593 o
198.098 263.125 o
208.92 223.164 o
219.741 266.406 o
230.563 260.129 o
241.385 275.964 o
252.207 302.072 o
263.029 275.108 o
273.85 280.102 o
284.672 252.425 o
295.494 245.862 o
306.316 250.427 o
317.138 247.289 o
327.96 240.013 o
338.781 213.449 o
349.603 234.092 o
360.425 248.102 o
371.247 229.598 o
382.069 223.892 o
392.89 222.651 o
403.712 227.701 o
grestore
0.800 setlinewidth
2 setlinecap
0.000 setgray
gsave
62.825 48.7 m
62.825 314.812 l
stroke
grestore
gsave
419.945 48.7 m
419.945 314.812 l
stroke
grestore
gsave
62.825 48.7 m
419.945 48.7 l
stroke
grestore
gsave
62.825 314.812 m
419.945 314.812 l
stroke
grestore

end
showpage
