[[,1,",",26.1077142857143,",",1.51207404228205,],","
[,2,",",29.8794285714286,",",1.41326286364415,],","
[,3,",",29.8668571428571,",",1.49739622323496,],","
[,4,",",30.1228571428571,",",1.39310777312052,],","
[,5,",",30.1171428571429,",",1.35727241546656,],","
[,6,",",29.4,",",1.35206599776733,],","
[,7,",",29.1188571428571,",",1.56829557164559,],","
[,8,",",29.6571428571429,",",1.33365893748321,],","
[,9,",",29.8585714285714,",",1.34491121061105,],","
[,10,",",29.67,",",1.4429057715018,],","
[,11,",",30.1657142857143,",",1.21857702772732,],","
[,12,",",30.8628571428571,",",0.7544020813698,],","
[,13,",",29.9191428571429,",",1.75688585614259,],","
[,14,",",30.9685714285714,",",0.744915093194859,],","
[,15,",",30.8142857142857,",",0.958639386231065,],","
[,16,",",31.1857142857143,",",1.122184267718,],","
[,17,",",31.8085714285714,",",0.703211838401634,],","
[,18,",",31.1485714285714,",",0.90248424507879,],","
[,19,",",31.2885714285714,",",0.966708340100805,],","
[,20,",",30.6542857142857,",",1.1588436756405,],","
[,21,",",30.44,",",1.32705677082997,],","
[,22,",",30.5885714285714,",",1.30993241527295,],","
[,23,",",30.492,",",1.53468992508237,],","
[,24,",",30.3285714285714,",",1.39924609867363,],","
[,25,",",29.6825714285714,",",1.82340967950537,],","
[,26,",",30.1771428571429,",",1.59998956386955,],","
[,27,",",30.5085714285714,",",1.56573316092788,],","
[,28,",",30.08,",",1.48267816140265,],","
[,29,",",29.9342857142857,",",1.53751297163501,],","
[,30,",",26.4877142857143,",",2.17011253109854,],]
