%!PS-Adobe-3.0 EPSF-3.0
%%Title: results/partial_symmetry/rtt_partial.eps
%%Creator: matplotlib version 3.3.0, http://matplotlib.org/
%%CreationDate: Fri Aug 14 02:43:45 2020
%%Orientation: portrait
%%BoundingBox: 95.69312500000001 234.99400000000003 516.306875 557.006
%%EndComments
%%BeginProlog
/mpldict 8 dict def
mpldict begin
/m { moveto } bind def
/l { lineto } bind def
/r { rlineto } bind def
/c { curveto } bind def
/cl { closepath } bind def
/box {
      m
      1 index 0 r
      0 exch r
      neg 0 r
      cl
    } bind def
/clipbox {
      box
      clip
      newpath
    } bind def
%!PS-Adobe-3.0 Resource-Font
%%Title: DejaVu Sans
%%Copyright: Copyright (c) 2003 by Bitstream, Inc. All Rights Reserved. Copyright (c) 2006 by Tavmjong Bah. All Rights Reserved. DejaVu changes are in public domain 
%%Creator: Converted from TrueType to type 3 by PPR
25 dict begin
/_d{bind def}bind def
/_m{moveto}_d
/_l{lineto}_d
/_cl{closepath eofill}_d
/_c{curveto}_d
/_sc{7 -1 roll{setcachedevice}{pop pop pop pop pop pop}ifelse}_d
/_e{exec}_d
/FontName /DejaVuSans def
/PaintType 0 def
/FontMatrix[.001 0 0 .001 0 0]def
/FontBBox[-1021 -463 1793 1232]def
/FontType 3 def
/Encoding [ /space /parenleft /parenright /zero /one /two /four /six /eight /R /T /c /e /i /m /s /minus ] def
/FontInfo 10 dict dup begin
/FamilyName (DejaVu Sans) def
/FullName (DejaVu Sans) def
/Notice (Copyright (c) 2003 by Bitstream, Inc. All Rights Reserved. Copyright (c) 2006 by Tavmjong Bah. All Rights Reserved. DejaVu changes are in public domain ) def
/Weight (Book) def
/Version (Version 2.35) def
/ItalicAngle 0.0 def
/isFixedPitch false def
/UnderlinePosition -130 def
/UnderlineThickness 90 def
end readonly def
/CharStrings 18 dict dup begin
/.notdef 0 def
/space{318 0 0 0 0 0 _sc
}_d
/parenleft{390 0 86 -131 310 759 _sc
310 759 _m
266 683 234 609 213 536 _c
191 463 181 389 181 314 _c
181 238 191 164 213 91 _c
234 17 266 -56 310 -131 _c
232 -131 _l
183 -54 146 20 122 94 _c
98 168 86 241 86 314 _c
86 386 98 459 122 533 _c
146 607 182 682 232 759 _c
310 759 _l
_cl}_d
/parenright{390 0 80 -131 304 759 _sc
80 759 _m
158 759 _l
206 682 243 607 267 533 _c
291 459 304 386 304 314 _c
304 241 291 168 267 94 _c
243 20 206 -54 158 -131 _c
80 -131 _l
123 -56 155 17 177 91 _c
198 164 209 238 209 314 _c
209 389 198 463 177 536 _c
155 609 123 683 80 759 _c
_cl}_d
/zero{636 0 66 -13 570 742 _sc
318 664 _m
267 664 229 639 203 589 _c
177 539 165 464 165 364 _c
165 264 177 189 203 139 _c
229 89 267 64 318 64 _c
369 64 407 89 433 139 _c
458 189 471 264 471 364 _c
471 464 458 539 433 589 _c
407 639 369 664 318 664 _c
318 742 _m
399 742 461 709 505 645 _c
548 580 570 486 570 364 _c
570 241 548 147 505 83 _c
461 19 399 -13 318 -13 _c
236 -13 173 19 130 83 _c
87 147 66 241 66 364 _c
66 486 87 580 130 645 _c
173 709 236 742 318 742 _c
_cl}_d
/one{636 0 110 0 544 729 _sc
124 83 _m
285 83 _l
285 639 _l
110 604 _l
110 694 _l
284 729 _l
383 729 _l
383 83 _l
544 83 _l
544 0 _l
124 0 _l
124 83 _l
_cl}_d
/two{{636 0 73 0 536 742 _sc
192 83 _m
536 83 _l
536 0 _l
73 0 _l
73 83 _l
110 121 161 173 226 239 _c
290 304 331 346 348 365 _c
380 400 402 430 414 455 _c
426 479 433 504 433 528 _c
433 566 419 598 392 622 _c
365 646 330 659 286 659 _c
255 659 222 653 188 643 _c
154 632 117 616 78 594 _c
78 694 _l
118 710 155 722 189 730 _c
223 738 255 742 284 742 _c
}_e{359 742 419 723 464 685 _c
509 647 532 597 532 534 _c
532 504 526 475 515 449 _c
504 422 484 390 454 354 _c
446 344 420 317 376 272 _c
332 227 271 164 192 83 _c
_cl}_e}_d
/four{636 0 49 0 580 729 _sc
378 643 _m
129 254 _l
378 254 _l
378 643 _l
352 729 _m
476 729 _l
476 254 _l
580 254 _l
580 172 _l
476 172 _l
476 0 _l
378 0 _l
378 172 _l
49 172 _l
49 267 _l
352 729 _l
_cl}_d
/six{{636 0 70 -13 573 742 _sc
330 404 _m
286 404 251 388 225 358 _c
199 328 186 286 186 234 _c
186 181 199 139 225 109 _c
251 79 286 64 330 64 _c
374 64 409 79 435 109 _c
461 139 474 181 474 234 _c
474 286 461 328 435 358 _c
409 388 374 404 330 404 _c
526 713 _m
526 623 _l
501 635 476 644 451 650 _c
425 656 400 659 376 659 _c
310 659 260 637 226 593 _c
}_e{192 549 172 482 168 394 _c
187 422 211 444 240 459 _c
269 474 301 482 336 482 _c
409 482 467 459 509 415 _c
551 371 573 310 573 234 _c
573 159 550 99 506 54 _c
462 9 403 -13 330 -13 _c
246 -13 181 19 137 83 _c
92 147 70 241 70 364 _c
70 479 97 571 152 639 _c
206 707 280 742 372 742 _c
396 742 421 739 447 735 _c
472 730 498 723 526 713 _c
_cl}_e}_d
/eight{{636 0 68 -13 568 742 _sc
318 346 _m
271 346 234 333 207 308 _c
180 283 167 249 167 205 _c
167 161 180 126 207 101 _c
234 76 271 64 318 64 _c
364 64 401 76 428 102 _c
455 127 469 161 469 205 _c
469 249 455 283 429 308 _c
402 333 365 346 318 346 _c
219 388 _m
177 398 144 418 120 447 _c
96 476 85 511 85 553 _c
85 611 105 657 147 691 _c
188 725 245 742 318 742 _c
}_e{390 742 447 725 489 691 _c
530 657 551 611 551 553 _c
551 511 539 476 515 447 _c
491 418 459 398 417 388 _c
464 377 501 355 528 323 _c
554 291 568 251 568 205 _c
568 134 546 80 503 43 _c
459 5 398 -13 318 -13 _c
237 -13 175 5 132 43 _c
89 80 68 134 68 205 _c
68 251 81 291 108 323 _c
134 355 171 377 219 388 _c
183 544 _m
183 506 194 476 218 455 _c
}_e{242 434 275 424 318 424 _c
360 424 393 434 417 455 _c
441 476 453 506 453 544 _c
453 582 441 611 417 632 _c
393 653 360 664 318 664 _c
275 664 242 653 218 632 _c
194 611 183 582 183 544 _c
_cl}_e}_d
/R{{695 0 98 0 666 729 _sc
444 342 _m
465 334 486 319 506 296 _c
526 272 546 240 566 199 _c
666 0 _l
560 0 _l
467 187 _l
443 235 419 268 397 284 _c
374 300 343 308 304 308 _c
197 308 _l
197 0 _l
98 0 _l
98 729 _l
321 729 _l
404 729 466 711 507 677 _c
548 642 569 589 569 519 _c
569 473 558 434 537 404 _c
515 374 484 353 444 342 _c
197 648 _m
197 389 _l
321 389 _l
}_e{368 389 404 400 428 422 _c
452 444 465 476 465 519 _c
465 561 452 593 428 615 _c
404 637 368 648 321 648 _c
197 648 _l
_cl}_e}_d
/T{611 0 -2 0 614 729 _sc
-2 729 _m
614 729 _l
614 646 _l
355 646 _l
355 0 _l
256 0 _l
256 646 _l
-2 646 _l
-2 729 _l
_cl}_d
/c{{550 0 55 -13 488 560 _sc
488 526 _m
488 442 _l
462 456 437 466 411 473 _c
385 480 360 484 334 484 _c
276 484 230 465 198 428 _c
166 391 150 339 150 273 _c
150 206 166 154 198 117 _c
230 80 276 62 334 62 _c
360 62 385 65 411 72 _c
437 79 462 90 488 104 _c
488 21 _l
462 9 436 0 410 -5 _c
383 -10 354 -13 324 -13 _c
242 -13 176 12 128 64 _c
}_e{79 115 55 185 55 273 _c
55 362 79 432 128 483 _c
177 534 244 560 330 560 _c
358 560 385 557 411 551 _c
437 545 463 537 488 526 _c
_cl}_e}_d
/e{{615 0 55 -13 562 560 _sc
562 296 _m
562 252 _l
149 252 _l
153 190 171 142 205 110 _c
238 78 284 62 344 62 _c
378 62 412 66 444 74 _c
476 82 509 95 541 113 _c
541 28 _l
509 14 476 3 442 -3 _c
408 -9 373 -13 339 -13 _c
251 -13 182 12 131 62 _c
80 112 55 181 55 268 _c
55 357 79 428 127 481 _c
175 533 241 560 323 560 _c
397 560 455 536 498 489 _c
}_e{540 441 562 377 562 296 _c
472 322 _m
471 371 457 410 431 440 _c
404 469 368 484 324 484 _c
274 484 234 469 204 441 _c
174 413 156 373 152 322 _c
472 322 _l
_cl}_e}_d
/i{278 0 94 0 184 760 _sc
94 547 _m
184 547 _l
184 0 _l
94 0 _l
94 547 _l
94 760 _m
184 760 _l
184 646 _l
94 646 _l
94 760 _l
_cl}_d
/m{{974 0 91 0 889 560 _sc
520 442 _m
542 482 569 511 600 531 _c
631 550 668 560 711 560 _c
767 560 811 540 842 500 _c
873 460 889 403 889 330 _c
889 0 _l
799 0 _l
799 327 _l
799 379 789 418 771 444 _c
752 469 724 482 686 482 _c
639 482 602 466 575 435 _c
548 404 535 362 535 309 _c
535 0 _l
445 0 _l
445 327 _l
445 379 435 418 417 444 _c
398 469 369 482 331 482 _c
}_e{285 482 248 466 221 435 _c
194 404 181 362 181 309 _c
181 0 _l
91 0 _l
91 547 _l
181 547 _l
181 462 _l
201 495 226 520 255 536 _c
283 552 317 560 357 560 _c
397 560 430 550 458 530 _c
486 510 506 480 520 442 _c
_cl}_e}_d
/s{{521 0 54 -13 472 560 _sc
443 531 _m
443 446 _l
417 458 391 468 364 475 _c
336 481 308 485 279 485 _c
234 485 200 478 178 464 _c
156 450 145 430 145 403 _c
145 382 153 366 169 354 _c
185 342 217 330 265 320 _c
296 313 _l
360 299 405 279 432 255 _c
458 230 472 195 472 151 _c
472 100 452 60 412 31 _c
372 1 316 -13 246 -13 _c
216 -13 186 -10 154 -5 _c
}_e{122 0 89 8 54 20 _c
54 113 _l
87 95 120 82 152 74 _c
184 65 216 61 248 61 _c
290 61 323 68 346 82 _c
368 96 380 117 380 144 _c
380 168 371 187 355 200 _c
339 213 303 226 247 238 _c
216 245 _l
160 257 119 275 95 299 _c
70 323 58 356 58 399 _c
58 450 76 490 112 518 _c
148 546 200 560 268 560 _c
301 560 332 557 362 552 _c
391 547 418 540 443 531 _c
}_e{_cl}_e}_d
/minus{838 0 106 272 732 355 _sc
106 355 _m
732 355 _l
732 272 _l
106 272 _l
106 355 _l
_cl}_d
end readonly def

/BuildGlyph
 {exch begin
 CharStrings exch
 2 copy known not{pop /.notdef}if
 true 3 1 roll get exec
 end}_d

/BuildChar {
 1 index /Encoding get exch get
 1 index /BuildGlyph get exec
}_d

FontName currentdict end definefont pop
end
%%EndProlog
mpldict begin
95.693 234.994 translate
420.614 322.012 0 0 clipbox
gsave
0 0 m
420.61375 0 l
420.61375 322.012 l
0 322.012 l
cl
1.000 setgray
fill
grestore
gsave
56.29375 48.7 m
413.41375 48.7 l
413.41375 314.812 l
56.29375 314.812 l
cl
1.000 setgray
fill
grestore
0.100 setlinewidth
1 setlinejoin
2 setlinecap
[] 0 setdash
0.000 setgray
gsave
357.1 266.1 56.29 48.7 clipbox
69.247138 48.7 m
69.247138 314.812 l
stroke
grestore
0 setlinecap
gsave
/o {
gsave
newpath
translate
0.1 setlinewidth
1 setlinejoin
0 setlinecap
0 0 m
0 -4 l

gsave
0.000 setgray
fill
grestore
stroke
grestore
} bind def
69.2471 48.7 o
grestore
/DejaVuSans findfont
15.000 scalefont
setfont
gsave
64.473701 29.809375 translate
0.000000 rotate
0.000000 0 m /zero glyphshow
grestore
2 setlinecap
gsave
357.1 266.1 56.29 48.7 clipbox
134.833915 48.7 m
134.833915 314.812 l
stroke
grestore
0 setlinecap
gsave
/o {
gsave
newpath
translate
0.1 setlinewidth
1 setlinejoin
0 setlinecap
0 0 m
0 -4 l

gsave
0.000 setgray
fill
grestore
stroke
grestore
} bind def
134.834 48.7 o
grestore
gsave
125.287040 29.809375 translate
0.000000 rotate
0.000000 0 m /two glyphshow
9.543457 0 m /zero glyphshow
grestore
2 setlinecap
gsave
357.1 266.1 56.29 48.7 clipbox
200.420692 48.7 m
200.420692 314.812 l
stroke
grestore
0 setlinecap
gsave
/o {
gsave
newpath
translate
0.1 setlinewidth
1 setlinejoin
0 setlinecap
0 0 m
0 -4 l

gsave
0.000 setgray
fill
grestore
stroke
grestore
} bind def
200.421 48.7 o
grestore
gsave
190.873817 29.809375 translate
0.000000 rotate
0.000000 0 m /four glyphshow
9.543457 0 m /zero glyphshow
grestore
2 setlinecap
gsave
357.1 266.1 56.29 48.7 clipbox
266.007469 48.7 m
266.007469 314.812 l
stroke
grestore
0 setlinecap
gsave
/o {
gsave
newpath
translate
0.1 setlinewidth
1 setlinejoin
0 setlinecap
0 0 m
0 -4 l

gsave
0.000 setgray
fill
grestore
stroke
grestore
} bind def
266.007 48.7 o
grestore
gsave
256.460594 29.809375 translate
0.000000 rotate
0.000000 0 m /six glyphshow
9.543457 0 m /zero glyphshow
grestore
2 setlinecap
gsave
357.1 266.1 56.29 48.7 clipbox
331.594246 48.7 m
331.594246 314.812 l
stroke
grestore
0 setlinecap
gsave
/o {
gsave
newpath
translate
0.1 setlinewidth
1 setlinejoin
0 setlinecap
0 0 m
0 -4 l

gsave
0.000 setgray
fill
grestore
stroke
grestore
} bind def
331.594 48.7 o
grestore
gsave
322.047371 29.809375 translate
0.000000 rotate
0.000000 0 m /eight glyphshow
9.543457 0 m /zero glyphshow
grestore
2 setlinecap
gsave
357.1 266.1 56.29 48.7 clipbox
397.181023 48.7 m
397.181023 314.812 l
stroke
grestore
0 setlinecap
gsave
/o {
gsave
newpath
translate
0.1 setlinewidth
1 setlinejoin
0 setlinecap
0 0 m
0 -4 l

gsave
0.000 setgray
fill
grestore
stroke
grestore
} bind def
397.181 48.7 o
grestore
gsave
382.860710 29.809375 translate
0.000000 rotate
0.000000 0 m /one glyphshow
9.543457 0 m /zero glyphshow
19.086914 0 m /zero glyphshow
grestore
/DejaVuSans findfont
16.000 scalefont
setfont
gsave
192.978750 10.528125 translate
0.000000 rotate
0.000000 0 m /T glyphshow
9.273438 0 m /i glyphshow
13.718750 0 m /m glyphshow
29.304688 0 m /e glyphshow
39.148438 0 m /space glyphshow
44.234375 0 m /parenleft glyphshow
50.476562 0 m /s glyphshow
58.812500 0 m /e glyphshow
68.656250 0 m /c glyphshow
77.453125 0 m /parenright glyphshow
grestore
2 setlinecap
gsave
357.1 266.1 56.29 48.7 clipbox
56.29375 76.595361 m
413.41375 76.595361 l
stroke
grestore
0 setlinecap
gsave
/o {
gsave
newpath
translate
0.1 setlinewidth
1 setlinejoin
0 setlinecap
-0 0 m
-4 0 l

gsave
0.000 setgray
fill
grestore
stroke
grestore
} bind def
56.2938 76.5954 o
grestore
/DejaVuSans findfont
15.000 scalefont
setfont
gsave
26.684375 70.900049 translate
0.000000 rotate
0.000000 0 m /minus glyphshow
12.568359 0 m /one glyphshow
grestore
2 setlinecap
gsave
357.1 266.1 56.29 48.7 clipbox
56.29375 141.87272 m
413.41375 141.87272 l
stroke
grestore
0 setlinecap
gsave
/o {
gsave
newpath
translate
0.1 setlinewidth
1 setlinejoin
0 setlinecap
-0 0 m
-4 0 l

gsave
0.000 setgray
fill
grestore
stroke
grestore
} bind def
56.2938 141.873 o
grestore
gsave
39.246875 136.177408 translate
0.000000 rotate
0.000000 0 m /zero glyphshow
grestore
2 setlinecap
gsave
357.1 266.1 56.29 48.7 clipbox
56.29375 207.150079 m
413.41375 207.150079 l
stroke
grestore
0 setlinecap
gsave
/o {
gsave
newpath
translate
0.1 setlinewidth
1 setlinejoin
0 setlinecap
-0 0 m
-4 0 l

gsave
0.000 setgray
fill
grestore
stroke
grestore
} bind def
56.2938 207.15 o
grestore
gsave
39.246875 201.454767 translate
0.000000 rotate
0.000000 0 m /one glyphshow
grestore
2 setlinecap
gsave
357.1 266.1 56.29 48.7 clipbox
56.29375 272.427438 m
413.41375 272.427438 l
stroke
grestore
0 setlinecap
gsave
/o {
gsave
newpath
translate
0.1 setlinewidth
1 setlinejoin
0 setlinecap
-0 0 m
-4 0 l

gsave
0.000 setgray
fill
grestore
stroke
grestore
} bind def
56.2938 272.427 o
grestore
gsave
39.246875 266.732125 translate
0.000000 rotate
0.000000 0 m /two glyphshow
grestore
/DejaVuSans findfont
16.000 scalefont
setfont
gsave
19.356250 144.810688 translate
90.000000 rotate
0.000000 0 m /R glyphshow
9.992188 0 m /T glyphshow
19.515625 0 m /T glyphshow
29.289062 0 m /space glyphshow
34.375000 0 m /parenleft glyphshow
40.617188 0 m /s glyphshow
48.953125 0 m /e glyphshow
58.796875 0 m /c glyphshow
67.593750 0 m /parenright glyphshow
grestore
1.500 setlinewidth
0.000 0.000 1.000 setrgbcolor
gsave
357.1 266.1 56.29 48.7 clipbox
72.526477 172.832971 m
72.526477 302.716 l
stroke
grestore
gsave
357.1 266.1 56.29 48.7 clipbox
75.805816 114.552923 m
75.805816 204.744432 l
stroke
grestore
gsave
357.1 266.1 56.29 48.7 clipbox
79.085155 119.741374 m
79.085155 198.13853 l
stroke
grestore
gsave
357.1 266.1 56.29 48.7 clipbox
82.364494 102.124874 m
82.364494 207.492781 l
stroke
grestore
gsave
357.1 266.1 56.29 48.7 clipbox
85.643833 116.990939 m
85.643833 201.071741 l
stroke
grestore
gsave
357.1 266.1 56.29 48.7 clipbox
88.923171 126.742781 m
88.923171 189.977051 l
stroke
grestore
gsave
357.1 266.1 56.29 48.7 clipbox
92.20251 120.384008 m
92.20251 196.790901 l
stroke
grestore
gsave
357.1 266.1 56.29 48.7 clipbox
95.481849 117.137587 m
95.481849 199.660577 l
stroke
grestore
gsave
357.1 266.1 56.29 48.7 clipbox
98.761188 116.784153 m
98.761188 202.47217 l
stroke
grestore
gsave
357.1 266.1 56.29 48.7 clipbox
102.040527 119.881783 m
102.040527 196.218847 l
stroke
grestore
gsave
357.1 266.1 56.29 48.7 clipbox
105.319866 118.385864 m
105.319866 195.678112 l
stroke
grestore
gsave
357.1 266.1 56.29 48.7 clipbox
108.599205 114.574266 m
108.599205 201.776283 l
stroke
grestore
gsave
357.1 266.1 56.29 48.7 clipbox
111.878543 123.316027 m
111.878543 193.702215 l
stroke
grestore
gsave
357.1 266.1 56.29 48.7 clipbox
115.157882 117.959055 m
115.157882 196.395871 l
stroke
grestore
gsave
357.1 266.1 56.29 48.7 clipbox
118.437221 119.219799 m
118.437221 196.235517 l
stroke
grestore
gsave
357.1 266.1 56.29 48.7 clipbox
121.71656 119.138809 m
121.71656 196.476903 l
stroke
grestore
gsave
357.1 266.1 56.29 48.7 clipbox
124.995899 111.046622 m
124.995899 206.643045 l
stroke
grestore
gsave
357.1 266.1 56.29 48.7 clipbox
128.275238 114.28507 m
128.275238 202.412381 l
stroke
grestore
gsave
357.1 266.1 56.29 48.7 clipbox
131.554576 118.950644 m
131.554576 197.963155 l
stroke
grestore
gsave
357.1 266.1 56.29 48.7 clipbox
134.833915 119.563951 m
134.833915 196.741836 l
stroke
grestore
gsave
357.1 266.1 56.29 48.7 clipbox
138.113254 108.930688 m
138.113254 210.16897 l
stroke
grestore
gsave
357.1 266.1 56.29 48.7 clipbox
141.392593 109.437486 m
141.392593 208.345435 l
stroke
grestore
gsave
357.1 266.1 56.29 48.7 clipbox
144.671932 105.57163 m
144.671932 209.510673 l
stroke
grestore
gsave
357.1 266.1 56.29 48.7 clipbox
147.951271 101.234133 m
147.951271 216.481645 l
stroke
grestore
gsave
357.1 266.1 56.29 48.7 clipbox
151.23061 116.465685 m
151.23061 198.553206 l
stroke
grestore
gsave
357.1 266.1 56.29 48.7 clipbox
154.509948 105.62523 m
154.509948 210.367225 l
stroke
grestore
gsave
357.1 266.1 56.29 48.7 clipbox
157.789287 109.813515 m
157.789287 207.040602 l
stroke
grestore
gsave
357.1 266.1 56.29 48.7 clipbox
161.068626 115.661198 m
161.068626 201.875533 l
stroke
grestore
gsave
357.1 266.1 56.29 48.7 clipbox
164.347965 116.393955 m
164.347965 202.795226 l
stroke
grestore
gsave
357.1 266.1 56.29 48.7 clipbox
167.627304 96.051645 m
167.627304 224.33491 l
stroke
grestore
gsave
357.1 266.1 56.29 48.7 clipbox
170.906643 116.397899 m
170.906643 203.067312 l
stroke
grestore
gsave
357.1 266.1 56.29 48.7 clipbox
174.185981 114.040102 m
174.185981 205.287094 l
stroke
grestore
gsave
357.1 266.1 56.29 48.7 clipbox
177.46532 111.877375 m
177.46532 202.98485 l
stroke
grestore
gsave
357.1 266.1 56.29 48.7 clipbox
180.744659 120.999343 m
180.744659 196.686594 l
stroke
grestore
gsave
357.1 266.1 56.29 48.7 clipbox
184.023998 126.310984 m
184.023998 191.531618 l
stroke
grestore
gsave
357.1 266.1 56.29 48.7 clipbox
187.303337 101.21781 m
187.303337 219.392552 l
stroke
grestore
gsave
357.1 266.1 56.29 48.7 clipbox
190.582676 126.465041 m
190.582676 191.32907 l
stroke
grestore
gsave
357.1 266.1 56.29 48.7 clipbox
193.862014 116.762722 m
193.862014 201.840828 l
stroke
grestore
gsave
357.1 266.1 56.29 48.7 clipbox
197.141353 114.567723 m
197.141353 203.554639 l
stroke
grestore
gsave
357.1 266.1 56.29 48.7 clipbox
200.420692 102.558182 m
200.420692 216.780205 l
stroke
grestore
gsave
357.1 266.1 56.29 48.7 clipbox
203.700031 103.907865 m
203.700031 214.792668 l
stroke
grestore
gsave
357.1 266.1 56.29 48.7 clipbox
206.97937 105.894488 m
206.97937 213.100726 l
stroke
grestore
gsave
357.1 266.1 56.29 48.7 clipbox
210.258709 122.611218 m
210.258709 196.081855 l
stroke
grestore
gsave
357.1 266.1 56.29 48.7 clipbox
213.538048 119.784899 m
213.538048 201.537919 l
stroke
grestore
gsave
357.1 266.1 56.29 48.7 clipbox
216.817386 121.370972 m
216.817386 198.314317 l
stroke
grestore
gsave
357.1 266.1 56.29 48.7 clipbox
220.096725 120.110719 m
220.096725 199.085922 l
stroke
grestore
gsave
357.1 266.1 56.29 48.7 clipbox
223.376064 112.605933 m
223.376064 207.75451 l
stroke
grestore
gsave
357.1 266.1 56.29 48.7 clipbox
226.655403 122.956709 m
226.655403 194.654625 l
stroke
grestore
gsave
357.1 266.1 56.29 48.7 clipbox
229.934742 112.719249 m
229.934742 206.387869 l
stroke
grestore
gsave
357.1 266.1 56.29 48.7 clipbox
233.214081 98.13322 m
233.214081 221.387943 l
stroke
grestore
gsave
357.1 266.1 56.29 48.7 clipbox
236.493419 120.838009 m
236.493419 196.232455 l
stroke
grestore
gsave
357.1 266.1 56.29 48.7 clipbox
239.772758 112.802937 m
239.772758 205.237363 l
stroke
grestore
gsave
357.1 266.1 56.29 48.7 clipbox
243.052097 118.759751 m
243.052097 198.370396 l
stroke
grestore
gsave
357.1 266.1 56.29 48.7 clipbox
246.331436 118.317276 m
246.331436 200.013974 l
stroke
grestore
gsave
357.1 266.1 56.29 48.7 clipbox
249.610775 116.00098 m
249.610775 200.621869 l
stroke
grestore
gsave
357.1 266.1 56.29 48.7 clipbox
252.890114 60.796 m
252.890114 262.899184 l
stroke
grestore
gsave
357.1 266.1 56.29 48.7 clipbox
256.169452 116.259573 m
256.169452 202.623737 l
stroke
grestore
gsave
357.1 266.1 56.29 48.7 clipbox
259.448791 110.920167 m
259.448791 204.945464 l
stroke
grestore
gsave
357.1 266.1 56.29 48.7 clipbox
262.72813 127.461035 m
262.72813 189.915301 l
stroke
grestore
gsave
357.1 266.1 56.29 48.7 clipbox
266.007469 115.991398 m
266.007469 202.932943 l
stroke
grestore
gsave
357.1 266.1 56.29 48.7 clipbox
269.286808 116.569351 m
269.286808 201.441108 l
stroke
grestore
gsave
357.1 266.1 56.29 48.7 clipbox
272.566147 121.795826 m
272.566147 194.741229 l
stroke
grestore
gsave
357.1 266.1 56.29 48.7 clipbox
275.845486 118.163773 m
275.845486 200.342793 l
stroke
grestore
gsave
357.1 266.1 56.29 48.7 clipbox
279.124824 119.003059 m
279.124824 197.824946 l
stroke
grestore
gsave
357.1 266.1 56.29 48.7 clipbox
282.404163 113.605204 m
282.404163 203.472721 l
stroke
grestore
gsave
357.1 266.1 56.29 48.7 clipbox
285.683502 106.210185 m
285.683502 210.759566 l
stroke
grestore
gsave
357.1 266.1 56.29 48.7 clipbox
288.962841 101.637129 m
288.962841 214.538103 l
stroke
grestore
gsave
357.1 266.1 56.29 48.7 clipbox
292.24218 105.062952 m
292.24218 211.619578 l
stroke
grestore
gsave
357.1 266.1 56.29 48.7 clipbox
295.521519 112.549657 m
295.521519 203.726289 l
stroke
grestore
gsave
357.1 266.1 56.29 48.7 clipbox
298.800857 118.017059 m
298.800857 198.840788 l
stroke
grestore
gsave
357.1 266.1 56.29 48.7 clipbox
302.080196 121.683337 m
302.080196 194.111422 l
stroke
grestore
gsave
357.1 266.1 56.29 48.7 clipbox
305.359535 112.6715 m
305.359535 202.981514 l
stroke
grestore
gsave
357.1 266.1 56.29 48.7 clipbox
308.638874 109.703109 m
308.638874 207.897035 l
stroke
grestore
gsave
357.1 266.1 56.29 48.7 clipbox
311.918213 100.545529 m
311.918213 216.998662 l
stroke
grestore
gsave
357.1 266.1 56.29 48.7 clipbox
315.197552 119.863292 m
315.197552 201.57143 l
stroke
grestore
gsave
357.1 266.1 56.29 48.7 clipbox
318.47689 111.087403 m
318.47689 208.642648 l
stroke
grestore
gsave
357.1 266.1 56.29 48.7 clipbox
321.756229 120.805397 m
321.756229 195.604834 l
stroke
grestore
gsave
357.1 266.1 56.29 48.7 clipbox
325.035568 128.479077 m
325.035568 190.85558 l
stroke
grestore
gsave
357.1 266.1 56.29 48.7 clipbox
328.314907 119.133762 m
328.314907 198.731221 l
stroke
grestore
gsave
357.1 266.1 56.29 48.7 clipbox
331.594246 127.772976 m
331.594246 190.368038 l
stroke
grestore
gsave
357.1 266.1 56.29 48.7 clipbox
334.873585 118.11592 m
334.873585 201.435084 l
stroke
grestore
gsave
357.1 266.1 56.29 48.7 clipbox
338.152924 118.947868 m
338.152924 199.987664 l
stroke
grestore
gsave
357.1 266.1 56.29 48.7 clipbox
341.432262 120.116466 m
341.432262 197.155425 l
stroke
grestore
gsave
357.1 266.1 56.29 48.7 clipbox
344.711601 113.684816 m
344.711601 204.560641 l
stroke
grestore
gsave
357.1 266.1 56.29 48.7 clipbox
347.99094 118.859166 m
347.99094 200.322555 l
stroke
grestore
gsave
357.1 266.1 56.29 48.7 clipbox
351.270279 98.642692 m
351.270279 223.870039 l
stroke
grestore
gsave
357.1 266.1 56.29 48.7 clipbox
354.549618 122.896196 m
354.549618 196.479491 l
stroke
grestore
gsave
357.1 266.1 56.29 48.7 clipbox
357.828957 120.667862 m
357.828957 196.03332 l
stroke
grestore
gsave
357.1 266.1 56.29 48.7 clipbox
361.108295 121.489656 m
361.108295 199.736178 l
stroke
grestore
gsave
357.1 266.1 56.29 48.7 clipbox
364.387634 127.309872 m
364.387634 191.808437 l
stroke
grestore
gsave
357.1 266.1 56.29 48.7 clipbox
367.666973 105.444336 m
367.666973 213.819447 l
stroke
grestore
gsave
357.1 266.1 56.29 48.7 clipbox
370.946312 120.792522 m
370.946312 195.9385 l
stroke
grestore
gsave
357.1 266.1 56.29 48.7 clipbox
374.225651 114.61553 m
374.225651 203.126359 l
stroke
grestore
gsave
357.1 266.1 56.29 48.7 clipbox
377.50499 111.438347 m
377.50499 205.893227 l
stroke
grestore
gsave
357.1 266.1 56.29 48.7 clipbox
380.784329 115.880038 m
380.784329 202.880178 l
stroke
grestore
gsave
357.1 266.1 56.29 48.7 clipbox
384.063667 118.431915 m
384.063667 200.167905 l
stroke
grestore
gsave
357.1 266.1 56.29 48.7 clipbox
387.343006 120.280437 m
387.343006 196.04027 l
stroke
grestore
gsave
357.1 266.1 56.29 48.7 clipbox
390.622345 122.856545 m
390.622345 192.945674 l
stroke
grestore
gsave
357.1 266.1 56.29 48.7 clipbox
393.901684 111.17281 m
393.901684 205.121786 l
stroke
grestore
gsave
357.1 266.1 56.29 48.7 clipbox
397.181023 110.831256 m
397.181023 209.32776 l
stroke
grestore
[5.55 2.4] 0 setdash
gsave
357.1 266.1 56.29 48.7 clipbox
72.526477 237.774486 m
75.805816 159.648677 l
79.085155 158.939952 l
82.364494 154.808828 l
85.643833 159.03134 l
88.923171 158.359916 l
92.20251 158.587454 l
95.481849 158.399082 l
98.761188 159.628162 l
102.040527 158.050315 l
105.319866 157.031988 l
108.599205 158.175274 l
111.878543 158.509121 l
115.157882 157.177463 l
118.437221 157.727658 l
121.71656 157.807856 l
124.995899 158.844833 l
128.275238 158.348725 l
131.554576 158.456899 l
134.833915 158.152893 l
138.113254 159.549829 l
141.392593 158.89146 l
144.671932 157.541151 l
147.951271 158.857889 l
151.23061 157.509445 l
154.509948 157.996228 l
157.789287 158.427058 l
161.068626 158.768366 l
164.347965 159.594591 l
167.627304 160.193277 l
170.906643 159.732606 l
174.185981 159.663598 l
177.46532 157.431112 l
180.744659 158.842968 l
184.023998 158.921301 l
187.303337 160.305181 l
190.582676 158.897055 l
193.862014 159.301775 l
197.141353 159.061181 l
200.420692 159.669193 l
203.700031 159.350267 l
206.97937 159.497607 l
210.258709 159.346537 l
213.538048 160.661409 l
216.817386 159.842644 l
220.096725 159.598321 l
223.376064 160.180222 l
226.655403 158.805667 l
229.934742 159.553559 l
233.214081 159.760582 l
236.493419 158.535232 l
239.772758 159.02015 l
243.052097 158.565073 l
246.331436 159.165625 l
249.610775 158.311424 l
252.890114 161.847592 l
256.169452 159.441655 l
259.448791 157.932815 l
262.72813 158.688168 l
266.007469 159.462171 l
269.286808 159.005229 l
272.566147 158.268528 l
275.845486 159.253283 l
279.124824 158.414003 l
282.404163 158.538962 l
285.683502 158.484875 l
288.962841 158.087616 l
292.24218 158.341265 l
295.521519 158.137973 l
298.800857 158.428923 l
302.080196 157.897379 l
305.359535 157.826507 l
308.638874 158.800072 l
311.918213 158.772096 l
315.197552 160.717361 l
318.47689 159.865025 l
321.756229 158.205115 l
325.035568 159.667328 l
328.314907 158.932492 l
331.594246 159.070507 l
334.873585 159.775502 l
338.152924 159.467766 l
341.432262 158.635946 l
344.711601 159.122728 l
347.99094 159.59086 l
351.270279 161.256366 l
354.549618 159.687844 l
357.828957 158.350591 l
361.108295 160.612917 l
364.387634 159.559154 l
367.666973 159.631892 l
370.946312 158.365511 l
374.225651 158.870944 l
377.50499 158.665787 l
380.784329 159.380108 l
384.063667 159.29991 l
387.343006 158.160354 l
390.622345 157.901109 l
393.901684 158.147298 l
397.181023 160.079508 l
stroke
grestore
1.000 setlinewidth
0 setlinejoin
[] 0 setdash
gsave
357.1 266.1 56.29 48.7 clipbox
/o {
gsave
newpath
translate
1.0 setlinewidth
0 setlinejoin
0 setlinecap
-3 -3 m
3 -3 l
3 3 l
-3 3 l
cl

gsave
0.000 0.000 1.000 setrgbcolor
fill
grestore
stroke
grestore
} bind def
72.5265 237.774 o
75.8058 159.649 o
79.0852 158.94 o
82.3645 154.809 o
85.6438 159.031 o
88.9232 158.36 o
92.2025 158.587 o
95.4818 158.399 o
98.7612 159.628 o
102.041 158.05 o
105.32 157.032 o
108.599 158.175 o
111.879 158.509 o
115.158 157.177 o
118.437 157.728 o
121.717 157.808 o
124.996 158.845 o
128.275 158.349 o
131.555 158.457 o
134.834 158.153 o
138.113 159.55 o
141.393 158.891 o
144.672 157.541 o
147.951 158.858 o
151.231 157.509 o
154.51 157.996 o
157.789 158.427 o
161.069 158.768 o
164.348 159.595 o
167.627 160.193 o
170.907 159.733 o
174.186 159.664 o
177.465 157.431 o
180.745 158.843 o
184.024 158.921 o
187.303 160.305 o
190.583 158.897 o
193.862 159.302 o
197.141 159.061 o
200.421 159.669 o
203.7 159.35 o
206.979 159.498 o
210.259 159.347 o
213.538 160.661 o
216.817 159.843 o
220.097 159.598 o
223.376 160.18 o
226.655 158.806 o
229.935 159.554 o
233.214 159.761 o
236.493 158.535 o
239.773 159.02 o
243.052 158.565 o
246.331 159.166 o
249.611 158.311 o
252.89 161.848 o
256.169 159.442 o
259.449 157.933 o
262.728 158.688 o
266.007 159.462 o
269.287 159.005 o
272.566 158.269 o
275.845 159.253 o
279.125 158.414 o
282.404 158.539 o
285.684 158.485 o
288.963 158.088 o
292.242 158.341 o
295.522 158.138 o
298.801 158.429 o
302.08 157.897 o
305.36 157.827 o
308.639 158.8 o
311.918 158.772 o
315.198 160.717 o
318.477 159.865 o
321.756 158.205 o
325.036 159.667 o
328.315 158.932 o
331.594 159.071 o
334.874 159.776 o
338.153 159.468 o
341.432 158.636 o
344.712 159.123 o
347.991 159.591 o
351.27 161.256 o
354.55 159.688 o
357.829 158.351 o
361.108 160.613 o
364.388 159.559 o
367.667 159.632 o
370.946 158.366 o
374.226 158.871 o
377.505 158.666 o
380.784 159.38 o
384.064 159.3 o
387.343 158.16 o
390.622 157.901 o
393.902 158.147 o
397.181 160.08 o
grestore
0.800 setlinewidth
2 setlinecap
0.000 setgray
gsave
56.29375 48.7 m
56.29375 314.812 l
stroke
grestore
gsave
413.41375 48.7 m
413.41375 314.812 l
stroke
grestore
gsave
56.29375 48.7 m
413.41375 48.7 l
stroke
grestore
gsave
56.29375 314.812 m
413.41375 314.812 l
stroke
grestore

end
showpage
