%!PS-Adobe-3.0 EPSF-3.0
%%Title: results/partial_symmetry/throughput_partial.eps
%%Creator: matplotlib version 3.3.0, http://matplotlib.org/
%%CreationDate: Fri Aug 14 02:43:44 2020
%%Orientation: portrait
%%BoundingBox: 92.42750000000002 234.99400000000003 519.5725 557.006
%%EndComments
%%BeginProlog
/mpldict 8 dict def
mpldict begin
/m { moveto } bind def
/l { lineto } bind def
/r { rlineto } bind def
/c { curveto } bind def
/cl { closepath } bind def
/box {
      m
      1 index 0 r
      0 exch r
      neg 0 r
      cl
    } bind def
/clipbox {
      box
      clip
      newpath
    } bind def
%!PS-Adobe-3.0 Resource-Font
%%Title: DejaVu Sans
%%Copyright: Copyright (c) 2003 by Bitstream, Inc. All Rights Reserved. Copyright (c) 2006 by Tavmjong Bah. All Rights Reserved. DejaVu changes are in public domain 
%%Creator: Converted from TrueType to type 3 by PPR
25 dict begin
/_d{bind def}bind def
/_m{moveto}_d
/_l{lineto}_d
/_cl{closepath eofill}_d
/_c{curveto}_d
/_sc{7 -1 roll{setcachedevice}{pop pop pop pop pop pop}ifelse}_d
/_e{exec}_d
/FontName /DejaVuSans def
/PaintType 0 def
/FontMatrix[.001 0 0 .001 0 0]def
/FontBBox[-1021 -463 1793 1232]def
/FontType 3 def
/Encoding [ /space /parenleft /parenright /slash /zero /one /two /three /five /eight /nine /M /T /b /c /e /g /h /i /m /o /p /r /s /t /u ] def
/FontInfo 10 dict dup begin
/FamilyName (DejaVu Sans) def
/FullName (DejaVu Sans) def
/Notice (Copyright (c) 2003 by Bitstream, Inc. All Rights Reserved. Copyright (c) 2006 by Tavmjong Bah. All Rights Reserved. DejaVu changes are in public domain ) def
/Weight (Book) def
/Version (Version 2.35) def
/ItalicAngle 0.0 def
/isFixedPitch false def
/UnderlinePosition -130 def
/UnderlineThickness 90 def
end readonly def
/CharStrings 27 dict dup begin
/.notdef 0 def
/space{318 0 0 0 0 0 _sc
}_d
/parenleft{390 0 86 -131 310 759 _sc
310 759 _m
266 683 234 609 213 536 _c
191 463 181 389 181 314 _c
181 238 191 164 213 91 _c
234 17 266 -56 310 -131 _c
232 -131 _l
183 -54 146 20 122 94 _c
98 168 86 241 86 314 _c
86 386 98 459 122 533 _c
146 607 182 682 232 759 _c
310 759 _l
_cl}_d
/parenright{390 0 80 -131 304 759 _sc
80 759 _m
158 759 _l
206 682 243 607 267 533 _c
291 459 304 386 304 314 _c
304 241 291 168 267 94 _c
243 20 206 -54 158 -131 _c
80 -131 _l
123 -56 155 17 177 91 _c
198 164 209 238 209 314 _c
209 389 198 463 177 536 _c
155 609 123 683 80 759 _c
_cl}_d
/slash{337 0 0 -92 337 729 _sc
254 729 _m
337 729 _l
83 -92 _l
0 -92 _l
254 729 _l
_cl}_d
/zero{636 0 66 -13 570 742 _sc
318 664 _m
267 664 229 639 203 589 _c
177 539 165 464 165 364 _c
165 264 177 189 203 139 _c
229 89 267 64 318 64 _c
369 64 407 89 433 139 _c
458 189 471 264 471 364 _c
471 464 458 539 433 589 _c
407 639 369 664 318 664 _c
318 742 _m
399 742 461 709 505 645 _c
548 580 570 486 570 364 _c
570 241 548 147 505 83 _c
461 19 399 -13 318 -13 _c
236 -13 173 19 130 83 _c
87 147 66 241 66 364 _c
66 486 87 580 130 645 _c
173 709 236 742 318 742 _c
_cl}_d
/one{636 0 110 0 544 729 _sc
124 83 _m
285 83 _l
285 639 _l
110 604 _l
110 694 _l
284 729 _l
383 729 _l
383 83 _l
544 83 _l
544 0 _l
124 0 _l
124 83 _l
_cl}_d
/two{{636 0 73 0 536 742 _sc
192 83 _m
536 83 _l
536 0 _l
73 0 _l
73 83 _l
110 121 161 173 226 239 _c
290 304 331 346 348 365 _c
380 400 402 430 414 455 _c
426 479 433 504 433 528 _c
433 566 419 598 392 622 _c
365 646 330 659 286 659 _c
255 659 222 653 188 643 _c
154 632 117 616 78 594 _c
78 694 _l
118 710 155 722 189 730 _c
223 738 255 742 284 742 _c
}_e{359 742 419 723 464 685 _c
509 647 532 597 532 534 _c
532 504 526 475 515 449 _c
504 422 484 390 454 354 _c
446 344 420 317 376 272 _c
332 227 271 164 192 83 _c
_cl}_e}_d
/three{{636 0 76 -13 556 742 _sc
406 393 _m
453 383 490 362 516 330 _c
542 298 556 258 556 212 _c
556 140 531 84 482 45 _c
432 6 362 -13 271 -13 _c
240 -13 208 -10 176 -4 _c
144 1 110 10 76 22 _c
76 117 _l
103 101 133 89 166 81 _c
198 73 232 69 268 69 _c
330 69 377 81 409 105 _c
441 129 458 165 458 212 _c
458 254 443 288 413 312 _c
383 336 341 349 287 349 _c
}_e{202 349 _l
202 430 _l
291 430 _l
339 430 376 439 402 459 _c
428 478 441 506 441 543 _c
441 580 427 609 401 629 _c
374 649 336 659 287 659 _c
260 659 231 656 200 650 _c
169 644 135 635 98 623 _c
98 711 _l
135 721 170 729 203 734 _c
235 739 266 742 296 742 _c
370 742 429 725 473 691 _c
517 657 539 611 539 553 _c
539 513 527 479 504 451 _c
481 423 448 403 406 393 _c
_cl}_e}_d
/five{{636 0 77 -13 549 729 _sc
108 729 _m
495 729 _l
495 646 _l
198 646 _l
198 467 _l
212 472 227 476 241 478 _c
255 480 270 482 284 482 _c
365 482 429 459 477 415 _c
525 370 549 310 549 234 _c
549 155 524 94 475 51 _c
426 8 357 -13 269 -13 _c
238 -13 207 -10 175 -6 _c
143 -1 111 6 77 17 _c
77 116 _l
106 100 136 88 168 80 _c
199 72 232 69 267 69 _c
}_e{323 69 368 83 401 113 _c
433 143 450 183 450 234 _c
450 284 433 324 401 354 _c
368 384 323 399 267 399 _c
241 399 214 396 188 390 _c
162 384 135 375 108 363 _c
108 729 _l
_cl}_e}_d
/eight{{636 0 68 -13 568 742 _sc
318 346 _m
271 346 234 333 207 308 _c
180 283 167 249 167 205 _c
167 161 180 126 207 101 _c
234 76 271 64 318 64 _c
364 64 401 76 428 102 _c
455 127 469 161 469 205 _c
469 249 455 283 429 308 _c
402 333 365 346 318 346 _c
219 388 _m
177 398 144 418 120 447 _c
96 476 85 511 85 553 _c
85 611 105 657 147 691 _c
188 725 245 742 318 742 _c
}_e{390 742 447 725 489 691 _c
530 657 551 611 551 553 _c
551 511 539 476 515 447 _c
491 418 459 398 417 388 _c
464 377 501 355 528 323 _c
554 291 568 251 568 205 _c
568 134 546 80 503 43 _c
459 5 398 -13 318 -13 _c
237 -13 175 5 132 43 _c
89 80 68 134 68 205 _c
68 251 81 291 108 323 _c
134 355 171 377 219 388 _c
183 544 _m
183 506 194 476 218 455 _c
}_e{242 434 275 424 318 424 _c
360 424 393 434 417 455 _c
441 476 453 506 453 544 _c
453 582 441 611 417 632 _c
393 653 360 664 318 664 _c
275 664 242 653 218 632 _c
194 611 183 582 183 544 _c
_cl}_e}_d
/nine{{636 0 63 -13 566 742 _sc
110 15 _m
110 105 _l
134 93 159 84 185 78 _c
210 72 235 69 260 69 _c
324 69 374 90 408 134 _c
442 178 462 244 468 334 _c
448 306 424 284 396 269 _c
367 254 335 247 300 247 _c
226 247 168 269 126 313 _c
84 357 63 417 63 494 _c
63 568 85 628 129 674 _c
173 719 232 742 306 742 _c
390 742 455 709 499 645 _c
543 580 566 486 566 364 _c
}_e{566 248 538 157 484 89 _c
429 21 356 -13 264 -13 _c
239 -13 214 -10 189 -6 _c
163 -2 137 5 110 15 _c
306 324 _m
350 324 385 339 411 369 _c
437 399 450 441 450 494 _c
450 546 437 588 411 618 _c
385 648 350 664 306 664 _c
262 664 227 648 201 618 _c
175 588 162 546 162 494 _c
162 441 175 399 201 369 _c
227 339 262 324 306 324 _c
_cl}_e}_d
/M{863 0 98 0 765 729 _sc
98 729 _m
245 729 _l
431 233 _l
618 729 _l
765 729 _l
765 0 _l
669 0 _l
669 640 _l
481 140 _l
382 140 _l
194 640 _l
194 0 _l
98 0 _l
98 729 _l
_cl}_d
/T{611 0 -2 0 614 729 _sc
-2 729 _m
614 729 _l
614 646 _l
355 646 _l
355 0 _l
256 0 _l
256 646 _l
-2 646 _l
-2 729 _l
_cl}_d
/b{{635 0 91 -13 580 760 _sc
487 273 _m
487 339 473 390 446 428 _c
418 466 381 485 334 485 _c
286 485 249 466 222 428 _c
194 390 181 339 181 273 _c
181 207 194 155 222 117 _c
249 79 286 61 334 61 _c
381 61 418 79 446 117 _c
473 155 487 207 487 273 _c
181 464 _m
199 496 223 520 252 536 _c
281 552 316 560 356 560 _c
422 560 476 533 518 481 _c
559 428 580 359 580 273 _c
}_e{580 187 559 117 518 65 _c
476 13 422 -13 356 -13 _c
316 -13 281 -5 252 10 _c
223 25 199 49 181 82 _c
181 0 _l
91 0 _l
91 760 _l
181 760 _l
181 464 _l
_cl}_e}_d
/c{{550 0 55 -13 488 560 _sc
488 526 _m
488 442 _l
462 456 437 466 411 473 _c
385 480 360 484 334 484 _c
276 484 230 465 198 428 _c
166 391 150 339 150 273 _c
150 206 166 154 198 117 _c
230 80 276 62 334 62 _c
360 62 385 65 411 72 _c
437 79 462 90 488 104 _c
488 21 _l
462 9 436 0 410 -5 _c
383 -10 354 -13 324 -13 _c
242 -13 176 12 128 64 _c
}_e{79 115 55 185 55 273 _c
55 362 79 432 128 483 _c
177 534 244 560 330 560 _c
358 560 385 557 411 551 _c
437 545 463 537 488 526 _c
_cl}_e}_d
/e{{615 0 55 -13 562 560 _sc
562 296 _m
562 252 _l
149 252 _l
153 190 171 142 205 110 _c
238 78 284 62 344 62 _c
378 62 412 66 444 74 _c
476 82 509 95 541 113 _c
541 28 _l
509 14 476 3 442 -3 _c
408 -9 373 -13 339 -13 _c
251 -13 182 12 131 62 _c
80 112 55 181 55 268 _c
55 357 79 428 127 481 _c
175 533 241 560 323 560 _c
397 560 455 536 498 489 _c
}_e{540 441 562 377 562 296 _c
472 322 _m
471 371 457 410 431 440 _c
404 469 368 484 324 484 _c
274 484 234 469 204 441 _c
174 413 156 373 152 322 _c
472 322 _l
_cl}_e}_d
/g{{635 0 55 -207 544 560 _sc
454 280 _m
454 344 440 395 414 431 _c
387 467 349 485 301 485 _c
253 485 215 467 188 431 _c
161 395 148 344 148 280 _c
148 215 161 165 188 129 _c
215 93 253 75 301 75 _c
349 75 387 93 414 129 _c
440 165 454 215 454 280 _c
544 68 _m
544 -24 523 -93 482 -139 _c
440 -184 377 -207 292 -207 _c
260 -207 231 -204 203 -200 _c
175 -195 147 -188 121 -178 _c
}_e{121 -91 _l
147 -105 173 -115 199 -122 _c
225 -129 251 -133 278 -133 _c
336 -133 380 -117 410 -87 _c
439 -56 454 -10 454 52 _c
454 96 _l
435 64 411 40 382 24 _c
353 8 319 0 279 0 _c
211 0 157 25 116 76 _c
75 127 55 195 55 280 _c
55 364 75 432 116 483 _c
157 534 211 560 279 560 _c
319 560 353 552 382 536 _c
411 520 435 496 454 464 _c
454 547 _l
544 547 _l
}_e{544 68 _l
_cl}_e}_d
/h{634 0 91 0 549 760 _sc
549 330 _m
549 0 _l
459 0 _l
459 327 _l
459 379 448 417 428 443 _c
408 469 378 482 338 482 _c
289 482 251 466 223 435 _c
195 404 181 362 181 309 _c
181 0 _l
91 0 _l
91 760 _l
181 760 _l
181 462 _l
202 494 227 519 257 535 _c
286 551 320 560 358 560 _c
420 560 468 540 500 501 _c
532 462 549 405 549 330 _c
_cl}_d
/i{278 0 94 0 184 760 _sc
94 547 _m
184 547 _l
184 0 _l
94 0 _l
94 547 _l
94 760 _m
184 760 _l
184 646 _l
94 646 _l
94 760 _l
_cl}_d
/m{{974 0 91 0 889 560 _sc
520 442 _m
542 482 569 511 600 531 _c
631 550 668 560 711 560 _c
767 560 811 540 842 500 _c
873 460 889 403 889 330 _c
889 0 _l
799 0 _l
799 327 _l
799 379 789 418 771 444 _c
752 469 724 482 686 482 _c
639 482 602 466 575 435 _c
548 404 535 362 535 309 _c
535 0 _l
445 0 _l
445 327 _l
445 379 435 418 417 444 _c
398 469 369 482 331 482 _c
}_e{285 482 248 466 221 435 _c
194 404 181 362 181 309 _c
181 0 _l
91 0 _l
91 547 _l
181 547 _l
181 462 _l
201 495 226 520 255 536 _c
283 552 317 560 357 560 _c
397 560 430 550 458 530 _c
486 510 506 480 520 442 _c
_cl}_e}_d
/o{612 0 55 -13 557 560 _sc
306 484 _m
258 484 220 465 192 427 _c
164 389 150 338 150 273 _c
150 207 163 156 191 118 _c
219 80 257 62 306 62 _c
354 62 392 80 420 118 _c
448 156 462 207 462 273 _c
462 337 448 389 420 427 _c
392 465 354 484 306 484 _c
306 560 _m
384 560 445 534 490 484 _c
534 433 557 363 557 273 _c
557 183 534 113 490 63 _c
445 12 384 -13 306 -13 _c
227 -13 165 12 121 63 _c
77 113 55 183 55 273 _c
55 363 77 433 121 484 _c
165 534 227 560 306 560 _c
_cl}_d
/p{{635 0 91 -207 580 560 _sc
181 82 _m
181 -207 _l
91 -207 _l
91 547 _l
181 547 _l
181 464 _l
199 496 223 520 252 536 _c
281 552 316 560 356 560 _c
422 560 476 533 518 481 _c
559 428 580 359 580 273 _c
580 187 559 117 518 65 _c
476 13 422 -13 356 -13 _c
316 -13 281 -5 252 10 _c
223 25 199 49 181 82 _c
487 273 _m
487 339 473 390 446 428 _c
418 466 381 485 334 485 _c
}_e{286 485 249 466 222 428 _c
194 390 181 339 181 273 _c
181 207 194 155 222 117 _c
249 79 286 61 334 61 _c
381 61 418 79 446 117 _c
473 155 487 207 487 273 _c
_cl}_e}_d
/r{411 0 91 0 411 560 _sc
411 463 _m
401 469 390 473 378 476 _c
366 478 353 480 339 480 _c
288 480 249 463 222 430 _c
194 397 181 350 181 288 _c
181 0 _l
91 0 _l
91 547 _l
181 547 _l
181 462 _l
199 495 224 520 254 536 _c
284 552 321 560 365 560 _c
371 560 378 559 386 559 _c
393 558 401 557 411 555 _c
411 463 _l
_cl}_d
/s{{521 0 54 -13 472 560 _sc
443 531 _m
443 446 _l
417 458 391 468 364 475 _c
336 481 308 485 279 485 _c
234 485 200 478 178 464 _c
156 450 145 430 145 403 _c
145 382 153 366 169 354 _c
185 342 217 330 265 320 _c
296 313 _l
360 299 405 279 432 255 _c
458 230 472 195 472 151 _c
472 100 452 60 412 31 _c
372 1 316 -13 246 -13 _c
216 -13 186 -10 154 -5 _c
}_e{122 0 89 8 54 20 _c
54 113 _l
87 95 120 82 152 74 _c
184 65 216 61 248 61 _c
290 61 323 68 346 82 _c
368 96 380 117 380 144 _c
380 168 371 187 355 200 _c
339 213 303 226 247 238 _c
216 245 _l
160 257 119 275 95 299 _c
70 323 58 356 58 399 _c
58 450 76 490 112 518 _c
148 546 200 560 268 560 _c
301 560 332 557 362 552 _c
391 547 418 540 443 531 _c
}_e{_cl}_e}_d
/t{392 0 27 0 368 702 _sc
183 702 _m
183 547 _l
368 547 _l
368 477 _l
183 477 _l
183 180 _l
183 135 189 106 201 94 _c
213 81 238 75 276 75 _c
368 75 _l
368 0 _l
276 0 _l
206 0 158 13 132 39 _c
106 65 93 112 93 180 _c
93 477 _l
27 477 _l
27 547 _l
93 547 _l
93 702 _l
183 702 _l
_cl}_d
/u{634 0 85 -13 543 560 _sc
85 216 _m
85 547 _l
175 547 _l
175 219 _l
175 167 185 129 205 103 _c
225 77 255 64 296 64 _c
344 64 383 79 411 110 _c
439 141 453 183 453 237 _c
453 547 _l
543 547 _l
543 0 _l
453 0 _l
453 84 _l
431 50 405 26 377 10 _c
348 -5 315 -13 277 -13 _c
214 -13 166 6 134 45 _c
101 83 85 140 85 216 _c
311 560 _m
311 560 _l
_cl}_d
end readonly def

/BuildGlyph
 {exch begin
 CharStrings exch
 2 copy known not{pop /.notdef}if
 true 3 1 roll get exec
 end}_d

/BuildChar {
 1 index /Encoding get exch get
 1 index /BuildGlyph get exec
}_d

FontName currentdict end definefont pop
end
%%EndProlog
mpldict begin
92.428 234.994 translate
427.145 322.012 0 0 clipbox
gsave
0 0 m
427.145 0 l
427.145 322.012 l
0 322.012 l
cl
1.000 setgray
fill
grestore
gsave
62.825 48.7 m
419.945 48.7 l
419.945 314.812 l
62.825 314.812 l
cl
1.000 setgray
fill
grestore
0.100 setlinewidth
1 setlinejoin
2 setlinecap
[] 0 setdash
0.000 setgray
gsave
357.1 266.1 62.83 48.7 clipbox
66.071545 48.7 m
66.071545 314.812 l
stroke
grestore
0 setlinecap
gsave
/o {
gsave
newpath
translate
0.1 setlinewidth
1 setlinejoin
0 setlinecap
0 0 m
0 -4 l

gsave
0.000 setgray
fill
grestore
stroke
grestore
} bind def
66.0715 48.7 o
grestore
/DejaVuSans findfont
15.000 scalefont
setfont
gsave
61.298108 29.809375 translate
0.000000 rotate
0.000000 0 m /zero glyphshow
grestore
2 setlinecap
gsave
357.1 266.1 62.83 48.7 clipbox
131.002455 48.7 m
131.002455 314.812 l
stroke
grestore
0 setlinecap
gsave
/o {
gsave
newpath
translate
0.1 setlinewidth
1 setlinejoin
0 setlinecap
0 0 m
0 -4 l

gsave
0.000 setgray
fill
grestore
stroke
grestore
} bind def
131.002 48.7 o
grestore
gsave
126.229017 29.809375 translate
0.000000 rotate
0.000000 0 m /five glyphshow
grestore
2 setlinecap
gsave
357.1 266.1 62.83 48.7 clipbox
195.933364 48.7 m
195.933364 314.812 l
stroke
grestore
0 setlinecap
gsave
/o {
gsave
newpath
translate
0.1 setlinewidth
1 setlinejoin
0 setlinecap
0 0 m
0 -4 l

gsave
0.000 setgray
fill
grestore
stroke
grestore
} bind def
195.933 48.7 o
grestore
gsave
186.386489 29.809375 translate
0.000000 rotate
0.000000 0 m /one glyphshow
9.543457 0 m /zero glyphshow
grestore
2 setlinecap
gsave
357.1 266.1 62.83 48.7 clipbox
260.864273 48.7 m
260.864273 314.812 l
stroke
grestore
0 setlinecap
gsave
/o {
gsave
newpath
translate
0.1 setlinewidth
1 setlinejoin
0 setlinecap
0 0 m
0 -4 l

gsave
0.000 setgray
fill
grestore
stroke
grestore
} bind def
260.864 48.7 o
grestore
gsave
251.317398 29.809375 translate
0.000000 rotate
0.000000 0 m /one glyphshow
9.543457 0 m /five glyphshow
grestore
2 setlinecap
gsave
357.1 266.1 62.83 48.7 clipbox
325.795182 48.7 m
325.795182 314.812 l
stroke
grestore
0 setlinecap
gsave
/o {
gsave
newpath
translate
0.1 setlinewidth
1 setlinejoin
0 setlinecap
0 0 m
0 -4 l

gsave
0.000 setgray
fill
grestore
stroke
grestore
} bind def
325.795 48.7 o
grestore
gsave
316.248307 29.809375 translate
0.000000 rotate
0.000000 0 m /two glyphshow
9.543457 0 m /zero glyphshow
grestore
2 setlinecap
gsave
357.1 266.1 62.83 48.7 clipbox
390.726091 48.7 m
390.726091 314.812 l
stroke
grestore
0 setlinecap
gsave
/o {
gsave
newpath
translate
0.1 setlinewidth
1 setlinejoin
0 setlinecap
0 0 m
0 -4 l

gsave
0.000 setgray
fill
grestore
stroke
grestore
} bind def
390.726 48.7 o
grestore
gsave
381.179216 29.809375 translate
0.000000 rotate
0.000000 0 m /two glyphshow
9.543457 0 m /five glyphshow
grestore
/DejaVuSans findfont
16.000 scalefont
setfont
gsave
199.510000 10.528125 translate
0.000000 rotate
0.000000 0 m /T glyphshow
9.273438 0 m /i glyphshow
13.718750 0 m /m glyphshow
29.304688 0 m /e glyphshow
39.148438 0 m /space glyphshow
44.234375 0 m /parenleft glyphshow
50.476562 0 m /s glyphshow
58.812500 0 m /e glyphshow
68.656250 0 m /c glyphshow
77.453125 0 m /parenright glyphshow
grestore
2 setlinecap
gsave
357.1 266.1 62.83 48.7 clipbox
62.825 73.614173 m
419.945 73.614173 l
stroke
grestore
0 setlinecap
gsave
/o {
gsave
newpath
translate
0.1 setlinewidth
1 setlinejoin
0 setlinecap
-0 0 m
-4 0 l

gsave
0.000 setgray
fill
grestore
stroke
grestore
} bind def
62.825 73.6142 o
grestore
/DejaVuSans findfont
15.000 scalefont
setfont
gsave
26.684375 67.918861 translate
0.000000 rotate
0.000000 0 m /two glyphshow
9.543457 0 m /eight glyphshow
19.086914 0 m /zero glyphshow
grestore
2 setlinecap
gsave
357.1 266.1 62.83 48.7 clipbox
62.825 139.587331 m
419.945 139.587331 l
stroke
grestore
0 setlinecap
gsave
/o {
gsave
newpath
translate
0.1 setlinewidth
1 setlinejoin
0 setlinecap
-0 0 m
-4 0 l

gsave
0.000 setgray
fill
grestore
stroke
grestore
} bind def
62.825 139.587 o
grestore
gsave
26.684375 133.892019 translate
0.000000 rotate
0.000000 0 m /two glyphshow
9.543457 0 m /nine glyphshow
19.086914 0 m /zero glyphshow
grestore
2 setlinecap
gsave
357.1 266.1 62.83 48.7 clipbox
62.825 205.560489 m
419.945 205.560489 l
stroke
grestore
0 setlinecap
gsave
/o {
gsave
newpath
translate
0.1 setlinewidth
1 setlinejoin
0 setlinecap
-0 0 m
-4 0 l

gsave
0.000 setgray
fill
grestore
stroke
grestore
} bind def
62.825 205.56 o
grestore
gsave
26.684375 199.865177 translate
0.000000 rotate
0.000000 0 m /three glyphshow
9.543457 0 m /zero glyphshow
19.086914 0 m /zero glyphshow
grestore
2 setlinecap
gsave
357.1 266.1 62.83 48.7 clipbox
62.825 271.533647 m
419.945 271.533647 l
stroke
grestore
0 setlinecap
gsave
/o {
gsave
newpath
translate
0.1 setlinewidth
1 setlinejoin
0 setlinecap
-0 0 m
-4 0 l

gsave
0.000 setgray
fill
grestore
stroke
grestore
} bind def
62.825 271.534 o
grestore
gsave
26.684375 265.838335 translate
0.000000 rotate
0.000000 0 m /three glyphshow
9.543457 0 m /one glyphshow
19.086914 0 m /zero glyphshow
grestore
/DejaVuSans findfont
16.000 scalefont
setfont
gsave
19.356250 88.779438 translate
90.000000 rotate
0.000000 0 m /T glyphshow
9.773438 0 m /h glyphshow
19.914062 0 m /r glyphshow
26.117188 0 m /o glyphshow
35.906250 0 m /u glyphshow
46.046875 0 m /g glyphshow
56.203125 0 m /h glyphshow
66.343750 0 m /p glyphshow
76.500000 0 m /u glyphshow
86.640625 0 m /t glyphshow
92.914062 0 m /space glyphshow
98.000000 0 m /parenleft glyphshow
104.242188 0 m /M glyphshow
118.046875 0 m /b glyphshow
128.203125 0 m /i glyphshow
132.648438 0 m /t glyphshow
138.921875 0 m /s glyphshow
147.257812 0 m /slash glyphshow
152.648438 0 m /s glyphshow
160.984375 0 m /e glyphshow
170.828125 0 m /c glyphshow
179.625000 0 m /parenright glyphshow
grestore
1.500 setlinewidth
0.000 0.000 1.000 setrgbcolor
gsave
357.1 266.1 62.83 48.7 clipbox
79.057727 60.796 m
79.057727 62.30502 l
stroke
grestore
gsave
357.1 266.1 62.83 48.7 clipbox
92.043909 258.602883 m
92.043909 261.091064 l
stroke
grestore
gsave
357.1 266.1 62.83 48.7 clipbox
105.030091 264.297238 m
105.030091 266.706393 l
stroke
grestore
gsave
357.1 266.1 62.83 48.7 clipbox
118.016273 257.890782 m
118.016273 260.295208 l
stroke
grestore
gsave
357.1 266.1 62.83 48.7 clipbox
131.002455 291.099322 m
131.002455 292.305847 l
stroke
grestore
gsave
357.1 266.1 62.83 48.7 clipbox
143.988636 254.891081 m
143.988636 256.132108 l
stroke
grestore
gsave
357.1 266.1 62.83 48.7 clipbox
156.974818 237.021524 m
156.974818 238.564655 l
stroke
grestore
gsave
357.1 266.1 62.83 48.7 clipbox
169.961 252.590212 m
169.961 253.909104 l
stroke
grestore
gsave
357.1 266.1 62.83 48.7 clipbox
182.947182 247.491981 m
182.947182 248.828619 l
stroke
grestore
gsave
357.1 266.1 62.83 48.7 clipbox
195.933364 242.977243 m
195.933364 244.672599 l
stroke
grestore
gsave
357.1 266.1 62.83 48.7 clipbox
208.919545 262.811975 m
208.919545 264.421761 l
stroke
grestore
gsave
357.1 266.1 62.83 48.7 clipbox
221.905727 301.800579 m
221.905727 302.716 l
stroke
grestore
gsave
357.1 266.1 62.83 48.7 clipbox
234.891909 296.542299 m
234.891909 297.418575 l
stroke
grestore
gsave
357.1 266.1 62.83 48.7 clipbox
247.878091 267.582292 m
247.878091 269.453171 l
stroke
grestore
gsave
357.1 266.1 62.83 48.7 clipbox
260.864273 263.808222 m
260.864273 265.310462 l
stroke
grestore
gsave
357.1 266.1 62.83 48.7 clipbox
273.850455 265.870389 m
273.850455 267.772169 l
stroke
grestore
gsave
357.1 266.1 62.83 48.7 clipbox
286.836636 284.56733 m
286.836636 286.397185 l
stroke
grestore
gsave
357.1 266.1 62.83 48.7 clipbox
299.822818 257.631719 m
299.822818 260.55427 l
stroke
grestore
gsave
357.1 266.1 62.83 48.7 clipbox
312.809 250.102972 m
312.809 253.380428 l
stroke
grestore
gsave
357.1 266.1 62.83 48.7 clipbox
325.795182 220.239816 m
325.795182 223.679247 l
stroke
grestore
gsave
357.1 266.1 62.83 48.7 clipbox
338.781364 255.285171 m
338.781364 258.376945 l
stroke
grestore
gsave
357.1 266.1 62.83 48.7 clipbox
351.767545 269.314163 m
351.767545 271.868184 l
stroke
grestore
gsave
357.1 266.1 62.83 48.7 clipbox
364.753727 230.891747 m
364.753727 234.138727 l
stroke
grestore
gsave
357.1 266.1 62.83 48.7 clipbox
377.739909 207.531845 m
377.739909 211.128924 l
stroke
grestore
gsave
357.1 266.1 62.83 48.7 clipbox
390.726091 189.691743 m
390.726091 193.909004 l
stroke
grestore
gsave
357.1 266.1 62.83 48.7 clipbox
403.712273 188.905387 m
403.712273 193.187402 l
stroke
grestore
gsave
357.1 266.1 62.83 48.7 clipbox
0 0 m
stroke
grestore
gsave
357.1 266.1 62.83 48.7 clipbox
0 0 m
stroke
grestore
gsave
357.1 266.1 62.83 48.7 clipbox
0 0 m
stroke
grestore
[5.55 2.4] 0 setdash
gsave
357.1 266.1 62.83 48.7 clipbox
79.057727 61.55051 m
92.043909 259.846974 l
105.030091 265.501816 l
118.016273 259.092995 l
131.002455 291.702584 l
143.988636 255.511595 l
156.974818 237.793089 l
169.961 253.249658 l
182.947182 248.1603 l
195.933364 243.824921 l
208.919545 263.616868 l
221.905727 302.258289 l
234.891909 296.980437 l
247.878091 268.517732 l
260.864273 264.559342 l
273.850455 266.821279 l
286.836636 285.482258 l
299.822818 259.092995 l
312.809 251.7417 l
325.795182 221.959531 l
338.781364 256.831058 l
351.767545 270.591174 l
364.753727 232.515237 l
377.739909 209.330384 l
390.726091 191.800374 l
403.712273 191.046395 l
stroke
grestore
1.000 setlinewidth
0 setlinejoin
[] 0 setdash
gsave
357.1 266.1 62.83 48.7 clipbox
/o {
gsave
newpath
translate
1.0 setlinewidth
0 setlinejoin
0 setlinecap
-3 -3 m
3 -3 l
3 3 l
-3 3 l
cl

gsave
0.000 0.000 1.000 setrgbcolor
fill
grestore
stroke
grestore
} bind def
79.0577 61.5505 o
92.0439 259.847 o
105.03 265.502 o
118.016 259.093 o
131.002 291.703 o
143.989 255.512 o
156.975 237.793 o
169.961 253.25 o
182.947 248.16 o
195.933 243.825 o
208.92 263.617 o
221.906 302.258 o
234.892 296.98 o
247.878 268.518 o
260.864 264.559 o
273.85 266.821 o
286.837 285.482 o
299.823 259.093 o
312.809 251.742 o
325.795 221.96 o
338.781 256.831 o
351.768 270.591 o
364.754 232.515 o
377.74 209.33 o
390.726 191.8 o
403.712 191.046 o
grestore
0.800 setlinewidth
2 setlinecap
0.000 setgray
gsave
62.825 48.7 m
62.825 314.812 l
stroke
grestore
gsave
419.945 48.7 m
419.945 314.812 l
stroke
grestore
gsave
62.825 48.7 m
419.945 48.7 l
stroke
grestore
gsave
62.825 314.812 m
419.945 314.812 l
stroke
grestore

end
showpage
