%!PS-Adobe-3.0 EPSF-3.0
%%Title: results/partial_symmetry/transfer_partial.eps
%%Creator: matplotlib version 3.3.0, http://matplotlib.org/
%%CreationDate: Fri Aug 14 02:43:44 2020
%%Orientation: portrait
%%BoundingBox: 97.20093750000001 234.99400000000003 514.7990625 557.006
%%EndComments
%%BeginProlog
/mpldict 8 dict def
mpldict begin
/m { moveto } bind def
/l { lineto } bind def
/r { rlineto } bind def
/c { curveto } bind def
/cl { closepath } bind def
/box {
      m
      1 index 0 r
      0 exch r
      neg 0 r
      cl
    } bind def
/clipbox {
      box
      clip
      newpath
    } bind def
%!PS-Adobe-3.0 Resource-Font
%%Title: DejaVu Sans
%%Copyright: Copyright (c) 2003 by Bitstream, Inc. All Rights Reserved. Copyright (c) 2006 by Tavmjong Bah. All Rights Reserved. DejaVu changes are in public domain 
%%Creator: Converted from TrueType to type 3 by PPR
25 dict begin
/_d{bind def}bind def
/_m{moveto}_d
/_l{lineto}_d
/_cl{closepath eofill}_d
/_c{curveto}_d
/_sc{7 -1 roll{setcachedevice}{pop pop pop pop pop pop}ifelse}_d
/_e{exec}_d
/FontName /DejaVuSans def
/PaintType 0 def
/FontMatrix[.001 0 0 .001 0 0]def
/FontBBox[-1021 -463 1793 1232]def
/FontType 3 def
/Encoding [ /space /parenleft /parenright /zero /one /two /three /four /five /six /seven /B /M /T /a /c /e /f /i /m /n /r /s /t /y ] def
/FontInfo 10 dict dup begin
/FamilyName (DejaVu Sans) def
/FullName (DejaVu Sans) def
/Notice (Copyright (c) 2003 by Bitstream, Inc. All Rights Reserved. Copyright (c) 2006 by Tavmjong Bah. All Rights Reserved. DejaVu changes are in public domain ) def
/Weight (Book) def
/Version (Version 2.35) def
/ItalicAngle 0.0 def
/isFixedPitch false def
/UnderlinePosition -130 def
/UnderlineThickness 90 def
end readonly def
/CharStrings 26 dict dup begin
/.notdef 0 def
/space{318 0 0 0 0 0 _sc
}_d
/parenleft{390 0 86 -131 310 759 _sc
310 759 _m
266 683 234 609 213 536 _c
191 463 181 389 181 314 _c
181 238 191 164 213 91 _c
234 17 266 -56 310 -131 _c
232 -131 _l
183 -54 146 20 122 94 _c
98 168 86 241 86 314 _c
86 386 98 459 122 533 _c
146 607 182 682 232 759 _c
310 759 _l
_cl}_d
/parenright{390 0 80 -131 304 759 _sc
80 759 _m
158 759 _l
206 682 243 607 267 533 _c
291 459 304 386 304 314 _c
304 241 291 168 267 94 _c
243 20 206 -54 158 -131 _c
80 -131 _l
123 -56 155 17 177 91 _c
198 164 209 238 209 314 _c
209 389 198 463 177 536 _c
155 609 123 683 80 759 _c
_cl}_d
/zero{636 0 66 -13 570 742 _sc
318 664 _m
267 664 229 639 203 589 _c
177 539 165 464 165 364 _c
165 264 177 189 203 139 _c
229 89 267 64 318 64 _c
369 64 407 89 433 139 _c
458 189 471 264 471 364 _c
471 464 458 539 433 589 _c
407 639 369 664 318 664 _c
318 742 _m
399 742 461 709 505 645 _c
548 580 570 486 570 364 _c
570 241 548 147 505 83 _c
461 19 399 -13 318 -13 _c
236 -13 173 19 130 83 _c
87 147 66 241 66 364 _c
66 486 87 580 130 645 _c
173 709 236 742 318 742 _c
_cl}_d
/one{636 0 110 0 544 729 _sc
124 83 _m
285 83 _l
285 639 _l
110 604 _l
110 694 _l
284 729 _l
383 729 _l
383 83 _l
544 83 _l
544 0 _l
124 0 _l
124 83 _l
_cl}_d
/two{{636 0 73 0 536 742 _sc
192 83 _m
536 83 _l
536 0 _l
73 0 _l
73 83 _l
110 121 161 173 226 239 _c
290 304 331 346 348 365 _c
380 400 402 430 414 455 _c
426 479 433 504 433 528 _c
433 566 419 598 392 622 _c
365 646 330 659 286 659 _c
255 659 222 653 188 643 _c
154 632 117 616 78 594 _c
78 694 _l
118 710 155 722 189 730 _c
223 738 255 742 284 742 _c
}_e{359 742 419 723 464 685 _c
509 647 532 597 532 534 _c
532 504 526 475 515 449 _c
504 422 484 390 454 354 _c
446 344 420 317 376 272 _c
332 227 271 164 192 83 _c
_cl}_e}_d
/three{{636 0 76 -13 556 742 _sc
406 393 _m
453 383 490 362 516 330 _c
542 298 556 258 556 212 _c
556 140 531 84 482 45 _c
432 6 362 -13 271 -13 _c
240 -13 208 -10 176 -4 _c
144 1 110 10 76 22 _c
76 117 _l
103 101 133 89 166 81 _c
198 73 232 69 268 69 _c
330 69 377 81 409 105 _c
441 129 458 165 458 212 _c
458 254 443 288 413 312 _c
383 336 341 349 287 349 _c
}_e{202 349 _l
202 430 _l
291 430 _l
339 430 376 439 402 459 _c
428 478 441 506 441 543 _c
441 580 427 609 401 629 _c
374 649 336 659 287 659 _c
260 659 231 656 200 650 _c
169 644 135 635 98 623 _c
98 711 _l
135 721 170 729 203 734 _c
235 739 266 742 296 742 _c
370 742 429 725 473 691 _c
517 657 539 611 539 553 _c
539 513 527 479 504 451 _c
481 423 448 403 406 393 _c
_cl}_e}_d
/four{636 0 49 0 580 729 _sc
378 643 _m
129 254 _l
378 254 _l
378 643 _l
352 729 _m
476 729 _l
476 254 _l
580 254 _l
580 172 _l
476 172 _l
476 0 _l
378 0 _l
378 172 _l
49 172 _l
49 267 _l
352 729 _l
_cl}_d
/five{{636 0 77 -13 549 729 _sc
108 729 _m
495 729 _l
495 646 _l
198 646 _l
198 467 _l
212 472 227 476 241 478 _c
255 480 270 482 284 482 _c
365 482 429 459 477 415 _c
525 370 549 310 549 234 _c
549 155 524 94 475 51 _c
426 8 357 -13 269 -13 _c
238 -13 207 -10 175 -6 _c
143 -1 111 6 77 17 _c
77 116 _l
106 100 136 88 168 80 _c
199 72 232 69 267 69 _c
}_e{323 69 368 83 401 113 _c
433 143 450 183 450 234 _c
450 284 433 324 401 354 _c
368 384 323 399 267 399 _c
241 399 214 396 188 390 _c
162 384 135 375 108 363 _c
108 729 _l
_cl}_e}_d
/six{{636 0 70 -13 573 742 _sc
330 404 _m
286 404 251 388 225 358 _c
199 328 186 286 186 234 _c
186 181 199 139 225 109 _c
251 79 286 64 330 64 _c
374 64 409 79 435 109 _c
461 139 474 181 474 234 _c
474 286 461 328 435 358 _c
409 388 374 404 330 404 _c
526 713 _m
526 623 _l
501 635 476 644 451 650 _c
425 656 400 659 376 659 _c
310 659 260 637 226 593 _c
}_e{192 549 172 482 168 394 _c
187 422 211 444 240 459 _c
269 474 301 482 336 482 _c
409 482 467 459 509 415 _c
551 371 573 310 573 234 _c
573 159 550 99 506 54 _c
462 9 403 -13 330 -13 _c
246 -13 181 19 137 83 _c
92 147 70 241 70 364 _c
70 479 97 571 152 639 _c
206 707 280 742 372 742 _c
396 742 421 739 447 735 _c
472 730 498 723 526 713 _c
_cl}_e}_d
/seven{636 0 82 0 551 729 _sc
82 729 _m
551 729 _l
551 687 _l
286 0 _l
183 0 _l
432 646 _l
82 646 _l
82 729 _l
_cl}_d
/B{{686 0 98 0 615 729 _sc
197 348 _m
197 81 _l
355 81 _l
408 81 447 92 473 114 _c
498 136 511 169 511 215 _c
511 260 498 293 473 315 _c
447 337 408 348 355 348 _c
197 348 _l
197 648 _m
197 428 _l
343 428 _l
391 428 426 437 450 455 _c
474 473 486 500 486 538 _c
486 574 474 602 450 620 _c
426 638 391 648 343 648 _c
197 648 _l
98 729 _m
350 729 _l
}_e{425 729 483 713 524 682 _c
564 650 585 606 585 549 _c
585 504 574 468 553 442 _c
532 416 502 399 462 393 _c
510 382 548 360 575 327 _c
601 294 615 253 615 204 _c
615 138 592 88 548 53 _c
504 17 441 0 360 0 _c
98 0 _l
98 729 _l
_cl}_e}_d
/M{863 0 98 0 765 729 _sc
98 729 _m
245 729 _l
431 233 _l
618 729 _l
765 729 _l
765 0 _l
669 0 _l
669 640 _l
481 140 _l
382 140 _l
194 640 _l
194 0 _l
98 0 _l
98 729 _l
_cl}_d
/T{611 0 -2 0 614 729 _sc
-2 729 _m
614 729 _l
614 646 _l
355 646 _l
355 0 _l
256 0 _l
256 646 _l
-2 646 _l
-2 729 _l
_cl}_d
/a{{613 0 60 -13 522 560 _sc
343 275 _m
270 275 220 266 192 250 _c
164 233 150 205 150 165 _c
150 133 160 107 181 89 _c
202 70 231 61 267 61 _c
317 61 357 78 387 114 _c
417 149 432 196 432 255 _c
432 275 _l
343 275 _l
522 312 _m
522 0 _l
432 0 _l
432 83 _l
411 49 385 25 355 10 _c
325 -5 287 -13 243 -13 _c
187 -13 142 2 109 33 _c
76 64 60 106 60 159 _c
}_e{60 220 80 266 122 298 _c
163 329 224 345 306 345 _c
432 345 _l
432 354 _l
432 395 418 427 391 450 _c
364 472 326 484 277 484 _c
245 484 215 480 185 472 _c
155 464 127 453 100 439 _c
100 522 _l
132 534 164 544 195 550 _c
226 556 256 560 286 560 _c
365 560 424 539 463 498 _c
502 457 522 395 522 312 _c
_cl}_e}_d
/c{{550 0 55 -13 488 560 _sc
488 526 _m
488 442 _l
462 456 437 466 411 473 _c
385 480 360 484 334 484 _c
276 484 230 465 198 428 _c
166 391 150 339 150 273 _c
150 206 166 154 198 117 _c
230 80 276 62 334 62 _c
360 62 385 65 411 72 _c
437 79 462 90 488 104 _c
488 21 _l
462 9 436 0 410 -5 _c
383 -10 354 -13 324 -13 _c
242 -13 176 12 128 64 _c
}_e{79 115 55 185 55 273 _c
55 362 79 432 128 483 _c
177 534 244 560 330 560 _c
358 560 385 557 411 551 _c
437 545 463 537 488 526 _c
_cl}_e}_d
/e{{615 0 55 -13 562 560 _sc
562 296 _m
562 252 _l
149 252 _l
153 190 171 142 205 110 _c
238 78 284 62 344 62 _c
378 62 412 66 444 74 _c
476 82 509 95 541 113 _c
541 28 _l
509 14 476 3 442 -3 _c
408 -9 373 -13 339 -13 _c
251 -13 182 12 131 62 _c
80 112 55 181 55 268 _c
55 357 79 428 127 481 _c
175 533 241 560 323 560 _c
397 560 455 536 498 489 _c
}_e{540 441 562 377 562 296 _c
472 322 _m
471 371 457 410 431 440 _c
404 469 368 484 324 484 _c
274 484 234 469 204 441 _c
174 413 156 373 152 322 _c
472 322 _l
_cl}_e}_d
/f{352 0 23 0 371 760 _sc
371 760 _m
371 685 _l
285 685 _l
253 685 230 678 218 665 _c
205 652 199 629 199 595 _c
199 547 _l
347 547 _l
347 477 _l
199 477 _l
199 0 _l
109 0 _l
109 477 _l
23 477 _l
23 547 _l
109 547 _l
109 585 _l
109 645 123 690 151 718 _c
179 746 224 760 286 760 _c
371 760 _l
_cl}_d
/i{278 0 94 0 184 760 _sc
94 547 _m
184 547 _l
184 0 _l
94 0 _l
94 547 _l
94 760 _m
184 760 _l
184 646 _l
94 646 _l
94 760 _l
_cl}_d
/m{{974 0 91 0 889 560 _sc
520 442 _m
542 482 569 511 600 531 _c
631 550 668 560 711 560 _c
767 560 811 540 842 500 _c
873 460 889 403 889 330 _c
889 0 _l
799 0 _l
799 327 _l
799 379 789 418 771 444 _c
752 469 724 482 686 482 _c
639 482 602 466 575 435 _c
548 404 535 362 535 309 _c
535 0 _l
445 0 _l
445 327 _l
445 379 435 418 417 444 _c
398 469 369 482 331 482 _c
}_e{285 482 248 466 221 435 _c
194 404 181 362 181 309 _c
181 0 _l
91 0 _l
91 547 _l
181 547 _l
181 462 _l
201 495 226 520 255 536 _c
283 552 317 560 357 560 _c
397 560 430 550 458 530 _c
486 510 506 480 520 442 _c
_cl}_e}_d
/n{634 0 91 0 549 560 _sc
549 330 _m
549 0 _l
459 0 _l
459 327 _l
459 379 448 417 428 443 _c
408 469 378 482 338 482 _c
289 482 251 466 223 435 _c
195 404 181 362 181 309 _c
181 0 _l
91 0 _l
91 547 _l
181 547 _l
181 462 _l
202 494 227 519 257 535 _c
286 551 320 560 358 560 _c
420 560 468 540 500 501 _c
532 462 549 405 549 330 _c
_cl}_d
/r{411 0 91 0 411 560 _sc
411 463 _m
401 469 390 473 378 476 _c
366 478 353 480 339 480 _c
288 480 249 463 222 430 _c
194 397 181 350 181 288 _c
181 0 _l
91 0 _l
91 547 _l
181 547 _l
181 462 _l
199 495 224 520 254 536 _c
284 552 321 560 365 560 _c
371 560 378 559 386 559 _c
393 558 401 557 411 555 _c
411 463 _l
_cl}_d
/s{{521 0 54 -13 472 560 _sc
443 531 _m
443 446 _l
417 458 391 468 364 475 _c
336 481 308 485 279 485 _c
234 485 200 478 178 464 _c
156 450 145 430 145 403 _c
145 382 153 366 169 354 _c
185 342 217 330 265 320 _c
296 313 _l
360 299 405 279 432 255 _c
458 230 472 195 472 151 _c
472 100 452 60 412 31 _c
372 1 316 -13 246 -13 _c
216 -13 186 -10 154 -5 _c
}_e{122 0 89 8 54 20 _c
54 113 _l
87 95 120 82 152 74 _c
184 65 216 61 248 61 _c
290 61 323 68 346 82 _c
368 96 380 117 380 144 _c
380 168 371 187 355 200 _c
339 213 303 226 247 238 _c
216 245 _l
160 257 119 275 95 299 _c
70 323 58 356 58 399 _c
58 450 76 490 112 518 _c
148 546 200 560 268 560 _c
301 560 332 557 362 552 _c
391 547 418 540 443 531 _c
}_e{_cl}_e}_d
/t{392 0 27 0 368 702 _sc
183 702 _m
183 547 _l
368 547 _l
368 477 _l
183 477 _l
183 180 _l
183 135 189 106 201 94 _c
213 81 238 75 276 75 _c
368 75 _l
368 0 _l
276 0 _l
206 0 158 13 132 39 _c
106 65 93 112 93 180 _c
93 477 _l
27 477 _l
27 547 _l
93 547 _l
93 702 _l
183 702 _l
_cl}_d
/y{592 0 30 -207 562 547 _sc
322 -50 _m
296 -114 271 -157 247 -177 _c
223 -197 191 -207 151 -207 _c
79 -207 _l
79 -132 _l
132 -132 _l
156 -132 175 -126 189 -114 _c
203 -102 218 -75 235 -31 _c
251 9 _l
30 547 _l
125 547 _l
296 119 _l
467 547 _l
562 547 _l
322 -50 _l
_cl}_d
end readonly def

/BuildGlyph
 {exch begin
 CharStrings exch
 2 copy known not{pop /.notdef}if
 true 3 1 roll get exec
 end}_d

/BuildChar {
 1 index /Encoding get exch get
 1 index /BuildGlyph get exec
}_d

FontName currentdict end definefont pop
end
%%EndProlog
mpldict begin
97.201 234.994 translate
417.598 322.012 0 0 clipbox
gsave
0 0 m
417.598125 0 l
417.598125 322.012 l
0 322.012 l
cl
1.000 setgray
fill
grestore
gsave
53.278125 48.7 m
410.398125 48.7 l
410.398125 314.812 l
53.278125 314.812 l
cl
1.000 setgray
fill
grestore
0.100 setlinewidth
1 setlinejoin
2 setlinecap
[] 0 setdash
0.000 setgray
gsave
357.1 266.1 53.28 48.7 clipbox
55.98358 48.7 m
55.98358 314.812 l
stroke
grestore
0 setlinecap
gsave
/o {
gsave
newpath
translate
0.1 setlinewidth
1 setlinejoin
0 setlinecap
0 0 m
0 -4 l

gsave
0.000 setgray
fill
grestore
stroke
grestore
} bind def
55.9836 48.7 o
grestore
/DejaVuSans findfont
15.000 scalefont
setfont
gsave
51.210142 29.809375 translate
0.000000 rotate
0.000000 0 m /zero glyphshow
grestore
2 setlinecap
gsave
357.1 266.1 53.28 48.7 clipbox
123.619943 48.7 m
123.619943 314.812 l
stroke
grestore
0 setlinecap
gsave
/o {
gsave
newpath
translate
0.1 setlinewidth
1 setlinejoin
0 setlinecap
0 0 m
0 -4 l

gsave
0.000 setgray
fill
grestore
stroke
grestore
} bind def
123.62 48.7 o
grestore
gsave
118.846506 29.809375 translate
0.000000 rotate
0.000000 0 m /five glyphshow
grestore
2 setlinecap
gsave
357.1 266.1 53.28 48.7 clipbox
191.256307 48.7 m
191.256307 314.812 l
stroke
grestore
0 setlinecap
gsave
/o {
gsave
newpath
translate
0.1 setlinewidth
1 setlinejoin
0 setlinecap
0 0 m
0 -4 l

gsave
0.000 setgray
fill
grestore
stroke
grestore
} bind def
191.256 48.7 o
grestore
gsave
181.709432 29.809375 translate
0.000000 rotate
0.000000 0 m /one glyphshow
9.543457 0 m /zero glyphshow
grestore
2 setlinecap
gsave
357.1 266.1 53.28 48.7 clipbox
258.89267 48.7 m
258.89267 314.812 l
stroke
grestore
0 setlinecap
gsave
/o {
gsave
newpath
translate
0.1 setlinewidth
1 setlinejoin
0 setlinecap
0 0 m
0 -4 l

gsave
0.000 setgray
fill
grestore
stroke
grestore
} bind def
258.893 48.7 o
grestore
gsave
249.345795 29.809375 translate
0.000000 rotate
0.000000 0 m /one glyphshow
9.543457 0 m /five glyphshow
grestore
2 setlinecap
gsave
357.1 266.1 53.28 48.7 clipbox
326.529034 48.7 m
326.529034 314.812 l
stroke
grestore
0 setlinecap
gsave
/o {
gsave
newpath
translate
0.1 setlinewidth
1 setlinejoin
0 setlinecap
0 0 m
0 -4 l

gsave
0.000 setgray
fill
grestore
stroke
grestore
} bind def
326.529 48.7 o
grestore
gsave
316.982159 29.809375 translate
0.000000 rotate
0.000000 0 m /two glyphshow
9.543457 0 m /zero glyphshow
grestore
2 setlinecap
gsave
357.1 266.1 53.28 48.7 clipbox
394.165398 48.7 m
394.165398 314.812 l
stroke
grestore
0 setlinecap
gsave
/o {
gsave
newpath
translate
0.1 setlinewidth
1 setlinejoin
0 setlinecap
0 0 m
0 -4 l

gsave
0.000 setgray
fill
grestore
stroke
grestore
} bind def
394.165 48.7 o
grestore
gsave
384.618523 29.809375 translate
0.000000 rotate
0.000000 0 m /two glyphshow
9.543457 0 m /five glyphshow
grestore
/DejaVuSans findfont
16.000 scalefont
setfont
gsave
189.963125 10.528125 translate
0.000000 rotate
0.000000 0 m /T glyphshow
9.273438 0 m /i glyphshow
13.718750 0 m /m glyphshow
29.304688 0 m /e glyphshow
39.148438 0 m /space glyphshow
44.234375 0 m /parenleft glyphshow
50.476562 0 m /s glyphshow
58.812500 0 m /e glyphshow
68.656250 0 m /c glyphshow
77.453125 0 m /parenright glyphshow
grestore
2 setlinecap
gsave
357.1 266.1 53.28 48.7 clipbox
53.278125 58.498522 m
410.398125 58.498522 l
stroke
grestore
0 setlinecap
gsave
/o {
gsave
newpath
translate
0.1 setlinewidth
1 setlinejoin
0 setlinecap
-0 0 m
-4 0 l

gsave
0.000 setgray
fill
grestore
stroke
grestore
} bind def
53.2781 58.4985 o
grestore
/DejaVuSans findfont
15.000 scalefont
setfont
gsave
26.684375 52.803209 translate
0.000000 rotate
0.000000 0 m /three glyphshow
9.543457 0 m /three glyphshow
grestore
2 setlinecap
gsave
357.1 266.1 53.28 48.7 clipbox
53.278125 111.780015 m
410.398125 111.780015 l
stroke
grestore
0 setlinecap
gsave
/o {
gsave
newpath
translate
0.1 setlinewidth
1 setlinejoin
0 setlinecap
-0 0 m
-4 0 l

gsave
0.000 setgray
fill
grestore
stroke
grestore
} bind def
53.2781 111.78 o
grestore
gsave
26.684375 106.084702 translate
0.000000 rotate
0.000000 0 m /three glyphshow
9.543457 0 m /four glyphshow
grestore
2 setlinecap
gsave
357.1 266.1 53.28 48.7 clipbox
53.278125 165.061508 m
410.398125 165.061508 l
stroke
grestore
0 setlinecap
gsave
/o {
gsave
newpath
translate
0.1 setlinewidth
1 setlinejoin
0 setlinecap
-0 0 m
-4 0 l

gsave
0.000 setgray
fill
grestore
stroke
grestore
} bind def
53.2781 165.062 o
grestore
gsave
26.684375 159.366195 translate
0.000000 rotate
0.000000 0 m /three glyphshow
9.543457 0 m /five glyphshow
grestore
2 setlinecap
gsave
357.1 266.1 53.28 48.7 clipbox
53.278125 218.343001 m
410.398125 218.343001 l
stroke
grestore
0 setlinecap
gsave
/o {
gsave
newpath
translate
0.1 setlinewidth
1 setlinejoin
0 setlinecap
-0 0 m
-4 0 l

gsave
0.000 setgray
fill
grestore
stroke
grestore
} bind def
53.2781 218.343 o
grestore
gsave
26.684375 212.647688 translate
0.000000 rotate
0.000000 0 m /three glyphshow
9.543457 0 m /six glyphshow
grestore
2 setlinecap
gsave
357.1 266.1 53.28 48.7 clipbox
53.278125 271.624494 m
410.398125 271.624494 l
stroke
grestore
0 setlinecap
gsave
/o {
gsave
newpath
translate
0.1 setlinewidth
1 setlinejoin
0 setlinecap
-0 0 m
-4 0 l

gsave
0.000 setgray
fill
grestore
stroke
grestore
} bind def
53.2781 271.624 o
grestore
gsave
26.684375 265.929181 translate
0.000000 rotate
0.000000 0 m /three glyphshow
9.543457 0 m /seven glyphshow
grestore
/DejaVuSans findfont
16.000 scalefont
setfont
gsave
19.356250 111.420063 translate
90.000000 rotate
0.000000 0 m /T glyphshow
7.398438 0 m /r glyphshow
13.976562 0 m /a glyphshow
23.781250 0 m /n glyphshow
33.921875 0 m /s glyphshow
42.257812 0 m /f glyphshow
47.890625 0 m /e glyphshow
57.734375 0 m /r glyphshow
64.312500 0 m /space glyphshow
69.398438 0 m /parenleft glyphshow
75.640625 0 m /M glyphshow
89.445312 0 m /B glyphshow
100.421875 0 m /y glyphshow
109.890625 0 m /t glyphshow
116.164062 0 m /e glyphshow
126.007812 0 m /s glyphshow
134.343750 0 m /parenright glyphshow
grestore
1.500 setlinewidth
0.000 0.000 1.000 setrgbcolor
gsave
357.1 266.1 53.28 48.7 clipbox
69.510852 60.796 m
69.510852 72.946655 l
stroke
grestore
gsave
357.1 266.1 53.28 48.7 clipbox
83.038125 247.885466 m
83.038125 267.961611 l
stroke
grestore
gsave
357.1 266.1 53.28 48.7 clipbox
96.565398 253.229576 m
96.565398 272.664868 l
stroke
grestore
gsave
357.1 266.1 53.28 48.7 clipbox
110.09267 247.790265 m
110.09267 267.143414 l
stroke
grestore
gsave
357.1 266.1 53.28 48.7 clipbox
123.619943 283.171728 m
123.619943 292.959552 l
stroke
grestore
gsave
357.1 266.1 53.28 48.7 clipbox
137.147216 248.940107 m
137.147216 258.990863 l
stroke
grestore
gsave
357.1 266.1 53.28 48.7 clipbox
150.674489 231.006852 m
150.674489 243.432893 l
stroke
grestore
gsave
357.1 266.1 53.28 48.7 clipbox
164.201761 246.192793 m
164.201761 256.866726 l
stroke
grestore
gsave
357.1 266.1 53.28 48.7 clipbox
177.729034 241.36683 m
177.729034 252.254253 l
stroke
grestore
gsave
357.1 266.1 53.28 48.7 clipbox
191.256307 236.16205 m
191.256307 249.84739 l
stroke
grestore
gsave
357.1 266.1 53.28 48.7 clipbox
204.78358 255.55199 m
204.78358 268.51566 l
stroke
grestore
gsave
357.1 266.1 53.28 48.7 clipbox
218.310852 295.336809 m
218.310852 302.716 l
stroke
grestore
gsave
357.1 266.1 53.28 48.7 clipbox
231.838125 289.25165 m
231.838125 296.318066 l
stroke
grestore
gsave
357.1 266.1 53.28 48.7 clipbox
245.365398 258.626284 m
245.365398 273.661939 l
stroke
grestore
gsave
357.1 266.1 53.28 48.7 clipbox
258.89267 256.560083 m
258.89267 268.72543 l
stroke
grestore
gsave
357.1 266.1 53.28 48.7 clipbox
272.419943 256.955281 m
272.419943 272.288285 l
stroke
grestore
gsave
357.1 266.1 53.28 48.7 clipbox
285.947216 274.833381 m
285.947216 289.728203 l
stroke
grestore
gsave
357.1 266.1 53.28 48.7 clipbox
299.474489 245.77301 m
299.474489 269.465135 l
stroke
grestore
gsave
357.1 266.1 53.28 48.7 clipbox
313.001761 236.945812 m
313.001761 263.373515 l
stroke
grestore
gsave
357.1 266.1 53.28 48.7 clipbox
326.529034 207.620533 m
326.529034 235.459247 l
stroke
grestore
gsave
357.1 266.1 53.28 48.7 clipbox
340.056307 243.137927 m
340.056307 268.142164 l
stroke
grestore
gsave
357.1 266.1 53.28 48.7 clipbox
353.58358 257.333495 m
353.58358 277.999385 l
stroke
grestore
gsave
357.1 266.1 53.28 48.7 clipbox
367.110852 218.206485 m
367.110852 244.359099 l
stroke
grestore
gsave
357.1 266.1 53.28 48.7 clipbox
380.638125 194.699228 m
380.638125 223.718832 l
stroke
grestore
gsave
357.1 266.1 53.28 48.7 clipbox
394.165398 87.942567 m
394.165398 123.743301 l
stroke
grestore
gsave
357.1 266.1 53.28 48.7 clipbox
0 0 m
stroke
grestore
gsave
357.1 266.1 53.28 48.7 clipbox
0 0 m
stroke
grestore
gsave
357.1 266.1 53.28 48.7 clipbox
0 0 m
stroke
grestore
[5.55 2.4] 0 setdash
gsave
357.1 266.1 53.28 48.7 clipbox
69.510852 66.871328 m
83.038125 257.923538 l
96.565398 262.947222 l
110.09267 257.46684 l
123.619943 288.06564 l
137.147216 253.965485 l
150.674489 237.219872 l
164.201761 251.529759 l
177.729034 246.810541 l
191.256307 243.00472 l
204.78358 262.033825 l
218.310852 299.026404 l
231.838125 292.784858 l
245.365398 266.144112 l
258.89267 262.642756 l
272.419943 264.621783 l
285.947216 282.280792 l
299.474489 257.619073 l
313.001761 250.159664 l
326.529034 221.53989 l
340.056307 255.640046 l
353.58358 267.66644 l
367.110852 231.282792 l
380.638125 209.20903 l
394.165398 105.842934 l
stroke
grestore
1.000 setlinewidth
0 setlinejoin
[] 0 setdash
gsave
357.1 266.1 53.28 48.7 clipbox
/o {
gsave
newpath
translate
1.0 setlinewidth
0 setlinejoin
0 setlinecap
-3 -3 m
3 -3 l
3 3 l
-3 3 l
cl

gsave
0.000 0.000 1.000 setrgbcolor
fill
grestore
stroke
grestore
} bind def
69.5109 66.8713 o
83.0381 257.924 o
96.5654 262.947 o
110.093 257.467 o
123.62 288.066 o
137.147 253.965 o
150.674 237.22 o
164.202 251.53 o
177.729 246.811 o
191.256 243.005 o
204.784 262.034 o
218.311 299.026 o
231.838 292.785 o
245.365 266.144 o
258.893 262.643 o
272.42 264.622 o
285.947 282.281 o
299.474 257.619 o
313.002 250.16 o
326.529 221.54 o
340.056 255.64 o
353.584 267.666 o
367.111 231.283 o
380.638 209.209 o
394.165 105.843 o
grestore
0.800 setlinewidth
2 setlinecap
0.000 setgray
gsave
53.278125 48.7 m
53.278125 314.812 l
stroke
grestore
gsave
410.398125 48.7 m
410.398125 314.812 l
stroke
grestore
gsave
53.278125 48.7 m
410.398125 48.7 l
stroke
grestore
gsave
53.278125 314.812 m
410.398125 314.812 l
stroke
grestore

end
showpage
